.github/outputs/wave.vcd
$version Generated by VerilatedVcd $end
$timescale 1ps $end
 $scope module TOP $end
  $scope module tb $end
   $var wire 32 n CLK_PERIOD [31:0] $end
   $var wire 32 o CLK_FREQ_HZ [31:0] $end
   $var wire 32 p AUDIO_SAMPLE_RATE [31:0] $end
   $var wire 32 q SAMPLES_PER_TONE [31:0] $end
   $var wire 32 r SINE_AMPLITUDE [31:0] $end
   $var wire 32 r SAW_AMPLITUDE [31:0] $end
   $var wire 32 n SILENCE_SAMPLES [31:0] $end
   $var wire 32 s SAMPLE_DIV [31:0] $end
   $var wire 32 t SINE_FREQ_HZ [31:0] $end
   $var wire 32 u SAW_FREQ_HZ [31:0] $end
   $var wire 1 m clk $end
   $var wire 1 # reset $end
   $var wire 16 $ audio_in [15:0] $end
   $var wire 10 % SW [9:0] $end
   $var wire 16 S audio_out [15:0] $end
   $var real 64 & sum_in $end
   $var real 64 ( sum_out $end
   $var real 64 * sum_sq_in $end
   $var real 64 , sum_sq_out $end
   $var wire 32 . count_samples [31:0] $end
   $var wire 16 / min_in [15:0] $end
   $var wire 16 0 max_in [15:0] $end
   $var wire 16 1 min_out [15:0] $end
   $var wire 16 2 max_out [15:0] $end
   $var wire 32 T sample_cnt [31:0] $end
   $var wire 1 U sample_tick $end
   $var real 64 3 print_stats__Vstatic__avg_in $end
   $var real 64 5 print_stats__Vstatic__avg_out $end
   $var real 64 7 print_stats__Vstatic__rms_in $end
   $var real 64 9 print_stats__Vstatic__rms_out $end
   $var real 64 ; print_stats__Vstatic__gain_db $end
   $var wire 32 = play_sine_tone_nowarmup__Vstatic__i [31:0] $end
   $var real 64 > play_sine_tone_nowarmup__Vstatic__phase $end
   $var real 64 @ play_sine_tone_nowarmup__Vstatic__phase_inc $end
   $var real 64 B play_sine_tone_nowarmup__Vstatic__s $end
   $var wire 32 D play_sine_tone__Vstatic__i [31:0] $end
   $var real 64 E play_sine_tone__Vstatic__phase $end
   $var real 64 G play_sine_tone__Vstatic__phase_inc $end
   $var real 64 I play_sine_tone__Vstatic__s $end
   $var wire 32 K play_saw_tone__Vstatic__i [31:0] $end
   $var real 64 L play_saw_tone__Vstatic__phase $end
   $var real 64 N play_saw_tone__Vstatic__phase_inc $end
   $var real 64 P play_saw_tone__Vstatic__v $end
   $scope module dut $end
    $var wire 1 m clk $end
    $var wire 1 # reset $end
    $var wire 16 $ audio_in [15:0] $end
    $var wire 10 % SW [9:0] $end
    $var wire 16 S audio_out [15:0] $end
    $var wire 3 R effect_select [2:0] $end
    $var wire 16 h noise_gate_out [15:0] $end
    $var wire 16 V high_pitch_out [15:0] $end
    $var wire 16 W low_pitch_out [15:0] $end
    $var wire 16 X reverb_out [15:0] $end
    $var wire 16 Y muffled_out [15:0] $end
    $scope module hp_inst $end
     $var wire 1 m clk $end
     $var wire 1 # reset $end
     $var wire 16 $ audio_in [15:0] $end
     $var wire 16 V audio_out [15:0] $end
     $var wire 32 v HIGH_PITCH_PERIOD [31:0] $end
     $var wire 11 Z counter [10:0] $end
     $var wire 1 [ hold $end
     $var wire 16 \ held_sample [15:0] $end
    $upscope $end
    $scope module lp_inst $end
     $var wire 1 m clk $end
     $var wire 1 # reset $end
     $var wire 16 $ audio_in [15:0] $end
     $var wire 16 W audio_out [15:0] $end
     $var wire 32 w LOW_PITCH_PERIOD [31:0] $end
     $var wire 12 ] counter [11:0] $end
     $var wire 1 ^ repeat_sig $end
     $var wire 16 _ held_sample [15:0] $end
    $upscope $end
    $scope module muf_inst $end
     $var wire 1 m clk $end
     $var wire 1 # reset $end
     $var wire 16 $ audio_in [15:0] $end
     $var wire 16 Y audio_out [15:0] $end
     $var wire 16 ` prev1 [15:0] $end
     $var wire 16 a prev2 [15:0] $end
     $var wire 16 b prev3 [15:0] $end
     $var wire 18 c sum [17:0] $end
    $upscope $end
    $scope module ng_inst $end
     $var wire 1 m clk $end
     $var wire 16 $ audio_in [15:0] $end
     $var wire 16 h audio_out [15:0] $end
     $var wire 16 x OPEN_THR [15:0] $end
     $var wire 16 y CLOSE_THR [15:0] $end
     $var wire 10 z GAIN_MAX [9:0] $end
     $var wire 10 { GAIN_MIN [9:0] $end
     $var wire 10 | ATK_STEP [9:0] $end
     $var wire 10 } RLS_STEP [9:0] $end
     $var wire 10 i gain [9:0] $end
     $var wire 1 j is_open $end
     $var wire 16 k abs_v [15:0] $end
     $var wire 26 l mult_result [25:0] $end
    $upscope $end
    $scope module rev_inst $end
     $var wire 1 m clk $end
     $var wire 1 # reset $end
     $var wire 16 $ audio_in [15:0] $end
     $var wire 16 X audio_out [15:0] $end
     $var wire 32 ~ DELAY_LENGTH [31:0] $end
     $var wire 9 d write_ptr [8:0] $end
     $var wire 9 e read_ptr [8:0] $end
     $var wire 16 f delay_out [15:0] $end
     $var wire 17 g mix [16:0] $end
    $upscope $end
   $upscope $end
  $upscope $end
 $upscope $end
$enddefinitions $end


#0
1#
b0000000000000000 $
b0000000000 %
r0 &
r0 (
r0 *
r0 ,
b00000000000000000000000000000000 .
b0000000000000000 /
b0000000000000000 0
b0000000000000000 1
b0000000000000000 2
r0 3
r0 5
r0 7
r0 9
r0 ;
b00000000000000000000000000000000 =
r0 >
r0 @
r0 B
b00000000000000000000000000000000 D
r0 E
r0 G
r0 I
b00000000000000000000000000000000 K
r0 L
r0 N
r0 P
b000 R
b0000000000000000 S
b00000000000000000000000000000000 T
0U
b0000000000000000 V
b0000000000000000 W
b0000000000000000 X
b0000000000000000 Y
b00000000000 Z
0[
b0000000000000000 \
b000000000000 ]
0^
b0000000000000000 _
b0000000000000000 `
b0000000000000000 a
b0000000000000000 b
b000000000000000000 c
b000000000 d
b000000000 e
b0000000000000000 f
b00000000000000000 g
b0000000000000000 h
b0001100110 i
0j
b0000000000000000 k
b00000000000000000000000000 l
0m
b00000000000000000000000000010100 n
b00000010111110101111000010000000 o
b00000000000000001011101110000000 p
b00000000000000000000000001100100 q
b00000000000000000010011100010000 r
b00000000000000000000000000000001 s
b00000000000000000000001111101000 t
b00000000000000000000000111110100 u
b00000000000000000000010000010010 v
b00000000000000000000100000100100 w
b0000001111101000 x
b0000000111110100 y
b1111111111 z
b0001100110 {
b0000001010 |
b0000000001 }
b00000000000000000000001000000000 ~
#10000
1m
#20000
0m
#30000
1m
#40000
0m
#50000
1m
#60000
0m
#70000
1m
#80000
0m
#90000
1m
#100000
0m
#110000
1m
#120000
0m
#130000
1m
#140000
0m
#150000
1m
#160000
0m
#170000
1m
#180000
0m
#190000
0#
1U
b00000000001 Z
b000000000001 ]
b000000001 d
b000000001 e
1m
#200000
0m
#210000
b00000000010 Z
b000000000010 ]
b000000010 d
b000000010 e
1m
#220000
0m
#230000
b00000000011 Z
b000000000011 ]
b000000011 d
b000000011 e
1m
#240000
0m
#250000
b00000000100 Z
b000000000100 ]
b000000100 d
b000000100 e
1m
#260000
0m
#270000
b00000000101 Z
b000000000101 ]
b000000101 d
b000000101 e
1m
#280000
0m
#290000
b00000000110 Z
b000000000110 ]
b000000110 d
b000000110 e
1m
#300000
0m
#310000
b00000000111 Z
b000000000111 ]
b000000111 d
b000000111 e
1m
#320000
0m
#330000
b00000001000 Z
b000000001000 ]
b000001000 d
b000001000 e
1m
#340000
0m
#350000
b00000001001 Z
b000000001001 ]
b000001001 d
b000001001 e
1m
#360000
0m
#370000
b00000001010 Z
b000000001010 ]
b000001010 d
b000001010 e
1m
#380000
0m
#390000
b00000001011 Z
b000000001011 ]
b000001011 d
b000001011 e
1m
#400000
0m
#410000
b00000001100 Z
b000000001100 ]
b000001100 d
b000001100 e
1m
#420000
0m
#430000
b00000001101 Z
b000000001101 ]
b000001101 d
b000001101 e
1m
#440000
0m
#450000
b00000001110 Z
b000000001110 ]
b000001110 d
b000001110 e
1m
#460000
0m
#470000
b00000001111 Z
b000000001111 ]
b000001111 d
b000001111 e
1m
#480000
0m
#490000
b0111111111111111 /
b1000000000000000 0
b0111111111111111 1
b1000000000000000 2
r0.1308996938995833 G
b00000010000 Z
b000000010000 ]
b000010000 d
b000010000 e
1m
#500000
0m
#510000
b00000010001 Z
b000000010001 ]
b000010001 d
b000010001 e
1m
#520000
0m
#530000
b00000000000000000000000000000001 .
b0000000000000000 /
b0000000000000000 0
b0000000000000000 1
b0000000000000000 2
b00000000000000000000000000000001 D
r0.1308996938995833 E
b00000010010 Z
b000000010010 ]
b000010010 d
b000010010 e
1m
#540000
0m
#550000
b0000010100011001 $
r0.1305261922200601 I
b0000010100011001 V
b0000010100011001 X
b0000000101000110 Y
b00000010011 Z
b000000010011 ]
b0000010100011001 `
b000000010100011001 c
b000010011 d
b000010011 e
b00000010100011001 g
b0000010100011001 k
b00000000100000011111110110 l
1m
#560000
0m
#570000
r1305 &
r1703025 *
b00000000000000000000000000000010 .
b0000010100011001 0
b00000000000000000000000000000010 D
r0.2617993877991667 E
b0000001010001100 Y
b00000010100 Z
b000000010100 ]
b0000010100011001 a
b000000101000110010 c
b000010100 d
b000010100 e
b0000000010000001 h
1j
1m
#580000
0m
#590000
b0000101000011100 $
r0.2588190451025374 I
b0000000010000001 S
b0000101000011100 V
b0000101000011100 X
b0000010100010011 Y
b00000010101 Z
b000000010101 ]
b0000101000011100 `
b0000010100011001 b
b000001010001001110 c
b000010101 d
b000010101 e
b00000101000011100 g
b0001110000 i
b0000101000011100 k
b00000001000000011100101000 l
1m
#600000
0m
#610000
r3893 &
r129 (
r8400769 *
r16641 ,
b00000000000000000000000000000011 .
b0000101000011100 0
b0000000010000001 2
b00000000000000000000000000000011 D
r0.39269908169875 E
b0000011110011010 Y
b00000010110 Z
b000000010110 ]
b0000101000011100 a
b000001111001101010 c
b000010110 d
b000010110 e
b0000000100000001 h
b0001111010 i
b00000001000110110001000000 l
1m
#620000
0m
#630000
b0000111011110010 $
r0.3826834323651137 I
b0000000100000001 S
b0000111011110010 V
b0000111011110010 X
b0000101000010000 Y
b00000010111 Z
b000000010111 ]
b0000111011110010 `
b0000101000011100 b
b000010100001000011 c
b000010111 d
b000010111 e
b00000111011110010 g
b0000000100011011 h
b0010000100 i
b0000111011110010 k
b00000001110001111101010100 l
1m
#640000
0m
#650000
r7719 &
r386 (
r23039045 *
r82690 ,
b00000000000000000000000000000100 .
b0000111011110010 0
b0000000100000001 2
b00000000000000000000000000000100 D
r0.5235987755983333 E
b0000000100011011 S
b0000110010000111 Y
b00000011000 Z
b000000011000 ]
b0000111011110010 a
b000011001000011100 c
b000011000 d
b000011000 e
b0000000111000111 h
b0010001110 i
b00000001111011010011001000 l
1m
#660000
0m
#670000
b0001001110001000 $
r0.5000000000000299 I
b0000000111000111 S
b0001001110001000 V
b0001001110001000 X
b0000111011100010 Y
b00000011001 Z
b000000011001 ]
b0001001110001000 `
b0000111011110010 b
b000011101110001000 c
b000011001 d
b000011001 e
b00001001110001000 g
b0000000111101101 h
b0010011000 i
b0001001110001000 k
b00000010101101010101110000 l
1m
#680000
0m
#690000
r12719 &
r841 (
r48039045 *
r289715 ,
b00000000000000000000000000000101 .
b0001001110001000 0
b0000000111000111 2
b00000000000000000000000000000101 D
r0.6544984694979167 E
b0000000111101101 S
b0001000100111101 Y
b00000011010 Z
b000000011010 ]
b0001001110001000 a
b000100010011110100 c
b000011010 d
b000011010 e
b0000001010110101 h
b0010100010 i
b00000010111001100011000000 l
1m
#700000
0m
#710000
b0001011111000111 $
r0.6087614290087549 I
b0000001010110101 S
b0001011111000111 V
b0001011111000111 X
b0001001101110010 Y
b00000011011 Z
b000000011011 ]
b0001011111000111 `
b0001001110001000 b
b000100110111001001 c
b000011011 d
b000011011 e
b00001011111000111 g
b0000001011100110 h
b0010101100 i
b0001011111000111 k
b00000011110000101111101110 l
1m
#720000
0m
#730000
r18806 &
r1534 (
r85090614 *
r769964 ,
b00000000000000000000000000000110 .
b0001011111000111 0
b0000001010110101 2
b00000000000000000000000000000110 D
r0.7853981633975 E
b0000001011100110 S
b0001010110100111 Y
b00000011100 Z
b000000011100 ]
b0001011111000111 a
b000101011010011110 c
b000011100 d
b000011100 e
b0000001111000010 h
b0010110110 i
b00000011111111100110110100 l
1m
#740000
0m
#750000
b0001101110011111 $
r0.7071067811865841 I
b0000001111000010 S
b0001101110011111 V
b0001101110011111 X
b0001011110101101 Y
b00000011101 Z
b000000011101 ]
b0001101110011111 `
b0001011111000111 b
b000101111010110101 c
b000011101 d
b000011101 e
b00001101110011111 g
b0000001111111110 h
b0011000000 i
b0001101110011111 k
b00000100111010001100001010 l
1m
#760000
0m
#770000
r25877 &
r2496 (
r135089655 *
r1695408 ,
b00000000000000000000000000000111 .
b0001101110011111 0
b0000001111000010 2
b00000000000000000000000000000111 D
r0.9162978572970834 E
b0000001111111110 S
b0001100110110011 Y
b00000011110 Z
b000000011110 ]
b0001101110011111 a
b000110011011001100 c
b000011110 d
b000011110 e
b0000010011101000 h
b0011001010 i
b00000101001011011101000000 l
1m
#780000
0m
#790000
b0001111011111101 $
r0.7933533402912719 I
b0000010011101000 S
b0001111011111101 V
b0001111011111101 X
b0001101110000000 Y
b00000011111 Z
b000000011111 ]
b0001111011111101 `
b0001101110011111 b
b000110111000000010 c
b000011111 d
b000011111 e
b00001111011111101 g
b0000010100101101 h
b0011010100 i
b0001111011111101 k
b00000110000111001110100010 l
1m
#800000
0m
#810000
r33810 &
r3752 (
r198022144 *
r3272944 ,
b00000000000000000000000000001000 .
b0001111011111101 0
b0000010011101000 2
b00000000000000000000000000001000 D
r1.047197551196667 E
b0000010100101101 S
b0001110101001110 Y
b00000100000 Z
b000000100000 ]
b0001111011111101 a
b000111010100111000 c
b000100000 d
b000100000 e
b0000011000011100 h
b0011011110 i
b00000110011010100110000100 l
1m
#820000
0m
#830000
b0010000111010100 $
r0.8660254037844731 I
b0000011000011100 S
b0010000111010100 V
b0010000111010100 X
b0001111011011011 Y
b00000100001 Z
b000000100001 ]
b0010000111010100 `
b0001111011111101 b
b000111101101101101 c
b000100001 d
b000100001 e
b00010000111010100 g
b0000011001101010 h
b0011101000 i
b0010000111010100 k
b00000111010101010111011000 l
1m
#840000
0m
#850000
r42470 &
r5316 (
r273017744 *
r5719040 ,
b00000000000000000000000000001001 .
b0010000111010100 0
b0000011000011100 2
b00000000000000000000000000001001 D
r1.17809724509625 E
b0000011001101010 S
b0010000001101000 Y
b00000100010 Z
b000000100010 ]
b0010000111010100 a
b001000000110100010 c
b000100010 d
b000100010 e
b0000011101010101 h
b0011110010 i
b00000111101010100000100000 l
1m
#860000
0m
#870000
b0010010000010110 $
r0.9238795325113165 I
b0000011101010101 S
b0010010000010110 V
b0010010000010110 X
b0010000110101110 Y
b00000100011 Z
b000000100011 ]
b0010010000010110 `
b0010000111010100 b
b001000011010111011 c
b000100011 d
b000100011 e
b00010010000010110 g
b0000011110101010 h
b0011111100 i
b0010010000010110 k
b00001000100001110011001100 l
1m
#880000
0m
#890000
r51708 &
r7193 (
r358358388 *
r9242169 ,
b00000000000000000000000000001010 .
b0010010000010110 0
b0000011101010101 2
b00000000000000000000000000001010 D
r1.308996938995834 E
b0000011110101010 S
b0010001011110101 Y
b00000100100 Z
b000000100100 ]
b0010010000010110 a
b001000101111010100 c
b000100100 d
b000100100 e
b0000100010000111 h
b0100000110 i
b00001000111000010110101000 l
1m
#900000
0m
#910000
b0010010110111011 $
r0.9659258262890906 I
b0000100010000111 S
b0010010110111011 V
b0010010110111011 X
b0010001111101110 Y
b00000100101 Z
b000000100101 ]
b0010010110111011 `
b0010010000010110 b
b001000111110111011 c
b000100101 d
b000100101 e
b00010010110111011 g
b0000100011100001 h
b0100010000 i
b0010010110111011 k
b00001001101001110101100010 l
1m
#920000
0m
#930000
r61367 &
r9376 (
r451654669 *
r14007658 ,
b00000000000000000000000000001011 .
b0010010110111011 0
b0000100010000111 2
b00000000000000000000000000001011 D
r1.439896632895417 E
b0000100011100001 S
b0010010011101000 Y
b00000100110 Z
b000000100110 ]
b0010010110111011 a
b001001001110100010 c
b000100110 d
b000100110 e
b0000100110100111 h
b0100011010 i
b00001010000001011010110000 l
1m
#940000
0m
#950000
b0010011010111010 $
r0.9914448613738228 I
b0000100110100111 S
b0010011010111010 V
b0010011010111010 X
b0010010110010001 Y
b00000100111 Z
b000000100111 ]
b0010011010111010 `
b0010010110111011 b
b001001011001000110 c
b000100111 d
b000100111 e
b00010011010111010 g
b0000101000000101 h
b0100100100 i
b0010011010111010 k
b00001010101010100011100100 l
1m
#960000
0m
#970000
r71281 &
r11847 (
r549942065 *
r20113499 ,
b00000000000000000000000000001100 .
b0010011010111010 0
b0000100110100111 2
b00000000000000000000000000001100 D
r1.570796326795 E
b0000101000000101 S
b0010011000111010 Y
b00000101000 Z
b000000101000 ]
b0010011010111010 a
b001001100011101010 c
b000101000 d
b000101000 e
b0000101010101010 h
b0100101110 i
b00001011000010110000101000 l
1m
#980000
0m
#990000
b0010011100010000 $
r1 I
b0000101010101010 S
b0010011100010000 V
b0010011100010000 X
b0010011010001111 Y
b00000101001 Z
b000000101001 ]
b0010011100010000 `
b0010011010111010 b
b001001101000111111 c
b000101001 d
b000101001 e
b00010011100010000 g
b0000101100001011 h
b0100111000 i
b0010011100010000 k
b00001011100001010011100000 l
1m
#1000000
0m
#1010000
r81281 &
r14577 (
r649942065 *
r27566399 ,
b00000000000000000000000000001101 .
b0010011100010000 0
b0000101010101010 2
b00000000000000000000000000001101 D
r1.701696020694584 E
b0000101100001011 S
b0010011011100101 Y
b00000101010 Z
b000000101010 ]
b0010011100010000 a
b001001101110010100 c
b000101010 d
b000101010 e
b0000101110000101 h
b0101000010 i
b00001011111001101110000000 l
1m
#1020000
0m
#1030000
b0010011010111010 $
r0.9914448613737957 I
b0000101110000101 S
b0010011010111010 V
b0010011010111010 X
b00000101011 Z
b000000101011 ]
b0010011010111010 `
b0010011100010000 b
b000101011 d
b000101011 e
b00010011010111010 g
b0000101111100110 h
b0101001100 i
b0010011010111010 k
b00001100001011010111110100 l
1m
#1040000
0m
#1050000
r91195 &
r17526 (
r748229461 *
r36263000 ,
b00000000000000000000000000001110 .
b0000101110000101 2
b00000000000000000000000000001110 D
r1.832595714594167 E
b0000101111100110 S
b00000101100 Z
b000000101100 ]
b0010011010111010 a
b000101100 d
b000101100 e
b0000110000101101 h
b0101010110 i
b00001100100011100100111000 l
1m
#1060000
0m
#1070000
b0010010110111011 $
r0.9659258262890369 I
b0000110000101101 S
b0010010110111011 V
b0010010110111011 X
b0010011010001111 Y
b00000101101 Z
b000000101101 ]
b0010010110111011 `
b0010011010111010 b
b001001101000111111 c
b000101101 d
b000101101 e
b00010010110111011 g
b0000110010001110 h
b0101100000 i
b0010010110111011 k
b00001100100110011111010010 l
1m
#1080000
0m
#1090000
r100854 &
r20643 (
r841525742 *
r45978689 ,
b00000000000000000000000000001111 .
b0000110000101101 2
b00000000000000000000000000001111 D
r1.963495408493751 E
b0000110010001110 S
b0010011000111010 Y
b00000101110 Z
b000000101110 ]
b0010010110111011 a
b001001100011101010 c
b000101110 d
b000101110 e
b0000110010011001 h
b0101101010 i
b00001100111110000100100000 l
1m
#1100000
0m
#1110000
b0010010000010110 $
r0.923879532511237 I
b0000110010011001 S
b0010010000010110 V
b0010010000010110 X
b0010010110010001 Y
b00000101111 Z
b000000101111 ]
b0010010000010110 `
b0010010110111011 b
b001001011001000110 c
b000101111 d
b000101111 e
b00010010000010110 g
b0000110011111000 h
b0101110100 i
b0010010000010110 k
b00001100110000011100011100 l
1m
#1120000
0m
#1130000
r110092 &
r23868 (
r926866386 *
r56379314 ,
b00000000000000000000000000010000 .
b0000110010011001 2
b00000000000000000000000000010000 D
r2.094395102393334 E
b0000110011111000 S
b0010010011101000 Y
b00000110000 Z
b000000110000 ]
b0010010000010110 a
b001001001110100010 c
b000110000 d
b000110000 e
b0000110011000001 h
b0101111110 i
b00001101000110111111111000 l
1m
#1140000
0m
#1150000
b0010000111010100 $
r0.8660254037843692 I
b0000110011000001 S
b0010000111010100 V
b0010000111010100 X
b0010001111101110 Y
b00000110001 Z
b000000110001 ]
b0010000111010100 `
b0010010000010110 b
b001000111110111011 c
b000110001 d
b000110001 e
b00010000111010100 g
b0000110100011011 h
b0110001000 i
b0010000111010100 k
b00001100100111101001011000 l
1m
#1160000
0m
#1170000
r118752 &
r27133 (
r1001861986 *
r67039539 ,
b00000000000000000000000000010001 .
b0000110011000001 2
b00000000000000000000000000010001 D
r2.225294796292918 E
b0000110100011011 S
b0010001011110101 Y
b00000110010 Z
b000000110010 ]
b0010000111010100 a
b001000101111010100 c
b000110010 d
b000110010 e
b0000110010011110 h
b0110010010 i
b00001100111100110010100000 l
1m
#1180000
0m
#1190000
b0001111011111101 $
r0.7933533402911453 I
b0000110010011110 S
b0001111011111101 V
b0001111011111101 X
b0010000110101110 Y
b00000110011 Z
b000000110011 ]
b0001111011111101 `
b0010000111010100 b
b001000011010111011 c
b000110011 d
b000110011 e
b00001111011111101 g
b0000110011110011 h
b0110011100 i
b0001111011111101 k
b00001100001010100101001010 l
1m
#1200000
0m
#1210000
r126685 &
r30363 (
r1064794475 *
r77472439 ,
b00000000000000000000000000010010 .
b00000000000000000000000000010010 D
r2.356194490192501 E
b0000110011110011 S
b0010000001101000 Y
b00000110100 Z
b000000110100 ]
b0001111011111101 a
b001000000110100010 c
b000110100 d
b000110100 e
b0000110000101010 h
b0110100110 i
b00001100011101111100101100 l
1m
#1220000
0m
#1230000
b0001101110011111 $
r0.7071067811864371 I
b0000110000101010 S
b0001101110011111 V
b0001101110011111 X
b0001111011011011 Y
b00000110101 Z
b000000110101 ]
b0001101110011111 `
b0001111011111101 b
b000111101101101101 c
b000110101 d
b000110101 e
b00001101110011111 g
b0000110001110111 h
b0110110000 i
b0001101110011111 k
b00001011011000100000011010 l
1m
#1240000
0m
#1250000
r133756 &
r33477 (
r1114793516 *
r87169435 ,
b00000000000000000000000000010011 .
b00000000000000000000000000010011 D
r2.487094184092085 E
b0000110001110111 S
b0001110101001110 Y
b00000110110 Z
b000000110110 ]
b0001101110011111 a
b000111010100111000 c
b000110110 d
b000110110 e
b0000101101100010 h
b0110111010 i
b00001011101001110001010000 l
1m
#1260000
0m
#1270000
b0001011111000111 $
r0.6087614290085898 I
b0000101101100010 S
b0001011111000111 V
b0001011111000111 X
b0001101110000000 Y
b00000110111 Z
b000000110111 ]
b0001011111000111 `
b0001101110011111 b
b000110111000000010 c
b000110111 d
b000110111 e
b00001011111000111 g
b0000101110100111 h
b0111000100 i
b0001011111000111 k
b00001010010000110110010110 l
1m
#1280000
0m
#1290000
r139843 &
r36391 (
r1151845085 *
r95660831 ,
b00000000000000000000000000010100 .
b00000000000000000000000000010100 D
r2.617993877991668 E
b0000101110100111 S
b0001100110110011 Y
b00000111000 Z
b000000111000 ]
b0001011111000111 a
b000110011011001100 c
b000111000 d
b000111000 e
b0000101001000011 h
b0111001110 i
b00001010011111101101011100 l
1m
#1300000
0m
#1310000
b0001001110000111 $
r0.4999999999998496 I
b0000101001000011 S
b0001001110000111 V
b0001001110000111 X
b0001011110101101 Y
b00000111001 Z
b000000111001 ]
b0001001110000111 `
b0001011111000111 b
b000101111010110100 c
b000111001 d
b000111001 e
b00001001110000111 g
b0000101001111110 h
b0111011000 i
b0001001110000111 k
b00001000110011110110100010 l
1m
#1320000
0m
#1330000
r144842 &
r39018 (
r1176835086 *
r102561960 ,
b00000000000000000000000000010101 .
b00000000000000000000000000010101 D
r2.748893571891251 E
b0000101001111110 S
b0001010110100111 Y
b00000111010 Z
b000000111010 ]
b0001001110000111 a
b000101011010011100 c
b000111010 d
b000111010 e
b0000100011001111 h
b0111100010 i
b00001001000000000011101000 l
1m
#1340000
0m
#1350000
b0000111011110010 $
r0.3826834323649212 I
b0000100011001111 S
b0000111011110010 V
b0000111011110010 X
b0001001101110001 Y
b00000111011 Z
b000000111011 ]
b0000111011110010 `
b0001001110000111 b
b000100110111000111 c
b000111011 d
b000111011 e
b00000111011110010 g
b0000100100000000 h
b0111101100 i
b0000111011110010 k
b00000111000010001110100100 l
1m
#1360000
0m
#1370000
r148668 &
r41273 (
r1191473362 *
r107646985 ,
b00000000000000000000000000010110 .
b00000000000000000000000000010110 D
r2.879793265790835 E
b0000100100000000 S
b0001000100111100 Y
b00000111100 Z
b000000111100 ]
b0000111011110010 a
b000100010011110010 c
b000111100 d
b000111100 e
b0000011100001000 h
b0111110110 i
b00000111001011100100011000 l
1m
#1380000
0m
#1390000
b0000101000011100 $
r0.2588190451023361 I
b0000011100001000 S
b0000101000011100 V
b0000101000011100 X
b0000111011100001 Y
b00000111101 Z
b000000111101 ]
b0000101000011100 `
b0000111011110010 b
b000011101110000111 c
b000111101 d
b000111101 e
b00000101000011100 g
b0000011100101110 h
b1000000000 i
b0000101000011100 k
b00000100111101001011101000 l
1m
#1400000
0m
#1410000
r151256 &
r43073 (
r1198171106 *
r110886985 ,
b00000000000000000000000000010111 .
b00000000000000000000000000010111 D
r3.010692959690418 E
b0000011100101110 S
b0000110010000111 Y
b00000111110 Z
b000000111110 ]
b0000101000011100 a
b000011001000011100 c
b000111110 d
b000111110 e
b0000010011110100 h
b1000001010 i
b00000101000011100000000000 l
1m
#1420000
0m
#1430000
b0000010100011001 $
r0.1305261922198534 I
b0000010011110100 S
b0000010100011001 V
b0000010100011001 X
b0000101000010000 Y
b00000111111 Z
b000000111111 ]
b0000010100011001 `
b0000101000011100 b
b000010100001000011 c
b000111111 d
b000111111 e
b00000010100011001 g
b0000010100001110 h
b1000010100 i
b0000010100011001 k
b00000010100110010011111010 l
1m
#1440000
0m
#1450000
r152561 &
r44341 (
r1199874131 *
r112494809 ,
b00000000000000000000000000011000 .
b00000000000000000000000000011000 D
r3.141592653590002 E
b0000010100001110 S
b0000011110011010 Y
b00001000000 Z
b000001000000 ]
b0000010100011001 a
b000001111001101010 c
b001000000 d
b001000000 e
b0000001010011001 h
b1000011110 i
b00000010101001011111110100 l
1m
#1460000
0m
#1470000
b0000000000000000 $
r-2.085994639496147e-13 I
b0000001010011001 S
b0000000000000000 V
b0000000000000000 X
b0000010100010011 Y
b00001000001 Z
b000001000001 ]
b0000000000000000 `
b0000010100011001 b
b000001010001001110 c
b001000001 d
b001000001 e
b00000000000000000 g
b0000001010100101 h
b1000101000 i
b0000000000000000 k
b00000000000000000000000000 l
1m
#1480000
0m
#1490000
r45006 (
r112937034 ,
b00000000000000000000000000011001 .
b00000000000000000000000000011001 D
r3.272492347489585 E
b0000001010100101 S
b0000001010001100 Y
b00001000010 Z
b000001000010 ]
b0000000000000000 a
b000000101000110010 c
b001000010 d
b001000010 e
b0000000000000000 h
b1000110010 i
0j
1m
#1500000
0m
#1510000
b1111101011100111 $
r-0.1305261922202671 I
b0000000000000000 S
b1111101011100111 V
b1111101011100111 X
b0000000000000000 Y
b00001000011 Z
b000001000011 ]
b1111101011100111 `
b0000000000000000 b
b000000000000000000 c
b001000011 d
b001000011 e
b11111101011100111 g
b1000110001 i
b0000010100011001 k
b11111101001100111100011110 l
1m
#1520000
0m
#1530000
r151256 &
r1201577156 *
b00000000000000000000000000011010 .
b1111101011100111 /
b00000000000000000000000000011010 D
r3.403392041389169 E
b1111110101110011 Y
b00001000100 Z
b000001000100 ]
b1111101011100111 a
b111111010111001110 c
b001000100 d
b001000100 e
b1111110100110011 h
b1000110000 i
1j
b11111101001101010000110111 l
1m
#1540000
0m
#1550000
b1111010111100100 $
r-0.2588190451027391 I
b1111110100110011 S
b1111010111100100 V
b1111010111100100 X
b1111101011101100 Y
b00001000101 Z
b000001000101 ]
b1111010111100100 `
b1111101011100111 b
b111110101110110010 c
b001000101 d
b001000101 e
b11111010111100100 g
b1111110100110101 h
b1000111010 i
b0000101000011100 k
b11111010011110001011000000 l
1m
#1560000
0m
#1570000
r148668 &
r44289 (
r1208274900 *
r113451123 ,
b00000000000000000000000000011011 .
b1111010111100100 /
b1111110100110011 1
b00000000000000000000000000011011 D
r3.534291735288752 E
b1111110100110101 S
b1111100001100101 Y
b00001000110 Z
b000001000110 ]
b1111010111100100 a
b111110000110010110 c
b001000110 d
b001000110 e
b1111101001111000 h
b1001000100 i
b11111010010111110110101000 l
1m
#1580000
0m
#1590000
b1111000100001110 $
r-0.3826834323653067 I
b1111101001111000 S
b1111000100001110 V
b1111000100001110 X
b1111010111101111 Y
b00001000111 Z
b000001000111 ]
b1111000100001110 `
b1111010111100100 b
b111101011110111101 c
b001000111 d
b001000111 e
b11111000100001110 g
b1111101001011111 h
b1001001110 i
b0000111011110010 k
b11110111100010001110111000 l
1m
#1600000
0m
#1610000
r144842 &
r42873 (
r1222913176 *
r115456179 ,
b00000000000000000000000000011100 .
b1111000100001110 /
b1111101001111000 1
b00000000000000000000000000011100 D
r3.665191429188336 E
b1111101001011111 S
b1111001101111001 Y
b00001001000 Z
b000001001000 ]
b1111000100001110 a
b111100110111100100 c
b001001000 d
b001001000 e
b1111011110001000 h
b1001011000 i
b11110111011000111001000100 l
1m
#1620000
0m
#1630000
b1110110001111000 $
r-0.5000000000002109 I
b1111011110001000 S
b1110110001111000 V
b1110110001111000 X
b1111000100011110 Y
b00001001001 Z
b000001001001 ]
b1110110001111000 `
b1111000100001110 b
b111100010001111000 c
b001001001 d
b001001001 e
b11110110001111000 g
b1111011101100011 h
b1001100010 i
b0001001110001000 k
b11110100100011100101000000 l
1m
#1640000
0m
#1650000
r139842 &
r40705 (
r1247913176 *
r120156403 ,
b00000000000000000000000000011101 .
b1110110001111000 /
b1111011110001000 1
b00000000000000000000000000011101 D
r3.796091123087919 E
b1111011101100011 S
b1110111011000011 Y
b00001001010 Z
b000001001010 ]
b1110110001111000 a
b111011101100001100 c
b001001010 d
b001001010 e
b1111010010001110 h
b1001101100 i
b11110100010111010111110000 l
1m
#1660000
0m
