.github/outputs/wave.vcd
$version Generated by VerilatedVcd $end
$timescale 1ps $end
 $scope module TOP $end
  $scope module tb $end
   $var wire 32 +! CLK_PERIOD [31:0] $end
   $var wire 32 ,! CLK_FREQ_HZ [31:0] $end
   $var wire 32 -! AUDIO_SAMPLE_RATE [31:0] $end
   $var wire 32 .! SAMPLES_PER_TONE [31:0] $end
   $var wire 32 /! SINE_AMPLITUDE [31:0] $end
   $var wire 32 /! SAW_AMPLITUDE [31:0] $end
   $var wire 32 +! SILENCE_SAMPLES [31:0] $end
   $var wire 32 0! SAMPLE_DIV [31:0] $end
   $var wire 32 1! SINE_FREQ_HZ [31:0] $end
   $var wire 32 2! SAW_FREQ_HZ [31:0] $end
   $var wire 1 !! clk $end
   $var wire 1 # reset $end
   $var wire 16 $ audio_in [15:0] $end
   $var wire 10 % SW [9:0] $end
   $var wire 16 Z audio_out [15:0] $end
   $var real 64 & sum_in $end
   $var real 64 ( sum_out $end
   $var real 64 * sum_sq_in $end
   $var real 64 , sum_sq_out $end
   $var wire 32 . count_samples [31:0] $end
   $var wire 16 / min_in [15:0] $end
   $var wire 16 0 max_in [15:0] $end
   $var wire 16 1 min_out [15:0] $end
   $var wire 16 2 max_out [15:0] $end
   $var wire 32 [ sample_cnt [31:0] $end
   $var wire 1 \ sample_tick $end
   $var real 64 3 print_stats__Vstatic__avg_in $end
   $var real 64 5 print_stats__Vstatic__avg_out $end
   $var real 64 7 print_stats__Vstatic__rms_in $end
   $var real 64 9 print_stats__Vstatic__rms_out $end
   $var real 64 ; print_stats__Vstatic__gain_db $end
   $var wire 32 = play_sine_tone__Vstatic__i [31:0] $end
   $var real 64 > play_sine_tone__Vstatic__phase $end
   $var real 64 @ play_sine_tone__Vstatic__phase_inc $end
   $var real 64 B play_sine_tone__Vstatic__s $end
   $var wire 32 D play_saw_tone__Vstatic__i [31:0] $end
   $var real 64 E play_saw_tone__Vstatic__phase $end
   $var real 64 G play_saw_tone__Vstatic__phase_inc $end
   $var real 64 I play_saw_tone__Vstatic__v $end
   $scope module dut $end
    $var wire 1 !! clk $end
    $var wire 1 # reset $end
    $var wire 16 $ audio_in [15:0] $end
    $var wire 10 % SW [9:0] $end
    $var wire 16 Z audio_out [15:0] $end
    $var wire 3 K effect_select [2:0] $end
    $var wire 16 ] noise_gate_out [15:0] $end
    $var wire 16 ^ high_pitch_out [15:0] $end
    $var wire 16 _ low_pitch_out [15:0] $end
    $var wire 16 "! reverb_out [15:0] $end
    $var wire 16 ` muffled_out [15:0] $end
    $scope module hp_inst $end
     $var wire 1 !! clk $end
     $var wire 1 # reset $end
     $var wire 16 $ audio_in [15:0] $end
     $var wire 16 ^ audio_out [15:0] $end
     $var wire 14 L s0 [13:0] $end
     $var wire 14 a s1 [13:0] $end
     $var wire 18 b s2 [17:0] $end
     $var wire 18 c s3 [17:0] $end
     $var wire 1 M unused_counter_ovf $end
     $var wire 16 #! unused_ram_1d [15:0] $end
     $var wire 1 d unused_add_co $end
     $scope module DIG_Add_i2 $end
      $var wire 32 3! Bits [31:0] $end
      $var wire 18 b a [17:0] $end
      $var wire 18 4! b [17:0] $end
      $var wire 1 5! c_i $end
      $var wire 18 c s [17:0] $end
      $var wire 1 d c_o $end
      $var wire 19 e temp [18:0] $end
     $upscope $end
     $scope module DIG_Counter_Nbit_i0 $end
      $var wire 32 6! Bits [31:0] $end
      $var wire 14 L out [13:0] $end
      $var wire 1 M ovf $end
      $var wire 1 !! C $end
      $var wire 1 7! en $end
      $var wire 1 # clr $end
      $var wire 14 L count [13:0] $end
     $upscope $end
     $scope module DIG_RAMDualAccess_i1 $end
      $var wire 32 8! Bits [31:0] $end
      $var wire 32 6! AddrBits [31:0] $end
      $var wire 1 !! C $end
      $var wire 1 7! ld $end
      $var wire 14 L 1A [13:0] $end
      $var wire 14 a 2A [13:0] $end
      $var wire 16 $ 1Din [15:0] $end
      $var wire 1 7! str $end
      $var wire 16 #! 1D [15:0] $end
      $var wire 16 ^ 2D [15:0] $end
     $upscope $end
     $scope module DIG_Register_BUS_i3 $end
      $var wire 32 3! Bits [31:0] $end
      $var wire 1 !! C $end
      $var wire 1 7! en $end
      $var wire 18 c D [17:0] $end
      $var wire 18 b Q [17:0] $end
      $var wire 18 b state [17:0] $end
     $upscope $end
    $upscope $end
    $scope module lp_inst $end
     $var wire 1 !! clk $end
     $var wire 1 # reset $end
     $var wire 16 $ audio_in [15:0] $end
     $var wire 16 _ audio_out [15:0] $end
     $var wire 14 N s0 [13:0] $end
     $var wire 14 f s1 [13:0] $end
     $var wire 18 g s2 [17:0] $end
     $var wire 18 h s3 [17:0] $end
     $var wire 1 O unused_counter_ovf $end
     $var wire 16 $! unused_ram_1d [15:0] $end
     $var wire 1 i unused_add_co $end
     $scope module DIG_Add_i2 $end
      $var wire 32 3! Bits [31:0] $end
      $var wire 18 g a [17:0] $end
      $var wire 18 9! b [17:0] $end
      $var wire 1 5! c_i $end
      $var wire 18 h s [17:0] $end
      $var wire 1 i c_o $end
      $var wire 19 j temp [18:0] $end
     $upscope $end
     $scope module DIG_Counter_Nbit_i0 $end
      $var wire 32 6! Bits [31:0] $end
      $var wire 14 N out [13:0] $end
      $var wire 1 O ovf $end
      $var wire 1 !! C $end
      $var wire 1 7! en $end
      $var wire 1 5! clr $end
      $var wire 14 N count [13:0] $end
     $upscope $end
     $scope module DIG_RAMDualAccess_i1 $end
      $var wire 32 8! Bits [31:0] $end
      $var wire 32 6! AddrBits [31:0] $end
      $var wire 1 !! C $end
      $var wire 1 7! ld $end
      $var wire 14 N 1A [13:0] $end
      $var wire 14 f 2A [13:0] $end
      $var wire 16 $ 1Din [15:0] $end
      $var wire 1 7! str $end
      $var wire 16 $! 1D [15:0] $end
      $var wire 16 _ 2D [15:0] $end
     $upscope $end
     $scope module DIG_Register_BUS_i3 $end
      $var wire 32 3! Bits [31:0] $end
      $var wire 1 !! C $end
      $var wire 1 7! en $end
      $var wire 18 h D [17:0] $end
      $var wire 18 g Q [17:0] $end
      $var wire 18 g state [17:0] $end
     $upscope $end
    $upscope $end
    $scope module muf_inst $end
     $var wire 16 $ audio_in [15:0] $end
     $var wire 1 !! clk $end
     $var wire 1 # reset $end
     $var wire 16 ` audio_out [15:0] $end
     $var wire 16 %! y_1 [15:0] $end
     $var wire 16 R s0 [15:0] $end
     $var wire 16 k y_2 [15:0] $end
     $var wire 16 l s1 [15:0] $end
     $var wire 16 S s2 [15:0] $end
     $var wire 16 T s3 [15:0] $end
     $var wire 16 m s4 [15:0] $end
     $var wire 16 n s5 [15:0] $end
     $var wire 16 o s6 [15:0] $end
     $var wire 1 U s7 $end
     $var wire 1 p s8 $end
     $var wire 1 q s9 $end
     $var wire 1 V unused_sub0_co $end
     $var wire 1 r unused_sub1_co $end
     $var wire 1 W unused_add0_co $end
     $var wire 1 s unused_add1_co $end
     $var wire 1 t unused_add2_co $end
     $scope module DIG_Add_i1 $end
      $var wire 32 8! Bits [31:0] $end
      $var wire 16 S a [15:0] $end
      $var wire 16 %! b [15:0] $end
      $var wire 1 5! c_i $end
      $var wire 16 T s [15:0] $end
      $var wire 1 W c_o $end
      $var wire 17 X temp [16:0] $end
     $upscope $end
     $scope module DIG_Add_i4 $end
      $var wire 32 8! Bits [31:0] $end
      $var wire 16 m a [15:0] $end
      $var wire 16 k b [15:0] $end
      $var wire 1 5! c_i $end
      $var wire 16 n s [15:0] $end
      $var wire 1 s c_o $end
      $var wire 17 u temp [16:0] $end
     $upscope $end
     $scope module DIG_Add_i6 $end
      $var wire 32 8! Bits [31:0] $end
      $var wire 16 o a [15:0] $end
      $var wire 16 k b [15:0] $end
      $var wire 1 5! c_i $end
      $var wire 16 ` s [15:0] $end
      $var wire 1 t c_o $end
      $var wire 17 v temp [16:0] $end
     $upscope $end
     $scope module DIG_Register_BUS_i2 $end
      $var wire 32 8! Bits [31:0] $end
      $var wire 1 !! C $end
      $var wire 1 7! en $end
      $var wire 16 T D [15:0] $end
      $var wire 16 %! Q [15:0] $end
      $var wire 16 %! state [15:0] $end
     $upscope $end
     $scope module DIG_Register_BUS_i5 $end
      $var wire 32 8! Bits [31:0] $end
      $var wire 1 !! C $end
      $var wire 1 7! en $end
      $var wire 16 n D [15:0] $end
      $var wire 16 k Q [15:0] $end
      $var wire 16 k state [15:0] $end
     $upscope $end
     $scope module DIG_Sub_i0 $end
      $var wire 32 8! Bits [31:0] $end
      $var wire 16 $ a [15:0] $end
      $var wire 16 %! b [15:0] $end
      $var wire 1 5! c_i $end
      $var wire 16 R s [15:0] $end
      $var wire 1 V c_o $end
      $var wire 17 Y temp [16:0] $end
     $upscope $end
     $scope module DIG_Sub_i3 $end
      $var wire 32 8! Bits [31:0] $end
      $var wire 16 %! a [15:0] $end
      $var wire 16 k b [15:0] $end
      $var wire 1 5! c_i $end
      $var wire 16 l s [15:0] $end
      $var wire 1 r c_o $end
      $var wire 17 w temp [16:0] $end
     $upscope $end
    $upscope $end
    $scope module ng_inst $end
     $var wire 1 !! clk $end
     $var wire 1 # reset $end
     $var wire 16 $ audio_in [15:0] $end
     $var wire 16 ] audio_out [15:0] $end
     $var wire 16 :! OPEN_THR [15:0] $end
     $var wire 16 ;! CLOSE_THR [15:0] $end
     $var wire 10 <! GAIN_MAX [9:0] $end
     $var wire 10 =! GAIN_MIN [9:0] $end
     $var wire 10 >! ATK_STEP [9:0] $end
     $var wire 10 ?! RLS_STEP [9:0] $end
     $var wire 10 x gain [9:0] $end
     $var wire 1 y is_open $end
     $var wire 16 z abs_v [15:0] $end
     $var wire 26 { mult_result [25:0] $end
    $upscope $end
    $scope module rev_inst $end
     $var wire 1 !! clk $end
     $var wire 1 # reset $end
     $var wire 16 $ audio_in [15:0] $end
     $var wire 16 "! audio_out [15:0] $end
     $var wire 14 P s0 [13:0] $end
     $var wire 16 &! s1 [15:0] $end
     $var wire 16 | s2 [15:0] $end
     $var wire 16 } s3 [15:0] $end
     $var wire 1 ~ s4 $end
     $var wire 1 Q unused_counter_ovf $end
     $var wire 1 '! unused_add0_co $end
     $var wire 1 (! unused_add1_co $end
     $scope module DIG_Add_i2 $end
      $var wire 32 8! Bits [31:0] $end
      $var wire 16 $ a [15:0] $end
      $var wire 16 } b [15:0] $end
      $var wire 1 5! c_i $end
      $var wire 16 &! s [15:0] $end
      $var wire 1 '! c_o $end
      $var wire 17 )! temp [16:0] $end
     $upscope $end
     $scope module DIG_Add_i3 $end
      $var wire 32 8! Bits [31:0] $end
      $var wire 16 $ a [15:0] $end
      $var wire 16 | b [15:0] $end
      $var wire 1 5! c_i $end
      $var wire 16 "! s [15:0] $end
      $var wire 1 (! c_o $end
      $var wire 17 *! temp [16:0] $end
     $upscope $end
     $scope module DIG_Counter_Nbit_i0 $end
      $var wire 32 6! Bits [31:0] $end
      $var wire 14 P out [13:0] $end
      $var wire 1 Q ovf $end
      $var wire 1 !! C $end
      $var wire 1 7! en $end
      $var wire 1 5! clr $end
      $var wire 14 P count [13:0] $end
     $upscope $end
     $scope module DIG_RAMDualPort_i1 $end
      $var wire 32 8! Bits [31:0] $end
      $var wire 32 6! AddrBits [31:0] $end
      $var wire 14 P A [13:0] $end
      $var wire 16 &! Din [15:0] $end
      $var wire 1 7! str $end
      $var wire 1 !! C $end
      $var wire 1 7! ld $end
      $var wire 16 | D [15:0] $end
     $upscope $end
    $upscope $end
   $upscope $end
  $upscope $end
 $upscope $end
$enddefinitions $end


#0
1#
b0000000000000000 $
b0000000000 %
r0 &
r0 (
r0 *
r0 ,
b00000000000000000000000000000000 .
b0000000000000000 /
b0000000000000000 0
b0000000000000000 1
b0000000000000000 2
r0 3
r0 5
r0 7
r0 9
r0 ;
b00000000000000000000000000000000 =
r0 >
r0 @
r0 B
b00000000000000000000000000000000 D
r0 E
r0 G
r0 I
b000 K
b00000000000000 L
0M
b00000000000000 N
0O
b00000000000000 P
0Q
b0000000000000000 R
b0000000000000000 S
b0000000000000000 T
0U
0V
0W
b00000000000000000 X
b00000000000000000 Y
b0000000000000000 Z
b00000000000000000000000000000000 [
0\
b0000000000000000 ]
b0000000000000000 ^
b0000000000000000 _
b0000000000000000 `
b00000000000000 a
b000000000000000000 b
b000000000000100000 c
0d
b0000000000000100000 e
b00000000000000 f
b000000000000000000 g
b000000000000001000 h
0i
b0000000000000001000 j
b0000000000000000 k
b0000000000000000 l
b0000000000000000 m
b0000000000000000 n
b0000000000000000 o
0p
0q
0r
0s
0t
b00000000000000000 u
b00000000000000000 v
b00000000000000000 w
b0001100110 x
0y
b0000000000000000 z
b00000000000000000000000000 {
b0000000000000000 |
b0000000000000000 }
0~
0!!
b0000000000000000 "!
b0000000000000000 #!
b0000000000000000 $!
b0000000000000000 %!
b0000000000000000 &!
0'!
0(!
b00000000000000000 )!
b00000000000000000 *!
b00000000000000000000000000010100 +!
b00000010111110101111000010000000 ,!
b00000000000000001011101110000000 -!
b00000000000000000000000001100100 .!
b00000000000000000010011100010000 /!
b00000000000000000000000000000001 0!
b00000000000000000000001111101000 1!
b00000000000000000000000111110100 2!
b00000000000000000000000000010010 3!
b000000000000100000 4!
05!
b00000000000000000000000000001110 6!
17!
b00000000000000000000000000010000 8!
b000000000000001000 9!
b0000001111101000 :!
b0000000111110100 ;!
b1111111111 <!
b0001100110 =!
b0000001010 >!
b0000000001 ?!
#10000
b00000000000001 N
b00000000000001 P
b00000000000010 a
b000000000000100000 b
b000000000001000000 c
b0000000000001000000 e
b000000000000001000 g
b000000000000010000 h
b0000000000000010000 j
1!!
#20000
0!!
#30000
b00000000000010 N
b00000000000010 P
b00000000000100 a
b000000000001000000 b
b000000000001100000 c
b0000000000001100000 e
b00000000000001 f
b000000000000010000 g
b000000000000011000 h
b0000000000000011000 j
1!!
#40000
0!!
#50000
b00000000000011 N
b00000000000011 P
b00000000000110 a
b000000000001100000 b
b000000000010000000 c
b0000000000010000000 e
b000000000000011000 g
b000000000000100000 h
b0000000000000100000 j
1!!
#60000
0!!
#70000
b00000000000100 N
b00000000000100 P
b00000000001000 a
b000000000010000000 b
b000000000010100000 c
b0000000000010100000 e
b00000000000010 f
b000000000000100000 g
b000000000000101000 h
b0000000000000101000 j
1!!
#80000
0!!
#90000
b00000000000101 N
b00000000000101 P
b00000000001010 a
b000000000010100000 b
b000000000011000000 c
b0000000000011000000 e
b000000000000101000 g
b000000000000110000 h
b0000000000000110000 j
1!!
#100000
0!!
#110000
b00000000000110 N
b00000000000110 P
b00000000001100 a
b000000000011000000 b
b000000000011100000 c
b0000000000011100000 e
b00000000000011 f
b000000000000110000 g
b000000000000111000 h
b0000000000000111000 j
1!!
#120000
0!!
#130000
b00000000000111 N
b00000000000111 P
b00000000001110 a
b000000000011100000 b
b000000000100000000 c
b0000000000100000000 e
b000000000000111000 g
b000000000001000000 h
b0000000000001000000 j
1!!
#140000
0!!
#150000
b00000000001000 N
b00000000001000 P
b00000000010000 a
b000000000100000000 b
b000000000100100000 c
b0000000000100100000 e
b00000000000100 f
b000000000001000000 g
b000000000001001000 h
b0000000000001001000 j
1!!
#160000
0!!
#170000
b00000000001001 N
b00000000001001 P
b00000000010010 a
b000000000100100000 b
b000000000101000000 c
b0000000000101000000 e
b000000000001001000 g
b000000000001010000 h
b0000000000001010000 j
1!!
#180000
0!!
#190000
0#
b00000000000001 L
b00000000001010 N
b00000000001010 P
1\
b00000000010100 a
b000000000101000000 b
b000000000101100000 c
b0000000000101100000 e
b00000000000101 f
b000000000001010000 g
b000000000001011000 h
b0000000000001011000 j
1!!
#200000
0!!
#210000
b00000000000010 L
b00000000001011 N
b00000000001011 P
b00000000010110 a
b000000000101100000 b
b000000000110000000 c
b0000000000110000000 e
b000000000001011000 g
b000000000001100000 h
b0000000000001100000 j
1!!
#220000
0!!
#230000
b00000000000011 L
b00000000001100 N
b00000000001100 P
b00000000011000 a
b000000000110000000 b
b000000000110100000 c
b0000000000110100000 e
b00000000000110 f
b000000000001100000 g
b000000000001101000 h
b0000000000001101000 j
1!!
#240000
0!!
#250000
b00000000000100 L
b00000000001101 N
b00000000001101 P
b00000000011010 a
b000000000110100000 b
b000000000111000000 c
b0000000000111000000 e
b000000000001101000 g
b000000000001110000 h
b0000000000001110000 j
1!!
#260000
0!!
#270000
b00000000000101 L
b00000000001110 N
b00000000001110 P
b00000000011100 a
b000000000111000000 b
b000000000111100000 c
b0000000000111100000 e
b00000000000111 f
b000000000001110000 g
b000000000001111000 h
b0000000000001111000 j
1!!
#280000
0!!
#290000
b00000000000110 L
b00000000001111 N
b00000000001111 P
b00000000011110 a
b000000000111100000 b
b000000001000000000 c
b0000000001000000000 e
b000000000001111000 g
b000000000010000000 h
b0000000000010000000 j
1!!
#300000
0!!
#310000
b00000000000111 L
b00000000010000 N
b00000000010000 P
b00000000100000 a
b000000001000000000 b
b000000001000100000 c
b0000000001000100000 e
b00000000001000 f
b000000000010000000 g
b000000000010001000 h
b0000000000010001000 j
1!!
#320000
0!!
#330000
b00000000001000 L
b00000000010001 N
b00000000010001 P
b00000000100010 a
b000000001000100000 b
b000000001001000000 c
b0000000001001000000 e
b000000000010001000 g
b000000000010010000 h
b0000000000010010000 j
1!!
#340000
0!!
#350000
b00000000001001 L
b00000000010010 N
b00000000010010 P
b00000000100100 a
b000000001001000000 b
b000000001001100000 c
b0000000001001100000 e
b00000000001001 f
b000000000010010000 g
b000000000010011000 h
b0000000000010011000 j
1!!
#360000
0!!
#370000
b00000000001010 L
b00000000010011 N
b00000000010011 P
b00000000100110 a
b000000001001100000 b
b000000001010000000 c
b0000000001010000000 e
b000000000010011000 g
b000000000010100000 h
b0000000000010100000 j
1!!
#380000
0!!
#390000
b00000000001011 L
b00000000010100 N
b00000000010100 P
b00000000101000 a
b000000001010000000 b
b000000001010100000 c
b0000000001010100000 e
b00000000001010 f
b000000000010100000 g
b000000000010101000 h
b0000000000010101000 j
1!!
#400000
0!!
#410000
b00000000001100 L
b00000000010101 N
b00000000010101 P
b00000000101010 a
b000000001010100000 b
b000000001011000000 c
b0000000001011000000 e
b000000000010101000 g
b000000000010110000 h
b0000000000010110000 j
1!!
#420000
0!!
#430000
b00000000001101 L
b00000000010110 N
b00000000010110 P
b00000000101100 a
b000000001011000000 b
b000000001011100000 c
b0000000001011100000 e
b00000000001011 f
b000000000010110000 g
b000000000010111000 h
b0000000000010111000 j
1!!
#440000
0!!
#450000
b00000000001110 L
b00000000010111 N
b00000000010111 P
b00000000101110 a
b000000001011100000 b
b000000001100000000 c
b0000000001100000000 e
b000000000010111000 g
b000000000011000000 h
b0000000000011000000 j
1!!
#460000
0!!
#470000
b00000000001111 L
b00000000011000 N
b00000000011000 P
b00000000110000 a
b000000001100000000 b
b000000001100100000 c
b0000000001100100000 e
b00000000001100 f
b000000000011000000 g
b000000000011001000 h
b0000000000011001000 j
1!!
#480000
0!!
#490000
b0111111111111111 /
b1000000000000000 0
b0111111111111111 1
b1000000000000000 2
r0.1308996938995833 @
b00000000010000 L
b00000000011001 N
b00000000011001 P
b00000000110010 a
b000000001100100000 b
b000000001101000000 c
b0000000001101000000 e
b000000000011001000 g
b000000000011010000 h
b0000000000011010000 j
1!!
#500000
0!!
#510000
b00000000010001 L
b00000000011010 N
b00000000011010 P
b00000000110100 a
b000000001101000000 b
b000000001101100000 c
b0000000001101100000 e
b00000000001101 f
b000000000011010000 g
b000000000011011000 h
b0000000000011011000 j
1!!
#520000
0!!
#530000
b00000000000000000000000000000001 .
b0000000000000000 /
b0000000000000000 0
b0000000000000000 1
b0000000000000000 2
b00000000000000000000000000000001 =
r0.1308996938995833 >
b00000000010010 L
b00000000011011 N
b00000000011011 P
b00000000110110 a
b000000001101100000 b
b000000001110000000 c
b0000000001110000000 e
b000000000011011000 g
b000000000011100000 h
b0000000000011100000 j
1!!
#540000
0!!
#550000
b0000010100011001 $
r0.1305261922200601 B
b00000000010011 L
b00000000011100 N
b00000000011100 P
b0000010011001000 R
b0000000001001100 S
b0000000010011101 T
b00000000010011101 X
b00000010011001000 Y
b00000000111000 a
b000000001110000000 b
b000000001110100000 c
b0000000001110100000 e
b00000000001110 f
b000000000011100000 g
b000000000011101000 h
b0000000000011101000 j
b0000000001010001 l
b0000000000000101 m
b0000000000000101 n
b00000000000000101 u
b00000000001010001 w
b0000010100011001 z
b00000000100000011111110110 {
1!!
b0000010100011001 "!
b0000000001010001 %!
b0000010100011001 &!
b00000010100011001 )!
b00000010100011001 *!
#560000
0!!
#570000
r1305 &
r1703025 *
b00000000000000000000000000000010 .
b0000010100011001 0
b00000000000000000000000000000010 =
r0.2617993877991667 >
b00000000010100 L
b00000000011101 N
b00000000011101 P
b0000010001111100 R
b0000000001000111 S
b0000000011100100 T
b00000000011100100 X
b00000010001111100 Y
b0000000010000001 ]
b0000000000000101 `
b00000000111010 a
b000000001110100000 b
b000000001111000000 c
b0000000001111000000 e
b000000000011101000 g
b000000000011110000 h
b0000000000011110000 j
b0000000000000101 k
b0000000010011000 l
b0000000000001001 m
b0000000000001110 n
b00000000000001110 u
b00000000000000101 v
b00000000010011000 w
1y
1!!
b0000000010011101 %!
#580000
0!!
#590000
b0000101000011100 $
r0.2588190451025374 B
b00000000010101 L
b00000000011110 N
b00000000011110 P
b0000100011101000 R
b0000000010001110 S
b0000000111000010 T
b00000000111000010 X
b00000100011101000 Y
b0000000010000001 Z
b0000000000001110 `
b00000000111100 a
b000000001111000000 b
b000000001111100000 c
b0000000001111100000 e
b00000000001111 f
b000000000011110000 g
b000000000011111000 h
b0000000000011111000 j
b0000000000001110 k
b0000000100100110 l
b0000000000010010 m
b0000000000100000 n
b00000000000100000 u
b00000000000001110 v
b00000000100100110 w
b0001110000 x
b0000101000011100 z
b00000001000000011100101000 {
1!!
b0000101000011100 "!
b0000000100110100 %!
b0000101000011100 &!
b00000101000011100 )!
b00000101000011100 *!
#600000
0!!
#610000
r3893 &
r129 (
r8400769 *
r16641 ,
b00000000000000000000000000000011 .
b0000101000011100 0
b0000000010000001 2
b00000000000000000000000000000011 =
r0.39269908169875 >
b00000000010110 L
b00000000011111 N
b00000000011111 P
b0000100001011010 R
b0000000010000101 S
b0000001001000111 T
b00000001001000111 X
b00000100001011010 Y
b0000000100000001 ]
b0000000000100010 `
b00000000111110 a
b000000001111100000 b
b000000010000000000 c
b0000000010000000000 e
b000000000011111000 g
b000000000100000000 h
b0000000000100000000 j
b0000000000100000 k
b0000000110100010 l
b0000000000011010 m
b0000000000111010 n
b0000000000000010 o
b00000000000111010 u
b00000000000100010 v
b00000000110100010 w
b0001111010 x
b00000001000110110001000000 {
1!!
b0000000111000010 %!
#620000
0!!
#630000
b0000111011110010 $
r0.3826834323651137 B
b00000000010111 L
b00000000100000 N
b00000000100000 P
b0000110001011101 R
b0000000011000101 S
b0000001101011010 T
b00000001101011010 X
b00000110001011101 Y
b0000000100000001 Z
b0000000100011011 ]
b0000000000111101 `
b00000001000000 a
b000000010000000000 b
b000000010000100000 c
b0000000010000100000 e
b00000000010000 f
b000000000100000000 g
b000000000100001000 h
b0000000000100001000 j
b0000000000111010 k
b0000001001011011 l
b0000000000100101 m
b0000000001011111 n
b0000000000000011 o
b00000000001011111 u
b00000000000111101 v
b00000001001011011 w
b0010000100 x
b0000111011110010 z
b00000001110001111101010100 {
1!!
b0000111011110010 "!
b0000001010010101 %!
b0000111011110010 &!
b00000111011110010 )!
b00000111011110010 *!
#640000
0!!
#650000
r7719 &
r386 (
r23039045 *
r82690 ,
b00000000000000000000000000000100 .
b0000111011110010 0
b0000000100000001 2
b00000000000000000000000000000100 =
r0.5235987755983333 >
b00000000011000 L
b00000000100001 N
b00000000100001 P
b0000101110011000 R
b0000000010111001 S
b0000010000010011 T
b00000010000010011 X
b00000101110011000 Y
b0000000100011011 Z
b0000000111000111 ]
b0000000001100100 `
b00000001000010 a
b000000010000100000 b
b000000010001000000 c
b0000000010001000000 e
b000000000100001000 g
b000000000100010000 h
b0000000000100010000 j
b0000000001011111 k
b0000001011111011 l
b0000000000101111 m
b0000000010001110 n
b0000000000000101 o
b00000000010001110 u
b00000000001100100 v
b00000001011111011 w
b0010001110 x
b00000001111011010011001000 {
1!!
b0000001101011010 %!
#660000
0!!
#670000
b0001001110001000 $
r0.5000000000000299 B
b00000000011001 L
b00000000100010 N
b00000000100010 P
b0000111100101100 R
b0000000011110010 S
b0000010101001110 T
b00000010101001110 X
b00000111100101100 Y
b0000000111000111 Z
b0000000111101101 ]
b0000000010010110 `
b00000001000100 a
b000000010001000000 b
b000000010001100000 c
b0000000010001100000 e
b00000000010001 f
b000000000100010000 g
b000000000100011000 h
b0000000000100011000 j
b0000000010001110 k
b0000001111001110 l
b0000000000111100 m
b0000000011001010 n
b0000000000001000 o
b00000000011001010 u
b00000000010010110 v
b00000001111001110 w
b0010011000 x
b0001001110001000 z
b00000010101101010101110000 {
1!!
b0001001110001000 "!
b0000010001011100 %!
b0001001110001000 &!
b00001001110001000 )!
b00001001110001000 *!
#680000
0!!
#690000
r12719 &
r841 (
r48039045 *
r289715 ,
b00000000000000000000000000000101 .
b0001001110001000 0
b0000000111000111 2
b00000000000000000000000000000101 =
r0.6544984694979167 >
b00000000011010 L
b00000000100011 N
b00000000100011 P
b0000111000111010 R
b0000000011100011 S
b0000011000110001 T
b00000011000110001 X
b00000111000111010 Y
b0000000111101101 Z
b0000001010110101 ]
b0000000011010110 `
b00000001000110 a
b000000010001100000 b
b000000010010000000 c
b0000000010010000000 e
b000000000100011000 g
b000000000100100000 h
b0000000000100100000 j
b0000000011001010 k
b0000010010000100 l
b0000000001001000 m
b0000000100010010 n
b0000000000001100 o
b00000000100010010 u
b00000000011010110 v
b00000010010000100 w
b0010100010 x
b00000010111001100011000000 {
1!!
b0000010101001110 %!
#700000
0!!
#710000
b0001011111000111 $
r0.6087614290087549 B
b00000000011011 L
b00000000100100 N
b00000000100100 P
b0001000101010010 R
b0000000100010101 S
b0000011110001010 T
b00000011110001010 X
b00001000101010010 Y
b0000001010110101 Z
b0000001011100110 ]
b0000000100100011 `
b00000001001000 a
b000000010010000000 b
b000000010010100000 c
b0000000010010100000 e
b00000000010010 f
b000000000100100000 g
b000000000100101000 h
b0000000000100101000 j
b0000000100010010 k
b0000010101100011 l
b0000000001010110 m
b0000000101101000 n
b0000000000010001 o
b00000000101101000 u
b00000000100100011 v
b00000010101100011 w
b0010101100 x
b0001011111000111 z
b00000011110000101111101110 {
1!!
b0001011111000111 "!
b0000011001110101 %!
b0001011111000111 &!
b00001011111000111 )!
b00001011111000111 *!
#720000
0!!
#730000
r18806 &
r1534 (
r85090614 *
r769964 ,
b00000000000000000000000000000110 .
b0001011111000111 0
b0000001010110101 2
b00000000000000000000000000000110 =
r0.7853981633975 >
b00000000011100 L
b00000000100101 N
b00000000100101 P
b0001000000111101 R
b0000000100000011 S
b0000100010001101 T
b00000100010001101 X
b00001000000111101 Y
b0000001011100110 Z
b0000001111000010 ]
b0000000101111110 `
b00000001001010 a
b000000010010100000 b
b000000010011000000 c
b0000000010011000000 e
b000000000100101000 g
b000000000100110000 h
b0000000000100110000 j
b0000000101101000 k
b0000011000100010 l
b0000000001100010 m
b0000000111001010 n
b0000000000010110 o
b00000000111001010 u
b00000000101111110 v
b00000011000100010 w
b0010110110 x
b00000011111111100110110100 {
1!!
b0000011110001010 %!
#740000
0!!
#750000
b0001101110011111 $
r0.7071067811865841 B
b00000000011101 L
b00000000100110 N
b00000000100110 P
b0001001011010100 R
b0000000100101101 S
b0000100111111000 T
b00000100111111000 X
b00001001011010100 Y
b0000001111000010 Z
b0000001111111110 ]
b0000000111100110 `
b00000001001100 a
b000000010011000000 b
b000000010011100000 c
b0000000010011100000 e
b00000000010011 f
b000000000100110000 g
b000000000100111000 h
b0000000000100111000 j
b0000000111001010 k
b0000011100000001 l
b0000000001110000 m
b0000001000111010 n
b0000000000011100 o
b00000001000111010 u
b00000000111100110 v
b00000011100000001 w
b0011000000 x
b0001101110011111 z
b00000100111010001100001010 {
1!!
b0001101110011111 "!
b0000100011001011 %!
b0001101110011111 &!
b00001101110011111 )!
b00001101110011111 *!
#760000
0!!
#770000
r25877 &
r2496 (
r135089655 *
r1695408 ,
b00000000000000000000000000000111 .
b0001101110011111 0
b0000001111000010 2
b00000000000000000000000000000111 =
r0.9162978572970834 >
b00000000011110 L
b00000000100111 N
b00000000100111 P
b0001000110100111 R
b0000000100011010 S
b0000101100010010 T
b00000101100010010 X
b00001000110100111 Y
b0000001111111110 Z
b0000010011101000 ]
b0000001001011101 `
b00000001001110 a
b000000010011100000 b
b000000010100000000 c
b0000000010100000000 e
b000000000100111000 g
b000000000101000000 h
b0000000000101000000 j
b0000001000111010 k
b0000011110111110 l
b0000000001111011 m
b0000001010110101 n
b0000000000100011 o
b00000001010110101 u
b00000001001011101 v
b00000011110111110 w
b0011001010 x
b00000101001011011101000000 {
1!!
b0000100111111000 %!
#780000
0!!
#790000
b0001111011111101 $
r0.7933533402912719 B
b00000000011111 L
b00000000101000 N
b00000000101000 P
b0001001110110101 R
b0000000100111011 S
b0000110010000011 T
b00000110010000011 X
b00001001110110101 Y
b0000010011101000 Z
b0000010100101101 ]
b0000001011100000 `
b00000001010000 a
b000000010100000000 b
b000000010100100000 c
b0000000010100100000 e
b00000000010100 f
b000000000101000000 g
b000000000101001000 h
b0000000000101001000 j
b0000001010110101 k
b0000100010010011 l
b0000000010001001 m
b0000001100111110 n
b0000000000101011 o
b00000001100111110 u
b00000001011100000 v
b00000100010010011 w
b0011010100 x
b0001111011111101 z
b00000110000111001110100010 {
1!!
b0001111011111101 "!
b0000101101001000 %!
b0001111011111101 &!
b00001111011111101 )!
b00001111011111101 *!
#800000
0!!
