.github/outputs/wave.vcd
$version Generated by VerilatedVcd $end
$timescale 1ps $end
 $scope module TOP $end
  $scope module tb $end
   $var wire 32 P CLK_PERIOD [31:0] $end
   $var wire 32 Q CLK_FREQ_HZ [31:0] $end
   $var wire 32 Q AUDIO_SAMPLE_RATE [31:0] $end
   $var wire 32 R SAMPLES_PER_TONE [31:0] $end
   $var wire 32 S SINE_AMPLITUDE [31:0] $end
   $var wire 32 S SAW_AMPLITUDE [31:0] $end
   $var wire 32 T SAMPLE_DIV [31:0] $end
   $var wire 32 U SINE_FREQ_HZ [31:0] $end
   $var wire 32 U SAW_FREQ_HZ [31:0] $end
   $var wire 1 O clk $end
   $var wire 1 # reset $end
   $var wire 16 $ audio_in [15:0] $end
   $var wire 10 % SW [9:0] $end
   $var wire 16 5 audio_out [15:0] $end
   $var wire 32 6 sample_cnt [31:0] $end
   $var wire 1 7 sample_tick $end
   $var wire 32 V tone_idx [31:0] $end
   $var wire 32 & play_sine_tone__Vstatic__i [31:0] $end
   $var real 64 ' play_sine_tone__Vstatic__phase $end
   $var real 64 ) play_sine_tone__Vstatic__phase_inc $end
   $var real 64 + play_sine_tone__Vstatic__s $end
   $var wire 32 - play_saw_tone__Vstatic__i [31:0] $end
   $var real 64 . play_saw_tone__Vstatic__phase $end
   $var real 64 0 play_saw_tone__Vstatic__phase_inc $end
   $var real 64 2 play_saw_tone__Vstatic__v $end
   $scope module dut $end
    $var wire 1 O clk $end
    $var wire 1 # reset $end
    $var wire 16 $ audio_in [15:0] $end
    $var wire 10 % SW [9:0] $end
    $var wire 16 5 audio_out [15:0] $end
    $var wire 3 4 effect_select [2:0] $end
    $var wire 16 J noise_gate_out [15:0] $end
    $var wire 16 8 high_pitch_out [15:0] $end
    $var wire 16 9 low_pitch_out [15:0] $end
    $var wire 16 : reverb_out [15:0] $end
    $var wire 16 ; muffled_out [15:0] $end
    $scope module hp_inst $end
     $var wire 1 O clk $end
     $var wire 1 # reset $end
     $var wire 16 $ audio_in [15:0] $end
     $var wire 16 8 audio_out [15:0] $end
     $var wire 32 W HIGH_PITCH_PERIOD [31:0] $end
     $var wire 11 < counter [10:0] $end
     $var wire 1 = hold $end
     $var wire 16 > held_sample [15:0] $end
    $upscope $end
    $scope module lp_inst $end
     $var wire 1 O clk $end
     $var wire 1 # reset $end
     $var wire 16 $ audio_in [15:0] $end
     $var wire 16 9 audio_out [15:0] $end
     $var wire 32 X LOW_PITCH_PERIOD [31:0] $end
     $var wire 12 ? counter [11:0] $end
     $var wire 1 @ repeat_sig $end
     $var wire 16 A held_sample [15:0] $end
    $upscope $end
    $scope module muf_inst $end
     $var wire 1 O clk $end
     $var wire 1 # reset $end
     $var wire 16 $ audio_in [15:0] $end
     $var wire 16 ; audio_out [15:0] $end
     $var wire 16 B prev1 [15:0] $end
     $var wire 16 C prev2 [15:0] $end
     $var wire 16 D prev3 [15:0] $end
     $var wire 18 E sum [17:0] $end
    $upscope $end
    $scope module ng_inst $end
     $var wire 1 O clk $end
     $var wire 16 $ audio_in [15:0] $end
     $var wire 16 J audio_out [15:0] $end
     $var wire 16 Y OPEN_THR [15:0] $end
     $var wire 16 Z CLOSE_THR [15:0] $end
     $var wire 10 [ GAIN_MAX [9:0] $end
     $var wire 10 \ GAIN_MIN [9:0] $end
     $var wire 10 ] ATK_STEP [9:0] $end
     $var wire 10 ^ RLS_STEP [9:0] $end
     $var wire 10 K gain [9:0] $end
     $var wire 1 L is_open $end
     $var wire 16 M abs_v [15:0] $end
     $var wire 26 N mult_result [25:0] $end
    $upscope $end
    $scope module rev_inst $end
     $var wire 1 O clk $end
     $var wire 1 # reset $end
     $var wire 16 $ audio_in [15:0] $end
     $var wire 16 : audio_out [15:0] $end
     $var wire 32 _ DELAY_LENGTH [31:0] $end
     $var wire 9 F write_ptr [8:0] $end
     $var wire 9 G read_ptr [8:0] $end
     $var wire 16 H delay_out [15:0] $end
     $var wire 17 I mix [16:0] $end
    $upscope $end
   $upscope $end
  $upscope $end
 $upscope $end
$enddefinitions $end


#0
1#
b0000000000000000 $
b0000000000 %
b00000000000000000000000000000000 &
r0 '
r0 )
r0 +
b00000000000000000000000000000000 -
r0 .
r0 0
r0 2
b000 4
b0000000000000000 5
b00000000000000000000000000000000 6
07
b0000000000000000 8
b0000000000000000 9
b0000000000000000 :
b0000000000000000 ;
b00000000000 <
0=
b0000000000000000 >
b000000000000 ?
0@
b0000000000000000 A
b0000000000000000 B
b0000000000000000 C
b0000000000000000 D
b000000000000000000 E
b000000000 F
b000000000 G
b0000000000000000 H
b00000000000000000 I
b0000000000000000 J
b0001100110 K
0L
b0000000000000000 M
b00000000000000000000000000 N
0O
b00000000000000000000000000000010 P
b00011101110011010110010100000000 Q
b00000000000000000000000000110010 R
b00000000000000000011111010000000 S
b00000000000000000000000000000001 T
b00000001001100010010110100000000 U
b00000000000000000000000000000000 V
b00000000000000000000010000010010 W
b00000000000000000000100000100100 X
b0000001111101000 Y
b0000000111110100 Z
b1111111111 [
b0001100110 \
b0000001010 ]
b0000000001 ^
b00000000000000000000001000000000 _
#1000
1O
#2000
0O
#3000
1O
#4000
0O
#5000
1O
#6000
0O
#7000
1O
#8000
0O
#9000
1O
#10000
0O
#11000
1O
#12000
0O
#13000
1O
#14000
0O
#15000
1O
#16000
0O
#17000
1O
#18000
0O
#19000
0#
17
b00000000001 <
b000000000001 ?
b000000001 F
b000000001 G
1O
#20000
0O
#21000
b00000000010 <
b000000000010 ?
b000000010 F
b000000010 G
1O
#22000
0O
#23000
b00000000011 <
b000000000011 ?
b000000011 F
b000000011 G
1O
#24000
0O
#25000
b00000000100 <
b000000000100 ?
b000000100 F
b000000100 G
1O
#26000
0O
#27000
b00000000101 <
b000000000101 ?
b000000101 F
b000000101 G
1O
#28000
0O
#29000
b00000000110 <
b000000000110 ?
b000000110 F
b000000110 G
1O
#30000
0O
#31000
b00000000111 <
b000000000111 ?
b000000111 F
b000000111 G
1O
#32000
0O
#33000
b00000001000 <
b000000001000 ?
b000001000 F
b000001000 G
1O
#34000
0O
#35000
b00000001001 <
b000000001001 ?
b000001001 F
b000001001 G
1O
#36000
0O
#37000
b00000001010 <
b000000001010 ?
b000001010 F
b000001010 G
1O
#38000
0O
#39000
b00000001011 <
b000000001011 ?
b000001011 F
b000001011 G
1O
#40000
0O
#41000
b00000001100 <
b000000001100 ?
b000001100 F
b000001100 G
1O
#42000
0O
#43000
b00000001101 <
b000000001101 ?
b000001101 F
b000001101 G
1O
#44000
0O
#45000
b00000001110 <
b000000001110 ?
b000001110 F
b000001110 G
1O
#46000
0O
#47000
b00000001111 <
b000000001111 ?
b000001111 F
b000001111 G
1O
#48000
0O
#49000
r0.2513274122872 )
b00000010000 <
b000000010000 ?
b000010000 F
b000010000 G
1O
#50000
0O
#51000
b00000000000000000000000000000001 &
r0.2513274122872 '
b00000010001 <
b000000010001 ?
b000010001 F
b000010001 G
1O
#52000
0O
#53000
b0000111110001011 $
b00000000000000000000000000000010 &
r0.5026548245744 '
r0.2486898871648708 +
b0000111110001011 8
b0000111110001011 :
b0000001111100010 ;
b00000010010 <
b000000010010 ?
b0000111110001011 B
b000000111110001011 E
b000010010 F
b000010010 G
b00000111110001011 I
b0000111110001011 M
b00000001100011000101100010 N
1O
#54000
0O
#55000
b0001111000011100 $
b00000000000000000000000000000011 &
r0.7539822368616 '
r0.4817536741017443 +
b0001111000011100 8
b0001111000011100 :
b0000101101101001 ;
b00000010011 <
b000000010011 ?
b0001111000011100 B
b0000111110001011 C
b000010110110100111 E
b000010011 F
b000010011 G
b00001111000011100 I
b0000000110001100 J
1L
b0001111000011100 M
b00000010111111111100101000 N
1O
#56000
0O
#57000
b0010101011001000 $
b00000000000000000000000000000100 &
r1.0053096491488 '
r0.6845471059287249 +
b0000000110001100 5
b0010101011001000 8
b0010101011001000 :
b0001011000011011 ;
b00000010100 <
b000000010100 ?
b0010101011001000 B
b0001111000011100 C
b0000111110001011 D
b000101100001101111 E
b000010100 F
b000010100 G
b00010101011001000 I
b0000001011111111 J
b0001110000 K
b0010101011001000 M
b00000100010000101110110000 N
1O
#58000
0O
#59000
b0011010011000101 $
b00000000000000000000000000000101 &
r1.256637061436 '
r0.8443279255020506 +
b0000001011111111 5
b0011010011000101 8
b0011010011000101 :
b0010001101001101 ;
b00000010101 <
b000000010101 ?
b0011010011000101 B
b0010101011001000 C
b0001111000011100 D
b001000110100110100 E
b000010101 F
b000010101 G
b00011010011000101 I
b0000010001000010 J
b0001111010 K
b0011010011000101 M
b00000101110001011000110000 N
1O
#60000
0O
#61000
b0011101101110000 $
b00000000000000000000000000000110 &
r1.5079644737232 '
r0.9510565162951792 +
b0000010001000010 5
b0011101101110000 8
b0011101101110000 :
b0010111001000110 ;
b00000010110 <
b000000010110 ?
b0011101101110000 B
b0011010011000101 C
b0010101011001000 D
b001011100100011001 E
b000010110 F
b000010110 G
b00011101101110000 I
b0000010111000101 J
b0010000100 K
b0011101101110000 M
b00000111000101001101100000 N
1O
#62000
0O
#63000
b0011111001100000 $
b00000000000000000000000000000111 &
r1.7592918860104 '
r0.9980267284282778 +
b0000010111000101 5
b0011111001100000 8
b0011111001100000 :
b0011011001010111 ;
b00000010111 <
b000000010111 ?
b0011111001100000 B
b0011101101110000 C
b0011010011000101 D
b001101100101011101 E
b000010111 F
b000010111 G
b00011111001100000 I
b0000011100010100 J
b0010001110 K
b0011111001100000 M
b00001000000010100110000000 N
1O
#64000
0O
#65000
b0011110101100100 $
b00000000000000000000000000001000 &
r2.0106192982976 '
r0.982287250728667 +
b0000011100010100 5
b0011110101100100 8
b0011110101100100 :
b0011101011111110 ;
b00000011000 <
b000000011000 ?
b0011110101100100 B
b0011111001100000 C
b0011101101110000 D
b001110101111111001 E
b000011000 F
b000011000 G
b00011110101100100 I
b0000100000001010 J
b0010011000 K
b0011110101100100 M
b00001000100000110101111000 N
1O
#66000
0O
#67000
b0011100010001101 $
b00000000000000000000000000001001 &
r2.2619467105848 '
r0.9048270524659632 +
b0000100000001010 5
b0011100010001101 8
b0011100010001101 :
b0011101111110000 ;
b00000011001 <
b000000011001 ?
b0011100010001101 B
b0011110101100100 C
b0011111001100000 D
b001110111111000001 E
b000011001 F
b000011001 G
b00011100010001101 I
b0000100010000011 J
b0010100010 K
b0011100010001101 M
b00001000011001001110111000 N
1O
#68000
0O
#69000
b0011000000101000 $
b00000000000000000000000000001010 &
r2.513274122872 '
r0.7705132427756944 +
b0000100010000011 5
b0011000000101000 8
b0011000000101000 :
b0011100100011110 ;
b00000011010 <
b000000011010 ?
b0011000000101000 B
b0011100010001101 C
b0011110101100100 D
b001110010001111001 E
b000011010 F
b000011010 G
b00011000000101000 I
b0000100001100100 J
b0010101100 K
b0011000000101000 M
b00000111100111100101010000 N
1O
#70000
0O
#71000
b0010010010111100 $
b00000000000000000000000000001011 &
r2.764601535159199 '
r0.5877852522923396 +
b0000100001100100 5
b0010010010111100 8
b0010010010111100 :
b0011001010110101 ;
b00000011011 <
b000000011011 ?
b0010010010111100 B
b0011000000101000 C
b0011100010001101 D
b001100101011010101 E
b000011011 F
b000011011 G
b00010010010111100 I
b0000011110011110 J
b0010110110 K
b0010010010111100 M
b00000110001010111001010000 N
1O
#72000
0O
#73000
b0001011100000001 $
b00000000000000000000000000001100 &
r3.015928947446399 '
r0.3681245526845093 +
b0000011110011110 5
b0001011100000001 8
b0001011100000001 :
b0010100100011100 ;
b00000011100 <
b000000011100 ?
b0001011100000001 B
b0010010010111100 C
b0011000000101000 D
b001010010001110010 E
b000011100 F
b000011100 G
b00001011100000001 I
b0000011000101011 J
b0011000000 K
b0001011100000001 M
b00000100000101101010110110 N
1O
#74000
0O
#75000
b0000011111010101 $
b00000000000000000000000000001101 &
r3.267256359733599 '
r0.125333233564108 +
b0000011000101011 5
b0000011111010101 8
b0000011111010101 :
b0001110011101110 ;
b00000011101 <
b000000011101 ?
b0000011111010101 B
b0001011100000001 C
b0010010010111100 D
b000111001110111010 E
b000011101 F
b000011101 G
b00000011111010101 I
b0000010000010110 J
b0011001010 K
b0000011111010101 M
b00000001011101111111000000 N
1O
#76000
0O
#77000
b1111100000101011 $
b00000000000000000000000000001110 &
r3.518583772020799 '
r-0.1253332335645167 +
b0000010000010110 5
b1111100000101011 8
b1111100000101011 :
b0000111011101111 ;
b00000011110 <
b000000011110 ?
b1111100000101011 B
b0000011111010101 C
b0001011100000001 D
b000011101110111101 E
b000011110 F
b000011110 G
b11111100000101011 I
b0000000101110111 J
b0011010100 K
b11111110011101000111101110 N
1O
#78000
0O
#79000
b1110100011111111 $
b00000000000000000000000000001111 &
r3.769911184307999 '
r-0.3681245526848922 +
b0000000101110111 5
b1110100011111111 8
b1110100011111111 :
b0000000000000000 ;
b00000011111 <
b000000011111 ?
b1110100011111111 B
b1111100000101011 C
b0000011111010101 D
b000000000000000000 E
b000011111 F
b000011111 G
b11110100011111111 I
b1111111001110100 J
b0011011110 K
b0001011100000001 M
b11111011001111001100101100 N
1O
#80000
0O
#81000
b1101101101000100 $
b00000000000000000000000000010000 &
r4.021238596595198 '
r-0.5877852522926728 +
b1111111001110100 5
b1101101101000100 8
b1101101101000100 :
b1111000100010000 ;
b00000100000 <
b000000100000 ?
b1101101101000100 B
b1110100011111111 C
b1111100000101011 D
b111100010001000011 E
b000100000 F
b000100000 G
b11101101101000100 I
b1111101100111100 J
b0011101000 K
b0010010010111100 M
b11111000000010010011111000 N
1O
#82000
0O
#83000
b1100111111011000 $
b00000000000000000000000000010001 &
r4.272566008882398 '
r-0.7705132427759569 +
b1111101100111100 5
b1100111111011000 8
b1100111111011000 :
b1110001100010001 ;
b00000100001 <
b000000100001 ?
b1100111111011000 B
b1101101101000100 C
b1110100011111111 D
b111000110001000110 E
b000100001 F
b000100001 G
b11100111111011000 I
b1111100000001001 J
b0011110010 K
b0011000000101000 M
b11110101000101101111000000 N
1O
#84000
0O
#85000
b1100011101110011 $
b00000000000000000000000000010010 &
r4.523893421169598 '
r-0.9048270524661385 +
b1111100000001001 5
b1100011101110011 8
b1100011101110011 :
b1101011011100011 ;
b00000100010 <
b000000100010 ?
b1100011101110011 B
b1100111111011000 C
b1101101101000100 D
b110101101110001110 E
b000100010 F
b000100010 G
b11100011101110011 I
b1111010100010110 J
b0011111100 K
b0011100010001101 M
b11110010101000101010110110 N
1O
#86000
0O
#87000
b1100001010011100 $
b00000000000000000000000000010011 &
r4.775220833456798 '
r-0.9822872507287441 +
b1111010100010110 5
b1100001010011100 8
b1100001010011100 :
b1100110101001010 ;
b00000100011 <
b000000100011 ?
b1100001010011100 B
b1100011101110011 C
b1100111111011000 D
b110011010100101011 E
b000100011 F
b000100011 G
b11100001010011100 I
b1111001010100010 J
b0100000110 K
b0011110101100100 M
b11110000111001000110010000 N
1O
#88000
0O
#89000
b1100000110100000 $
b00000000000000000000000000010100 &
r5.026548245743998 '
r-0.998026728428252 +
b1111001010100010 5
b1100000110100000 8
b1100000110100000 :
b1100011011100001 ;
b00000100100 <
b000000100100 ?
b1100000110100000 B
b1100001010011100 C
b1100011101110011 D
b110001101110000111 E
b000100100 F
b000100100 G
b11100000110100000 I
b1111000011100100 J
b0100010000 K
b0011111001100000 M
b11110000000010100111000000 N
1O
#90000
0O
#91000
b1100010010010000 $
b00000000000000000000000000010101 &
r5.277875658031197 '
r-0.9510565162950521 +
b1111000011100100 5
b1100010010010000 8
b1100010010010000 :
b1100010000001111 ;
b00000100101 <
b000000100101 ?
b1100010010010000 B
b1100000110100000 C
b1100001010011100 D
b110001000000111111 E
b000100101 F
b000100101 G
b11100010010010000 I
b1111000000001010 J
b0100011010 K
b0011101101110000 M
b11110000001101100100000000 N
1O
#92000
0O
#93000
b1100101100111011 $
b00000000000000000000000000010110 &
r5.529203070318397 '
r-0.8443279255018303 +
b1111000000001010 5
b1100101100111011 8
b1100101100111011 :
b1100010100000001 ;
b00000100110 <
b000000100110 ?
b1100101100111011 B
b1100010010010000 C
b1100000110100000 D
b110001010000000111 E
b000100110 F
b000100110 G
b11100101100111011 I
b1111000000110110 J
b0100100100 K
b0011010011000101 M
b11110001011101111011111110 N
1O
#94000
0O
#95000
b1101010100111000 $
b00000000000000000000000000010111 &
r5.780530482605597 '
r-0.6845471059284255 +
b1111000000110110 5
b1101010100111000 8
b1101010100111000 :
b1100100110101000 ;
b00000100111 <
b000000100111 ?
b1101010100111000 B
b1100101100111011 C
b1100010010010000 D
b110010011010100011 E
b000100111 F
b000100111 G
b11101010100111000 I
b1111000101110111 J
b0100101110 K
b0010101011001000 M
b11110011110011001111100000 N
1O
#96000
0O
#97000
b1110000111100100 $
b00000000000000000000000000011000 &
r6.031857894892797 '
r-0.4817536741013845 +
b1111000101110111 5
b1110000111100100 8
b1110000111100100 :
b1101000110111001 ;
b00000101000 <
b000000101000 ?
b1110000111100100 B
b1101010100111000 C
b1100101100111011 D
b110100011011100111 E
b000101000 F
b000101000 G
b11110000111100100 I
b1111001111001100 J
b0100111000 K
b0001111000011100 M
b11110111000111101011111000 N
1O
#98000
0O
#99000
b1111000001110101 $
b00000000000000000000000000011001 &
r6.283185307179997 '
r-0.2486898871644734 +
b1111001111001100 5
b1111000001110101 8
b1111000001110101 :
b1101110010110011 ;
b00000101001 <
b000000101001 ?
b1111000001110101 B
b1110000111100100 C
b1101010100111000 D
b110111001011001100 E
b000101001 F
b000101001 G
b11111000001110101 I
b1111011100011110 J
b0101000010 K
b0000111110001011 M
b11111011010000111010011000 N
1O
#100000
0O
#101000
b0000000000000000 $
b00000000000000000000000000011010 &
r0.2513274122871962 '
r4.100935005416284e-13 +
b1111011100011110 5
b0000000000000000 8
b0000000000000000 :
b1110100111100100 ;
b00000101010 <
b000000101010 ?
b0000000000000000 B
b1111000001110101 C
b1110000111100100 D
b111010011110010001 E
b000101010 F
b000101010 G
b00000000000000000 I
b1111101101000011 J
b0101001100 K
b0000000000000000 M
b00000000000000000000000000 N
1O
#102000
0O
#103000
b0000111110001011 $
b00000000000000000000000000011011 &
r0.5026548245743963 '
r0.2486898871648672 +
b1111101101000011 5
b0000111110001011 8
b0000111110001011 :
b1111100001111001 ;
b00000101011 <
b000000101011 ?
b0000111110001011 B
b0000000000000000 C
b1111000001110101 D
b111110000111100100 E
b000101011 F
b000101011 G
b00000111110001011 I
b0000000000000000 J
b0101010110 K
0L
b0000111110001011 M
b00000101000010100001000100 N
1O
#104000
0O
#105000
b0001111000011100 $
b00000000000000000000000000011100 &
r0.7539822368615963 '
r0.481753674101741 +
b0000000000000000 5
b0001111000011100 8
b0001111000011100 :
b0000011110000111 ;
b00000101100 <
b000000101100 ?
b0001111000011100 B
b0000111110001011 C
b0000000000000000 D
b000001111000011100 E
b000101100 F
b000101100 G
b00001111000011100 I
b0000010100001010 J
b0101010101 K
1L
b0001111000011100 M
b00001010000011100101101000 N
1O
#106000
0O
#107000
b0010101011001000 $
b00000000000000000000000000011101 &
r1.005309649148796 '
r0.6845471059287221 +
b0000010100001010 5
b0010101011001000 8
b0010101011001000 :
b0001011000011011 ;
b00000101101 <
b000000101101 ?
b0010101011001000 B
b0001111000011100 C
b0000111110001011 D
b000101100001101111 E
b000101101 F
b000101101 G
b00010101011001000 I
b0000101000001110 J
b0101011111 K
b0010101011001000 M
b00001110001111110001101000 N
1O
#108000
0O
#109000
b0011010011000101 $
b00000000000000000000000000011110 &
r1.256637061435996 '
r0.8443279255020485 +
b0000101000001110 5
b0011010011000101 8
b0011010011000101 :
b0010001101001101 ;
b00000101110 <
b000000101110 ?
b0011010011000101 B
b0010101011001000 C
b0001111000011100 D
b001000110100110100 E
b000101110 F
b000101110 G
b00011010011000101 I
b0000111000111111 J
b0101101001 K
b0011010011000101 M
b00010010000101101000011011 N
1O
#110000
0O
#111000
b0011101101110000 $
b00000000000000000000000000011111 &
r1.507964473723196 '
r0.951056516295178 +
b0000111000111111 5
b0011101101110000 8
b0011101101110000 :
b0010111001000110 ;
b00000101111 <
b000000101111 ?
b0011101101110000 B
b0011010011000101 C
b0010101011001000 D
b001011100100011001 E
b000101111 F
b000101111 G
b00011101101110000 I
b0001001000010110 J
b0101110011 K
b0011101101110000 M
b00010100111101000011110000 N
1O
#112000
0O
#113000
b0011111001100000 $
b00000000000000000000000000100000 &
r1.759291886010396 '
r0.9980267284282776 +
b0001001000010110 5
b0011111001100000 8
b0011111001100000 :
b0011011001010111 ;
b00000110000 <
b000000110000 ?
b0011111001100000 B
b0011101101110000 C
b0011010011000101 D
b001101100101011101 E
b000110000 F
b000110000 G
b00011111001100000 I
b0001010011110100 J
b0101111101 K
b0011111001100000 M
b00010110100110010100100000 N
1O
#114000
0O
#115000
b0011110101100100 $
b00000000000000000000000000100001 &
r2.010619298297597 '
r0.9822872507286676 +
b0001010011110100 5
b0011110101100100 8
b0011110101100100 :
b0011101011111110 ;
b00000110001 <
b000000110001 ?
b0011110101100100 B
b0011111001100000 C
b0011101101110000 D
b001110101111111001 E
b000110001 F
b000110001 G
b00011110101100100 I
b0001011010011001 J
b0110000111 K
b0011110101100100 M
b00010110110101110111010100 N
1O
#116000
0O
#117000
b0011100010001101 $
b00000000000000000000000000100010 &
r2.261946710584796 '
r0.9048270524659646 +
b0001011010011001 5
b0011100010001101 8
b0011100010001101 :
b0011101111110000 ;
b00000110010 <
b000000110010 ?
b0011100010001101 B
b0011110101100100 C
b0011111001100000 D
b001110111111000001 E
b000110010 F
b000110010 G
b00011100010001101 I
b0001011011010111 J
b0110010001 K
b0011100010001101 M
b00010101100101111101011011 N
1O
#118000
0O
#119000
b0011000000101000 $
b00000000000000000000000000100011 &
r2.513274122871996 '
r0.7705132427756967 +
b0001011011010111 5
b0011000000101000 8
b0011000000101000 :
b0011100100011110 ;
b00000110011 <
b000000110011 ?
b0011000000101000 B
b0011100010001101 C
b0011110101100100 D
b001110010001111001 E
b000110011 F
b000110011 G
b00011000000101000 I
b0001010110010111 J
b0110011011 K
b0011000000101000 M
b00010010110110111010101000 N
1O
#120000
0O
#121000
b0010010010111100 $
b00000000000000000000000000100100 &
r2.764601535159196 '
r0.5877852522923425 +
b0001010110010111 5
b0010010010111100 8
b0010010010111100 :
b0011001010110101 ;
b00000110100 <
b000000110100 ?
b0010010010111100 B
b0011000000101000 C
b0011100010001101 D
b001100101011010101 E
b000110100 F
b000110100 G
b00010010010111100 I
b0001001011011011 J
b0110100101 K
b0010010010111100 M
b00001110101111100111010100 N
1O
#122000
0O
#123000
b0001011100000001 $
b00000000000000000000000000100101 &
r3.015928947446396 '
r0.3681245526845126 +
b0001001011011011 5
b0001011100000001 8
b0001011100000001 :
b0010100100011100 ;
b00000110101 <
b000000110101 ?
b0001011100000001 B
b0010010010111100 C
b0011000000101000 D
b001010010001110010 E
b000110101 F
b000110101 G
b00001011100000001 I
b0000111010111110 J
b0110101111 K
b0001011100000001 M
b00001001011101010010100101 N
1O
#124000
0O
#125000
b0000011111010101 $
b00000000000000000000000000100110 &
r3.267256359733596 '
r0.1253332335641116 +
b0000111010111110 5
b0000011111010101 8
b0000011111010101 :
b0001110011101110 ;
b00000110110 <
b000000110110 ?
b0000011111010101 B
b0001011100000001 C
b0010010010111100 D
b000111001110111010 E
b000110110 F
b000110110 G
b00000011111010101 I
b0000100101110101 J
b0110111001 K
b0000011111010101 M
b00000011010010111110011011 N
1O
#126000
0O
#127000
b1111100000101011 $
b00000000000000000000000000100111 &
r3.518583772020795 '
r-0.1253332335645131 +
b0000100101110101 5
b1111100000101011 8
b1111100000101011 :
b0000111011101111 ;
b00000110111 <
b000000110111 ?
b1111100000101011 B
b0000011111010101 C
b0001011100000001 D
b000011101110111101 E
b000110111 F
b000110111 G
b11111100000101011 I
b0000001101001011 J
b0111000011 K
b11111100101000001000010011 N
1O
#128000
0O
#129000
b1110100011111111 $
b00000000000000000000000000101000 &
r3.769911184307995 '
r-0.3681245526848889 +
b0000001101001011 5
b1110100011111111 8
b1110100011111111 :
b0000000000000000 ;
b00000111000 <
b000000111000 ?
b1110100011111111 B
b1111100000101011 C
b0000011111010101 D
b000000000000000000 E
b000111000 F
b000111000 G
b11110100011111111 I
b1111110010100000 J
b0111001101 K
b0001011100000001 M
b11110101110111100100111101 N
1O
#130000
0O
#131000
b1101101101000100 $
b00000000000000000000000000101001 &
r4.021238596595195 '
r-0.5877852522926699 +
b1111110010100000 5
b1101101101000100 8
b1101101101000100 :
b1111000100010000 ;
b00000111001 <
b000000111001 ?
b1101101101000100 B
b1110100011111111 C
b1111100000101011 D
b111100010001000011 E
b000111001 F
b000111001 G
b11101101101000100 I
b1111010111011110 J
b0111010111 K
b0010010010111100 M
b11101111011101100101110100 N
1O
#132000
0O
#133000
b1100111111011000 $
b00000000000000000000000000101010 &
r4.272566008882395 '
r-0.7705132427759547 +
b1111010111011110 5
b1100111111011000 8
b1100111111011000 :
b1110001100010001 ;
b00000111010 <
b000000111010 ?
b1100111111011000 B
b1101101101000100 C
b1110100011111111 D
b111000110001000110 E
b000111010 F
b000111010 G
b11100111111011000 I
b1110111101110110 J
b0111100001 K
b0011000000101000 M
b11101001110110011001101000 N
1O
#134000
0O
#135000
b1100011101110011 $
b00000000000000000000000000101011 &
r4.523893421169594 '
r-0.904827052466137 +
b1110111101110110 5
b1100011101110011 8
b1100011101110011 :
b1101011011100011 ;
b00000111011 <
b000000111011 ?
b1100011101110011 B
b1100111111011000 C
b1101101101000100 D
b110101101110001110 E
b000111011 F
b000111011 G
b11100011101110011 I
b1110100111011001 J
b0111101011 K
b0011100010001101 M
b11100101011011111100010011 N
1O
#136000
0O
#137000
b1100001010011100 $
b00000000000000000000000000101100 &
r4.775220833456794 '
r-0.9822872507287435 +
b1110100111011001 5
b1100001010011100 8
b1100001010011100 :
b1100110101001010 ;
b00000111100 <
b000000111100 ?
b1100001010011100 B
b1100011101110011 C
b1100111111011000 D
b110011010100101011 E
b000111100 F
b000111100 G
b11100001010011100 I
b1110010101101111 J
b0111110101 K
b0011110101100100 M
b11100010100100000100110100 N
1O
#138000
0O
#139000
b1100000110100000 $
b00000000000000000000000000101101 &
r5.026548245743994 '
r-0.9980267284282522 +
b1110010101101111 5
b1100000110100000 8
b1100000110100000 :
b1100011011100001 ;
b00000111101 <
b000000111101 ?
b1100000110100000 B
b1100001010011100 C
b1100011101110011 D
b110001101110000111 E
b000111101 F
b000111101 G
b11100000110100000 I
b1110001010010000 J
b0111111111 K
b0011111001100000 M
b11100001011110111000100000 N
1O
#140000
0O
#141000
b1100010010010000 $
b00000000000000000000000000101110 &
r5.277875658031194 '
r-0.9510565162950532 +
b1110001010010000 5
b1100010010010000 8
b1100010010010000 :
b1100010000001111 ;
b00000111110 <
b000000111110 ?
b1100010010010000 B
b1100000110100000 C
b1100001010011100 D
b110001000000111111 E
b000111110 F
b000111110 G
b11100010010010000 I
b1110000101111011 J
b1000001001 K
b0011101101110000 M
b11100010010101101101110000 N
1O
#142000
0O
#143000
b1100101100111011 $
b00000000000000000000000000101111 &
r5.529203070318394 '
r-0.8443279255018322 +
b1110000101111011 5
b1100101100111011 8
b1100101100111011 :
b1100010100000001 ;
b00000111111 <
b000000111111 ?
b1100101100111011 B
b1100010010010000 C
b1100000110100000 D
b110001010000000111 E
b000111111 F
b000111111 G
b11100101100111011 I
b1110001001010110 J
b1000010011 K
b0011010011000101 M
b11100101001001101100010011 N
1O
#144000
0O
#145000
b1101010100111000 $
b00000000000000000000000000110000 &
r5.780530482605593 '
r-0.684547105928428 +
b1110001001010110 5
b1101010100111000 8
b1101010100111000 :
b1100100110101000 ;
b00001000000 <
b000001000000 ?
b1101010100111000 B
b1100101100111011 C
b1100010010010000 D
b110010011010100011 E
b001000000 F
b001000000 G
b11101010100111000 I
b1110010100100110 J
b1000011101 K
b0010101011001000 M
b11101001110100001100101000 N
1O
#146000
0O
#147000
b1110000111100100 $
b00000000000000000000000000110001 &
r6.031857894892793 '
r-0.4817536741013876 +
b1110010100100110 5
b1110000111100100 8
b1110000111100100 :
b1101000110111001 ;
b00001000001 <
b000001000001 ?
b1110000111100100 B
b1101010100111000 C
b1100101100111011 D
b110100011011100111 E
b001000001 F
b001000001 G
b11110000111100100 I
b1110100111010000 J
b1000100111 K
b0001111000011100 M
b11110000000101111011010100 N
1O
#148000
0O
#149000
b1111000001110101 $
b00000000000000000000000000110010 &
r6.283185307179993 '
r-0.2486898871644768 +
r0.04 0
b1110100111010000 5
b1111000001110101 8
b1111000001110101 :
b1101110010110011 ;
b00001000010 <
b000001000010 ?
b1111000001110101 B
b1110000111100100 C
b1101010100111000 D
b110111001011001100 E
b001000010 F
b001000010 G
b11111000001110101 I
b1111000000010111 J
b1000110001 K
b0000111110001011 M
b11110111101000101111010011 N
1O
#150000
0O
#151000
b1100000110000000 $
b00000000000000000000000000000001 -
r0.04 .
r-1 2
b1111000000010111 5
b1100000110000000 8
b1100000110000000 :
b1101101001000100 ;
b00001000011 <
b000001000011 ?
b1100000110000000 B
b1111000001110101 C
b1110000111100100 D
b110110100100010001 E
b001000011 F
b001000011 G
b11100000110000000 I
b1111011110100010 J
b1000111011 K
b0011111010000000 M
b11011101110000100110000000 N
1O
#152000
0O
#153000
b1100011010000000 $
b00000000000000000000000000000010 -
r0.08 .
r-0.92 2
b1111011110100010 5
b1100011010000000 8
b1100011010000000 :
b1101011010010110 ;
b00001000100 <
b000001000100 ?
b1100011010000000 B
b1100000110000000 C
b1111000001110101 D
b110101101001011001 E
b001000100 F
b001000100 G
b11100011010000000 I
b1101110111000010 J
b1001000101 K
b0011100110000000 M
b11011111111011111110000000 N
1O
#154000
0O
