.github/outputs/wave.vcd
$version Generated by VerilatedVcd $end
$timescale 1ps $end
 $scope module TOP $end
  $scope module tb $end
   $var wire 32 r CLK_PERIOD [31:0] $end
   $var wire 32 s CLK_FREQ_HZ [31:0] $end
   $var wire 32 s AUDIO_SAMPLE_RATE [31:0] $end
   $var wire 32 t SAMPLES_PER_TONE [31:0] $end
   $var wire 32 u SINE_AMPLITUDE [31:0] $end
   $var wire 32 u SAW_AMPLITUDE [31:0] $end
   $var wire 32 v SAMPLE_DIV [31:0] $end
   $var wire 32 w SINE_FREQ_HZ [31:0] $end
   $var wire 32 w SAW_FREQ_HZ [31:0] $end
   $var wire 1 h clk $end
   $var wire 1 # reset $end
   $var wire 16 $ audio_in [15:0] $end
   $var wire 10 % SW [9:0] $end
   $var wire 16 C audio_out [15:0] $end
   $var wire 32 D sample_cnt [31:0] $end
   $var wire 1 E sample_tick $end
   $var wire 32 x tone_idx [31:0] $end
   $var wire 32 & play_sine_tone__Vstatic__i [31:0] $end
   $var real 64 ' play_sine_tone__Vstatic__phase $end
   $var real 64 ) play_sine_tone__Vstatic__phase_inc $end
   $var real 64 + play_sine_tone__Vstatic__s $end
   $var wire 32 - play_saw_tone__Vstatic__i [31:0] $end
   $var real 64 . play_saw_tone__Vstatic__phase $end
   $var real 64 0 play_saw_tone__Vstatic__phase_inc $end
   $var real 64 2 play_saw_tone__Vstatic__v $end
   $scope module dut $end
    $var wire 1 h clk $end
    $var wire 1 # reset $end
    $var wire 16 $ audio_in [15:0] $end
    $var wire 10 % SW [9:0] $end
    $var wire 16 C audio_out [15:0] $end
    $var wire 3 4 effect_select [2:0] $end
    $var wire 16 F noise_gate_out [15:0] $end
    $var wire 16 G high_pitch_out [15:0] $end
    $var wire 16 H low_pitch_out [15:0] $end
    $var wire 16 i reverb_out [15:0] $end
    $var wire 16 I muffled_out [15:0] $end
    $scope module hp_inst $end
     $var wire 1 h clk $end
     $var wire 1 # reset $end
     $var wire 16 $ audio_in [15:0] $end
     $var wire 16 G audio_out [15:0] $end
     $var wire 14 5 s0 [13:0] $end
     $var wire 14 J s1 [13:0] $end
     $var wire 18 K s2 [17:0] $end
     $var wire 18 L s3 [17:0] $end
     $var wire 1 6 unused_counter_ovf $end
     $var wire 16 j unused_ram_1d [15:0] $end
     $var wire 1 M unused_add_co $end
     $scope module DIG_Add_i2 $end
      $var wire 32 y Bits [31:0] $end
      $var wire 18 K a [17:0] $end
      $var wire 18 z b [17:0] $end
      $var wire 1 { c_i $end
      $var wire 18 L s [17:0] $end
      $var wire 1 M c_o $end
      $var wire 19 N temp [18:0] $end
     $upscope $end
     $scope module DIG_Counter_Nbit_i0 $end
      $var wire 32 | Bits [31:0] $end
      $var wire 14 5 out [13:0] $end
      $var wire 1 6 ovf $end
      $var wire 1 h C $end
      $var wire 1 } en $end
      $var wire 1 # clr $end
      $var wire 14 5 count [13:0] $end
     $upscope $end
     $scope module DIG_RAMDualAccess_i1 $end
      $var wire 32 ~ Bits [31:0] $end
      $var wire 32 | AddrBits [31:0] $end
      $var wire 1 h C $end
      $var wire 1 } ld $end
      $var wire 14 5 1A [13:0] $end
      $var wire 14 J 2A [13:0] $end
      $var wire 16 $ 1Din [15:0] $end
      $var wire 1 } str $end
      $var wire 16 j 1D [15:0] $end
      $var wire 16 G 2D [15:0] $end
     $upscope $end
     $scope module DIG_Register_BUS_i3 $end
      $var wire 32 y Bits [31:0] $end
      $var wire 1 h C $end
      $var wire 1 } en $end
      $var wire 18 L D [17:0] $end
      $var wire 18 K Q [17:0] $end
      $var wire 18 K state [17:0] $end
     $upscope $end
    $upscope $end
    $scope module lp_inst $end
     $var wire 1 h clk $end
     $var wire 1 # reset $end
     $var wire 16 $ audio_in [15:0] $end
     $var wire 16 H audio_out [15:0] $end
     $var wire 14 7 s0 [13:0] $end
     $var wire 14 O s1 [13:0] $end
     $var wire 18 P s2 [17:0] $end
     $var wire 18 Q s3 [17:0] $end
     $var wire 1 8 unused_counter_ovf $end
     $var wire 16 k unused_ram_1d [15:0] $end
     $var wire 1 R unused_add_co $end
     $scope module DIG_Add_i2 $end
      $var wire 32 y Bits [31:0] $end
      $var wire 18 P a [17:0] $end
      $var wire 18 !! b [17:0] $end
      $var wire 1 { c_i $end
      $var wire 18 Q s [17:0] $end
      $var wire 1 R c_o $end
      $var wire 19 S temp [18:0] $end
     $upscope $end
     $scope module DIG_Counter_Nbit_i0 $end
      $var wire 32 | Bits [31:0] $end
      $var wire 14 7 out [13:0] $end
      $var wire 1 8 ovf $end
      $var wire 1 h C $end
      $var wire 1 } en $end
      $var wire 1 { clr $end
      $var wire 14 7 count [13:0] $end
     $upscope $end
     $scope module DIG_RAMDualAccess_i1 $end
      $var wire 32 ~ Bits [31:0] $end
      $var wire 32 | AddrBits [31:0] $end
      $var wire 1 h C $end
      $var wire 1 } ld $end
      $var wire 14 7 1A [13:0] $end
      $var wire 14 O 2A [13:0] $end
      $var wire 16 $ 1Din [15:0] $end
      $var wire 1 } str $end
      $var wire 16 k 1D [15:0] $end
      $var wire 16 H 2D [15:0] $end
     $upscope $end
     $scope module DIG_Register_BUS_i3 $end
      $var wire 32 y Bits [31:0] $end
      $var wire 1 h C $end
      $var wire 1 } en $end
      $var wire 18 Q D [17:0] $end
      $var wire 18 P Q [17:0] $end
      $var wire 18 P state [17:0] $end
     $upscope $end
    $upscope $end
    $scope module muf_inst $end
     $var wire 16 $ audio_in [15:0] $end
     $var wire 1 h clk $end
     $var wire 1 # reset $end
     $var wire 16 I audio_out [15:0] $end
     $var wire 16 l y_1 [15:0] $end
     $var wire 16 ; s0 [15:0] $end
     $var wire 16 T y_2 [15:0] $end
     $var wire 16 U s1 [15:0] $end
     $var wire 16 < s2 [15:0] $end
     $var wire 16 = s3 [15:0] $end
     $var wire 16 V s4 [15:0] $end
     $var wire 16 W s5 [15:0] $end
     $var wire 16 X s6 [15:0] $end
     $var wire 1 > s7 $end
     $var wire 1 Y s8 $end
     $var wire 1 Z s9 $end
     $var wire 1 ? unused_sub0_co $end
     $var wire 1 [ unused_sub1_co $end
     $var wire 1 @ unused_add0_co $end
     $var wire 1 \ unused_add1_co $end
     $var wire 1 ] unused_add2_co $end
     $scope module DIG_Add_i1 $end
      $var wire 32 ~ Bits [31:0] $end
      $var wire 16 < a [15:0] $end
      $var wire 16 l b [15:0] $end
      $var wire 1 { c_i $end
      $var wire 16 = s [15:0] $end
      $var wire 1 @ c_o $end
      $var wire 17 A temp [16:0] $end
     $upscope $end
     $scope module DIG_Add_i4 $end
      $var wire 32 ~ Bits [31:0] $end
      $var wire 16 V a [15:0] $end
      $var wire 16 T b [15:0] $end
      $var wire 1 { c_i $end
      $var wire 16 W s [15:0] $end
      $var wire 1 \ c_o $end
      $var wire 17 ^ temp [16:0] $end
     $upscope $end
     $scope module DIG_Add_i6 $end
      $var wire 32 ~ Bits [31:0] $end
      $var wire 16 X a [15:0] $end
      $var wire 16 T b [15:0] $end
      $var wire 1 { c_i $end
      $var wire 16 I s [15:0] $end
      $var wire 1 ] c_o $end
      $var wire 17 _ temp [16:0] $end
     $upscope $end
     $scope module DIG_Register_BUS_i2 $end
      $var wire 32 ~ Bits [31:0] $end
      $var wire 1 h C $end
      $var wire 1 } en $end
      $var wire 16 = D [15:0] $end
      $var wire 16 l Q [15:0] $end
      $var wire 16 l state [15:0] $end
     $upscope $end
     $scope module DIG_Register_BUS_i5 $end
      $var wire 32 ~ Bits [31:0] $end
      $var wire 1 h C $end
      $var wire 1 } en $end
      $var wire 16 W D [15:0] $end
      $var wire 16 T Q [15:0] $end
      $var wire 16 T state [15:0] $end
     $upscope $end
     $scope module DIG_Sub_i0 $end
      $var wire 32 ~ Bits [31:0] $end
      $var wire 16 $ a [15:0] $end
      $var wire 16 l b [15:0] $end
      $var wire 1 { c_i $end
      $var wire 16 ; s [15:0] $end
      $var wire 1 ? c_o $end
      $var wire 17 B temp [16:0] $end
     $upscope $end
     $scope module DIG_Sub_i3 $end
      $var wire 32 ~ Bits [31:0] $end
      $var wire 16 l a [15:0] $end
      $var wire 16 T b [15:0] $end
      $var wire 1 { c_i $end
      $var wire 16 U s [15:0] $end
      $var wire 1 [ c_o $end
      $var wire 17 ` temp [16:0] $end
     $upscope $end
    $upscope $end
    $scope module ng_inst $end
     $var wire 1 h clk $end
     $var wire 1 # reset $end
     $var wire 16 $ audio_in [15:0] $end
     $var wire 16 F audio_out [15:0] $end
     $var wire 16 "! OPEN_THR [15:0] $end
     $var wire 16 #! CLOSE_THR [15:0] $end
     $var wire 10 $! GAIN_MAX [9:0] $end
     $var wire 10 %! GAIN_MIN [9:0] $end
     $var wire 10 &! ATK_STEP [9:0] $end
     $var wire 10 '! RLS_STEP [9:0] $end
     $var wire 10 a gain [9:0] $end
     $var wire 1 b is_open $end
     $var wire 16 c abs_v [15:0] $end
     $var wire 26 d mult_result [25:0] $end
    $upscope $end
    $scope module rev_inst $end
     $var wire 1 h clk $end
     $var wire 1 # reset $end
     $var wire 16 $ audio_in [15:0] $end
     $var wire 16 i audio_out [15:0] $end
     $var wire 14 9 s0 [13:0] $end
     $var wire 16 m s1 [15:0] $end
     $var wire 16 e s2 [15:0] $end
     $var wire 16 f s3 [15:0] $end
     $var wire 1 g s4 $end
     $var wire 1 : unused_counter_ovf $end
     $var wire 1 n unused_add0_co $end
     $var wire 1 o unused_add1_co $end
     $scope module DIG_Add_i2 $end
      $var wire 32 ~ Bits [31:0] $end
      $var wire 16 $ a [15:0] $end
      $var wire 16 f b [15:0] $end
      $var wire 1 { c_i $end
      $var wire 16 m s [15:0] $end
      $var wire 1 n c_o $end
      $var wire 17 p temp [16:0] $end
     $upscope $end
     $scope module DIG_Add_i3 $end
      $var wire 32 ~ Bits [31:0] $end
      $var wire 16 $ a [15:0] $end
      $var wire 16 e b [15:0] $end
      $var wire 1 { c_i $end
      $var wire 16 i s [15:0] $end
      $var wire 1 o c_o $end
      $var wire 17 q temp [16:0] $end
     $upscope $end
     $scope module DIG_Counter_Nbit_i0 $end
      $var wire 32 | Bits [31:0] $end
      $var wire 14 9 out [13:0] $end
      $var wire 1 : ovf $end
      $var wire 1 h C $end
      $var wire 1 } en $end
      $var wire 1 { clr $end
      $var wire 14 9 count [13:0] $end
     $upscope $end
     $scope module DIG_RAMDualPort_i1 $end
      $var wire 32 ~ Bits [31:0] $end
      $var wire 32 | AddrBits [31:0] $end
      $var wire 14 9 A [13:0] $end
      $var wire 16 m Din [15:0] $end
      $var wire 1 } str $end
      $var wire 1 h C $end
      $var wire 1 } ld $end
      $var wire 16 e D [15:0] $end
     $upscope $end
    $upscope $end
   $upscope $end
  $upscope $end
 $upscope $end
$enddefinitions $end


#0
1#
b0000000000000000 $
b0000000000 %
b00000000000000000000000000000000 &
r0 '
r0 )
r0 +
b00000000000000000000000000000000 -
r0 .
r0 0
r0 2
b000 4
b00000000000000 5
06
b00000000000000 7
08
b00000000000000 9
0:
b0000000000000000 ;
b0000000000000000 <
b0000000000000000 =
0>
0?
0@
b00000000000000000 A
b00000000000000000 B
b0000000000000000 C
b00000000000000000000000000000000 D
0E
b0000000000000000 F
b0000000000000000 G
b0000000000000000 H
b0000000000000000 I
b00000000000000 J
b000000000000000000 K
b000000000000100000 L
0M
b0000000000000100000 N
b00000000000000 O
b000000000000000000 P
b000000000000001000 Q
0R
b0000000000000001000 S
b0000000000000000 T
b0000000000000000 U
b0000000000000000 V
b0000000000000000 W
b0000000000000000 X
0Y
0Z
0[
0\
0]
b00000000000000000 ^
b00000000000000000 _
b00000000000000000 `
b0001100110 a
0b
b0000000000000000 c
b00000000000000000000000000 d
b0000000000000000 e
b0000000000000000 f
0g
0h
b0000000000000000 i
b0000000000000000 j
b0000000000000000 k
b0000000000000000 l
b0000000000000000 m
0n
0o
b00000000000000000 p
b00000000000000000 q
b00000000000000000000000000000010 r
b00011101110011010110010100000000 s
b00000000000000000000000000110010 t
b00000000000000000011111010000000 u
b00000000000000000000000000000001 v
b00000001001100010010110100000000 w
b00000000000000000000000000000000 x
b00000000000000000000000000010010 y
b000000000000100000 z
0{
b00000000000000000000000000001110 |
1}
b00000000000000000000000000010000 ~
b000000000000001000 !!
b0000001111101000 "!
b0000000111110100 #!
b1111111111 $!
b0001100110 %!
b0000001010 &!
b0000000001 '!
#1000
b00000000000001 7
b00000000000001 9
b00000000000010 J
b000000000000100000 K
b000000000001000000 L
b0000000000001000000 N
b000000000000001000 P
b000000000000010000 Q
b0000000000000010000 S
1h
#2000
0h
#3000
b00000000000010 7
b00000000000010 9
b00000000000100 J
b000000000001000000 K
b000000000001100000 L
b0000000000001100000 N
b00000000000001 O
b000000000000010000 P
b000000000000011000 Q
b0000000000000011000 S
1h
#4000
0h
#5000
b00000000000011 7
b00000000000011 9
b00000000000110 J
b000000000001100000 K
b000000000010000000 L
b0000000000010000000 N
b000000000000011000 P
b000000000000100000 Q
b0000000000000100000 S
1h
#6000
0h
#7000
b00000000000100 7
b00000000000100 9
b00000000001000 J
b000000000010000000 K
b000000000010100000 L
b0000000000010100000 N
b00000000000010 O
b000000000000100000 P
b000000000000101000 Q
b0000000000000101000 S
1h
#8000
0h
#9000
b00000000000101 7
b00000000000101 9
b00000000001010 J
b000000000010100000 K
b000000000011000000 L
b0000000000011000000 N
b000000000000101000 P
b000000000000110000 Q
b0000000000000110000 S
1h
#10000
0h
#11000
b00000000000110 7
b00000000000110 9
b00000000001100 J
b000000000011000000 K
b000000000011100000 L
b0000000000011100000 N
b00000000000011 O
b000000000000110000 P
b000000000000111000 Q
b0000000000000111000 S
1h
#12000
0h
#13000
b00000000000111 7
b00000000000111 9
b00000000001110 J
b000000000011100000 K
b000000000100000000 L
b0000000000100000000 N
b000000000000111000 P
b000000000001000000 Q
b0000000000001000000 S
1h
#14000
0h
#15000
b00000000001000 7
b00000000001000 9
b00000000010000 J
b000000000100000000 K
b000000000100100000 L
b0000000000100100000 N
b00000000000100 O
b000000000001000000 P
b000000000001001000 Q
b0000000000001001000 S
1h
#16000
0h
#17000
b00000000001001 7
b00000000001001 9
b00000000010010 J
b000000000100100000 K
b000000000101000000 L
b0000000000101000000 N
b000000000001001000 P
b000000000001010000 Q
b0000000000001010000 S
1h
#18000
0h
#19000
0#
b00000000000001 5
b00000000001010 7
b00000000001010 9
1E
b00000000010100 J
b000000000101000000 K
b000000000101100000 L
b0000000000101100000 N
b00000000000101 O
b000000000001010000 P
b000000000001011000 Q
b0000000000001011000 S
1h
#20000
0h
#21000
b00000000000010 5
b00000000001011 7
b00000000001011 9
b00000000010110 J
b000000000101100000 K
b000000000110000000 L
b0000000000110000000 N
b000000000001011000 P
b000000000001100000 Q
b0000000000001100000 S
1h
#22000
0h
#23000
b00000000000011 5
b00000000001100 7
b00000000001100 9
b00000000011000 J
b000000000110000000 K
b000000000110100000 L
b0000000000110100000 N
b00000000000110 O
b000000000001100000 P
b000000000001101000 Q
b0000000000001101000 S
1h
#24000
0h
#25000
b00000000000100 5
b00000000001101 7
b00000000001101 9
b00000000011010 J
b000000000110100000 K
b000000000111000000 L
b0000000000111000000 N
b000000000001101000 P
b000000000001110000 Q
b0000000000001110000 S
1h
#26000
0h
#27000
b00000000000101 5
b00000000001110 7
b00000000001110 9
b00000000011100 J
b000000000111000000 K
b000000000111100000 L
b0000000000111100000 N
b00000000000111 O
b000000000001110000 P
b000000000001111000 Q
b0000000000001111000 S
1h
#28000
0h
#29000
b00000000000110 5
b00000000001111 7
b00000000001111 9
b00000000011110 J
b000000000111100000 K
b000000001000000000 L
b0000000001000000000 N
b000000000001111000 P
b000000000010000000 Q
b0000000000010000000 S
1h
#30000
0h
#31000
b00000000000111 5
b00000000010000 7
b00000000010000 9
b00000000100000 J
b000000001000000000 K
b000000001000100000 L
b0000000001000100000 N
b00000000001000 O
b000000000010000000 P
b000000000010001000 Q
b0000000000010001000 S
1h
#32000
0h
#33000
b00000000001000 5
b00000000010001 7
b00000000010001 9
b00000000100010 J
b000000001000100000 K
b000000001001000000 L
b0000000001001000000 N
b000000000010001000 P
b000000000010010000 Q
b0000000000010010000 S
1h
#34000
0h
#35000
b00000000001001 5
b00000000010010 7
b00000000010010 9
b00000000100100 J
b000000001001000000 K
b000000001001100000 L
b0000000001001100000 N
b00000000001001 O
b000000000010010000 P
b000000000010011000 Q
b0000000000010011000 S
1h
#36000
0h
#37000
b00000000001010 5
b00000000010011 7
b00000000010011 9
b00000000100110 J
b000000001001100000 K
b000000001010000000 L
b0000000001010000000 N
b000000000010011000 P
b000000000010100000 Q
b0000000000010100000 S
1h
#38000
0h
#39000
b00000000001011 5
b00000000010100 7
b00000000010100 9
b00000000101000 J
b000000001010000000 K
b000000001010100000 L
b0000000001010100000 N
b00000000001010 O
b000000000010100000 P
b000000000010101000 Q
b0000000000010101000 S
1h
#40000
0h
#41000
b00000000001100 5
b00000000010101 7
b00000000010101 9
b00000000101010 J
b000000001010100000 K
b000000001011000000 L
b0000000001011000000 N
b000000000010101000 P
b000000000010110000 Q
b0000000000010110000 S
1h
#42000
0h
#43000
b00000000001101 5
b00000000010110 7
b00000000010110 9
b00000000101100 J
b000000001011000000 K
b000000001011100000 L
b0000000001011100000 N
b00000000001011 O
b000000000010110000 P
b000000000010111000 Q
b0000000000010111000 S
1h
#44000
0h
#45000
b00000000001110 5
b00000000010111 7
b00000000010111 9
b00000000101110 J
b000000001011100000 K
b000000001100000000 L
b0000000001100000000 N
b000000000010111000 P
b000000000011000000 Q
b0000000000011000000 S
1h
#46000
0h
#47000
b00000000001111 5
b00000000011000 7
b00000000011000 9
b00000000110000 J
b000000001100000000 K
b000000001100100000 L
b0000000001100100000 N
b00000000001100 O
b000000000011000000 P
b000000000011001000 Q
b0000000000011001000 S
1h
#48000
0h
#49000
r0.2513274122872 )
b00000000010000 5
b00000000011001 7
b00000000011001 9
b00000000110010 J
b000000001100100000 K
b000000001101000000 L
b0000000001101000000 N
b000000000011001000 P
b000000000011010000 Q
b0000000000011010000 S
1h
#50000
0h
#51000
b00000000000000000000000000000001 &
r0.2513274122872 '
b00000000010001 5
b00000000011010 7
b00000000011010 9
b00000000110100 J
b000000001101000000 K
b000000001101100000 L
b0000000001101100000 N
b00000000001101 O
b000000000011010000 P
b000000000011011000 Q
b0000000000011011000 S
1h
#52000
0h
#53000
b0000111110001011 $
b00000000000000000000000000000010 &
r0.5026548245744 '
r0.2486898871648708 +
b00000000010010 5
b00000000011011 7
b00000000011011 9
b0000111010010011 ;
b0000000011101001 <
b0000000111100001 =
b00000000111100001 A
b00000111010010011 B
b00000000110110 J
b000000001101100000 K
b000000001110000000 L
b0000000001110000000 N
b000000000011011000 P
b000000000011100000 Q
b0000000000011100000 S
b0000000011111000 U
b0000000000001111 V
b0000000000001111 W
b00000000000001111 ^
b00000000011111000 `
b0000111110001011 c
b00000001100011000101100010 d
1h
b0000111110001011 i
b0000000011111000 l
b0000111110001011 m
b00000111110001011 p
b00000111110001011 q
#54000
0h
#55000
b0001111000011100 $
b00000000000000000000000000000011 &
r0.7539822368616 '
r0.4817536741017443 +
b00000000010011 5
b00000000011100 7
b00000000011100 9
b0001101101010010 ;
b0000000110110101 <
b0000010001111111 =
b00000010001111111 A
b00001101101010010 B
b0000000110001100 F
b0000000000001111 I
b00000000111000 J
b000000001110000000 K
b000000001110100000 L
b0000000001110100000 N
b00000000001110 O
b000000000011100000 P
b000000000011101000 Q
b0000000000011101000 S
b0000000000001111 T
b0000001010111011 U
b0000000000101011 V
b0000000000111010 W
b00000000000111010 ^
b00000000000001111 _
b00000001010111011 `
1b
b0001111000011100 c
b00000010111111111100101000 d
1h
b0001111000011100 i
b0000001011001010 l
b0001111000011100 m
b00001111000011100 p
b00001111000011100 q
#56000
0h
#57000
b0010101011001000 $
b00000000000000000000000000000100 &
r1.0053096491488 '
r0.6845471059287249 +
b00000000010100 5
b00000000011101 7
b00000000011101 9
b0010010101111111 ;
b0000001001010111 <
b0000011110100000 =
b00000011110100000 A
b00010010101111111 B
b0000000110001100 C
b0000001011111111 F
b0000000000111101 I
b00000000111010 J
b000000001110100000 K
b000000001111000000 L
b0000000001111000000 N
b000000000011101000 P
b000000000011110000 Q
b0000000000011110000 S
b0000000000111010 T
b0000010100001111 U
b0000000001010000 V
b0000000010001010 W
b0000000000000011 X
b00000000010001010 ^
b00000000000111101 _
b00000010100001111 `
b0001110000 a
b0010101011001000 c
b00000100010000101110110000 d
1h
b0010101011001000 i
b0000010101001001 l
b0010101011001000 m
b00010101011001000 p
b00010101011001000 q
#58000
0h
#59000
b0011010011000101 $
b00000000000000000000000000000101 &
r1.256637061436 '
r0.8443279255020506 +
b00000000010101 5
b00000000011110 7
b00000000011110 9
b0010110010000101 ;
b0000001011001000 <
b0000101100001000 =
b00000101100001000 A
b00010110010000101 B
b0000001011111111 C
b0000010001000010 F
b0000000010010010 I
b00000000111100 J
b000000001111000000 K
b000000001111100000 L
b0000000001111100000 N
b00000000001111 O
b000000000011110000 P
b000000000011111000 Q
b0000000000011111000 S
b0000000010001010 T
b0000011110110110 U
b0000000001111011 V
b0000000100000101 W
b0000000000001000 X
b00000000100000101 ^
b00000000010010010 _
b00000011110110110 `
b0001111010 a
b0011010011000101 c
b00000101110001011000110000 d
1h
b0011010011000101 i
b0000100001000000 l
b0011010011000101 m
b00011010011000101 p
b00011010011000101 q
#60000
0h
#61000
b0011101101110000 $
b00000000000000000000000000000110 &
r1.5079644737232 '
r0.9510565162951792 +
b00000000010110 5
b00000000011111 7
b00000000011111 9
b0010111111111101 ;
b0000001011111111 <
b0000111001110010 =
b00000111001110010 A
b00010111111111101 B
b0000010001000010 C
b0000010111000101 F
b0000000100010101 I
b00000000111110 J
b000000001111100000 K
b000000010000000000 L
b0000000010000000000 N
b000000000011111000 P
b000000000100000000 Q
b0000000000100000000 S
b0000000100000101 T
b0000101001101110 U
b0000000010100110 V
b0000000110101011 W
b0000000000010000 X
b00000000110101011 ^
b00000000100010101 _
b00000101001101110 `
b0010000100 a
b0011101101110000 c
b00000111000101001101100000 d
1h
b0011101101110000 i
b0000101101110011 l
b0011101101110000 m
b00011101101110000 p
b00011101101110000 q
#62000
0h
#63000
b0011111001100000 $
b00000000000000000000000000000111 &
r1.7592918860104 '
r0.9980267284282778 +
b00000000010111 5
b00000000100000 7
b00000000100000 9
b0010111110111111 ;
b0000001011111011 <
b0001000110011100 =
b00001000110011100 A
b00010111110111111 B
b0000010111000101 C
b0000011100010100 F
b0000000111000101 I
b00000001000000 J
b000000010000000000 K
b000000010000100000 L
b0000000010000100000 N
b00000000010000 O
b000000000100000000 P
b000000000100001000 Q
b0000000000100001000 S
b0000000110101011 T
b0000110011110110 U
b0000000011001111 V
b0000001001111010 W
b0000000000011010 X
b00000001001111010 ^
b00000000111000101 _
b00000110011110110 `
b0010001110 a
b0011111001100000 c
b00001000000010100110000000 d
1h
b0011111001100000 i
b0000111010100001 l
b0011111001100000 m
b00011111001100000 p
b00011111001100000 q
#64000
0h
#65000
b0011110101100100 $
b00000000000000000000000000001000 &
r2.0106192982976 '
r0.982287250728667 +
b00000000011000 5
b00000000100001 7
b00000000100001 9
b0010101111010111 ;
b0000001010111101 <
b0001010001001010 =
b00001010001001010 A
b00010101111010111 B
b0000011100010100 C
b0000100000001010 F
b0000001010100001 I
b00000001000010 J
b000000010000100000 K
b000000010001000000 L
b0000000010001000000 N
b000000000100001000 P
b000000000100010000 Q
b0000000000100010000 S
b0000001001111010 T
b0000111100010011 U
b0000000011110001 V
b0000001101101011 W
b0000000000100111 X
b00000001101101011 ^
b00000001010100001 _
b00000111100010011 `
b0010011000 a
b0011110101100100 c
b00001000100000110101111000 d
1h
b0011110101100100 i
b0001000110001101 l
b0011110101100100 m
b00011110101100100 p
b00011110101100100 q
#66000
0h
#67000
b0011100010001101 $
b00000000000000000000000000001001 &
r2.2619467105848 '
r0.9048270524659632 +
b00000000011001 5
b00000000100010 7
b00000000100010 9
b0010010010010000 ;
b0000001001001001 <
b0001011001000110 =
b00001011001000110 A
b00010010010010000 B
b0000100000001010 C
b0000100010000011 F
b0000001110100001 I
b00000001000100 J
b000000010001000000 K
b000000010001100000 L
b0000000010001100000 N
b00000000010001 O
b000000000100010000 P
b000000000100011000 Q
b0000000000100011000 S
b0000001101101011 T
b0001000010010010 U
b0000000100001001 V
b0000010001110100 W
b0000000000110110 X
b00000010001110100 ^
b00000001110100001 _
b00001000010010010 `
b0010100010 a
b0011100010001101 c
b00001000011001001110111000 d
1h
b0011100010001101 i
b0001001111111101 l
b0011100010001101 m
b00011100010001101 p
b00011100010001101 q
#68000
0h
#69000
b0011000000101000 $
b00000000000000000000000000001010 &
r2.513274122872 '
r0.7705132427756944 +
b00000000011010 5
b00000000100011 7
b00000000100011 9
b0001101001101001 ;
b0000000110100110 <
b0001011101100101 =
b00001011101100101 A
b00001101001101001 B
b0000100010000011 C
b0000100001100100 F
b0000010010111011 I
b00000001000110 J
b000000010001100000 K
b000000010010000000 L
b0000000010010000000 N
b000000000100011000 P
b000000000100100000 Q
b0000000000100100000 S
b0000010001110100 T
b0001000101001011 U
b0000000100010100 V
b0000010110001000 W
b0000000001000111 X
b00000010110001000 ^
b00000010010111011 _
b00001000101001011 `
b0010101100 a
b0011000000101000 c
b00000111100111100101010000 d
1h
b0011000000101000 i
b0001010110111111 l
b0011000000101000 m
b00011000000101000 p
b00011000000101000 q
#70000
0h
#71000
b0010010010111100 $
b00000000000000000000000000001011 &
r2.764601535159199 '
r0.5877852522923396 +
b00000000011011 5
b00000000100100 7
b00000000100100 9
b0000111000001110 ;
b0000000011100000 <
b0001011110001110 =
b00001011110001110 A
b00000111000001110 B
b0000100001100100 C
b0000011110011110 F
b0000010111100000 I
b00000001001000 J
b000000010010000000 K
b000000010010100000 L
b0000000010010100000 N
b00000000010010 O
b000000000100100000 P
b000000000100101000 Q
b0000000000100101000 S
b0000010110001000 T
b0001000100100110 U
b0000000100010010 V
b0000011010011010 W
b0000000001011000 X
b00000011010011010 ^
b00000010111100000 _
b00001000100100110 `
b0010110110 a
b0010010010111100 c
b00000110001010111001010000 d
1h
b0010010010111100 i
b0001011010101110 l
b0010010010111100 m
b00010010010111100 p
b00010010010111100 q
#72000
0h
#73000
b0001011100000001 $
b00000000000000000000000000001100 &
r3.015928947446399 '
r0.3681245526845093 +
b00000000011100 5
b00000000100101 7
b00000000100101 9
b0000000001001110 ;
b0000000000000100 <
b0001011010110111 =
b00001011010110111 A
b00000000001001110 B
b0000011110011110 C
b0000011000101011 F
b0000011100000011 I
b00000001001010 J
b000000010010100000 K
b000000010011000000 L
b0000000010011000000 N
b000000000100101000 P
b000000000100110000 Q
b0000000000100110000 S
b0000011010011010 T
b0001000000011001 U
b0000000100000001 V
b0000011110011011 W
b0000000001101001 X
b00000011110011011 ^
b00000011100000011 _
b00001000000011001 `
b0011000000 a
b0001011100000001 c
b00000100000101101010110110 d
1h
b0001011100000001 i
b0001011010110011 l
b0001011100000001 m
b00001011100000001 p
b00001011100000001 q
#74000
0h
#75000
b0000011111010101 $
b00000000000000000000000000001101 &
r3.267256359733599 '
r0.125333233564108 +
b00000000011101 5
b00000000100110 7
b00000000100110 9
b1111001000010000 ;
b1111111100100001 <
b0001010011100110 =
1>
1?
1@
b10001010011100110 A
b11111001000010000 B
b0000011000101011 C
b0000010000010110 F
b0000100000010100 I
b00000001001100 J
b000000010011000000 K
b000000010011100000 L
b0000000010011100000 N
b00000000010011 O
b000000000100110000 P
b000000000100111000 Q
b0000000000100111000 S
b0000011110011011 T
b0000111000101010 U
b0000000011100010 V
b0000100001111101 W
b0000000001111001 X
b00000100001111101 ^
b00000100000010100 _
b00000111000101010 `
b0011001010 a
b0000011111010101 c
b00000001011101111111000000 d
1h
b0000011111010101 i
b0001010111000101 l
b0000011111010101 m
b00000011111010101 p
b00000011111010101 q
#76000
0h
#77000
b1111100000101011 $
b00000000000000000000000000001110 &
r3.518583772020799 '
r-0.1253332335645167 +
b00000000011110 5
b00000000100111 7
b00000000100111 9
b1110010001000000 ;
b1111111001000100 <
b0001001000101111 =
0?
b10001001000101111 A
b01110010001000000 B
b0000010000010110 C
b0000000101110111 F
b0000100100000100 I
b00000001001110 J
b000000010011100000 K
b000000010100000000 L
b0000000010100000000 N
b000000000100111000 P
b000000000101000000 Q
b0000000000101000000 S
b0000100001111101 T
b0000101101101110 U
b0000000010110110 V
b0000100100110011 W
b0000000010000111 X
b00000100100110011 ^
b00000100100000100 _
b00000101101101110 `
b0011010100 a
b11111110011101000111101110 d
1h
b1111100000101011 i
b0001001111101011 l
b1111100000101011 m
b01111100000101011 p
b01111100000101011 q
#78000
0h
#79000
b1110100011111111 $
b00000000000000000000000000001111 &
r3.769911184307999 '
r-0.3681245526848922 +
b00000000011111 5
b00000000101000 7
b00000000101000 9
b1101011111000011 ;
b1111110101111100 <
b0000111010111000 =
b10000111010111000 A
b01101011111000011 B
b0000000101110111 C
b1111111001110100 F
b0000100111000110 I
b00000001010000 J
b000000010100000000 K
b000000010100100000 L
b0000000010100100000 N
b00000000010100 O
b000000000101000000 P
b000000000101001000 Q
b0000000000101001000 S
b0000100100110011 T
b0000100000001001 U
b0000000010000000 V
b0000100110110011 W
b0000000010010011 X
b00000100110110011 ^
b00000100111000110 _
b00000100000001001 `
b0011011110 a
b0001011100000001 c
b11111011001111001100101100 d
1h
b1110100011111111 i
b0001000100111100 l
b1110100011111111 m
b01110100011111111 p
b01110100011111111 q
#80000
0h
