.github/outputs/wave.vcd
$version Generated by VerilatedVcd $end
$timescale 1ps $end
 $scope module TOP $end
  $scope module tb $end
   $var wire 32 G! CLK_PERIOD [31:0] $end
   $var wire 32 H! CLK_FREQ_HZ [31:0] $end
   $var wire 32 I! AUDIO_SAMPLE_RATE [31:0] $end
   $var wire 32 J! SAMPLES_PER_TONE [31:0] $end
   $var wire 32 K! SINE_AMPLITUDE [31:0] $end
   $var wire 32 K! SAW_AMPLITUDE [31:0] $end
   $var wire 32 G! SILENCE_SAMPLES [31:0] $end
   $var wire 32 L! SAMPLE_DIV [31:0] $end
   $var wire 32 M! SINE_FREQ_HZ [31:0] $end
   $var wire 32 N! SAW_FREQ_HZ [31:0] $end
   $var wire 1 :! clk $end
   $var wire 1 # reset $end
   $var wire 16 $ audio_in [15:0] $end
   $var wire 10 % SW [9:0] $end
   $var wire 16 j audio_out [15:0] $end
   $var real 64 & sum_in $end
   $var real 64 ( sum_out $end
   $var real 64 * sum_sq_in $end
   $var real 64 , sum_sq_out $end
   $var wire 32 . count_samples [31:0] $end
   $var wire 16 / min_in [15:0] $end
   $var wire 16 0 max_in [15:0] $end
   $var wire 16 1 min_out [15:0] $end
   $var wire 16 2 max_out [15:0] $end
   $var wire 32 k sample_cnt [31:0] $end
   $var wire 1 l sample_tick $end
   $var real 64 3 print_stats__Vstatic__avg_in $end
   $var real 64 5 print_stats__Vstatic__avg_out $end
   $var real 64 7 print_stats__Vstatic__rms_in $end
   $var real 64 9 print_stats__Vstatic__rms_out $end
   $var real 64 ; print_stats__Vstatic__gain_db $end
   $var wire 32 = play_sine_tone_nowarmup__Vstatic__i [31:0] $end
   $var real 64 > play_sine_tone_nowarmup__Vstatic__phase $end
   $var real 64 @ play_sine_tone_nowarmup__Vstatic__phase_inc $end
   $var real 64 B play_sine_tone_nowarmup__Vstatic__s $end
   $var wire 32 D play_sine_tone__Vstatic__i [31:0] $end
   $var real 64 E play_sine_tone__Vstatic__phase $end
   $var real 64 G play_sine_tone__Vstatic__phase_inc $end
   $var real 64 I play_sine_tone__Vstatic__s $end
   $var wire 32 K play_saw_tone__Vstatic__i [31:0] $end
   $var real 64 L play_saw_tone__Vstatic__phase $end
   $var real 64 N play_saw_tone__Vstatic__phase_inc $end
   $var real 64 P play_saw_tone__Vstatic__v $end
   $scope module dut $end
    $var wire 1 :! clk $end
    $var wire 1 # reset $end
    $var wire 16 $ audio_in [15:0] $end
    $var wire 10 % SW [9:0] $end
    $var wire 16 j audio_out [15:0] $end
    $var wire 3 R effect_select [2:0] $end
    $var wire 16 ;! noise_gate_out [15:0] $end
    $var wire 16 o high_pitch_out [15:0] $end
    $var wire 16 p low_pitch_out [15:0] $end
    $var wire 16 <! reverb_out [15:0] $end
    $var wire 16 q muffled_out [15:0] $end
    $scope module hp_inst $end
     $var wire 1 :! clk $end
     $var wire 1 # reset $end
     $var wire 16 $ audio_in [15:0] $end
     $var wire 16 o audio_out [15:0] $end
     $var wire 14 U s0 [13:0] $end
     $var wire 14 r s1 [13:0] $end
     $var wire 18 s s2 [17:0] $end
     $var wire 18 t s3 [17:0] $end
     $var wire 1 V unused_counter_ovf $end
     $var wire 16 =! unused_ram_1d [15:0] $end
     $var wire 1 u unused_add_co $end
     $scope module DIG_Add_i2 $end
      $var wire 32 O! Bits [31:0] $end
      $var wire 18 s a [17:0] $end
      $var wire 18 P! b [17:0] $end
      $var wire 1 Q! c_i $end
      $var wire 18 t s [17:0] $end
      $var wire 1 u c_o $end
      $var wire 19 v temp [18:0] $end
     $upscope $end
     $scope module DIG_Counter_Nbit_i0 $end
      $var wire 32 R! Bits [31:0] $end
      $var wire 14 U out [13:0] $end
      $var wire 1 V ovf $end
      $var wire 1 :! C $end
      $var wire 1 S! en $end
      $var wire 1 # clr $end
      $var wire 14 U count [13:0] $end
     $upscope $end
     $scope module DIG_RAMDualAccess_i1 $end
      $var wire 32 T! Bits [31:0] $end
      $var wire 32 R! AddrBits [31:0] $end
      $var wire 1 :! C $end
      $var wire 1 S! ld $end
      $var wire 14 U 1A [13:0] $end
      $var wire 14 r 2A [13:0] $end
      $var wire 16 $ 1Din [15:0] $end
      $var wire 1 S! str $end
      $var wire 16 =! 1D [15:0] $end
      $var wire 16 o 2D [15:0] $end
     $upscope $end
     $scope module DIG_Register_BUS_i3 $end
      $var wire 32 O! Bits [31:0] $end
      $var wire 1 :! C $end
      $var wire 1 S! en $end
      $var wire 18 t D [17:0] $end
      $var wire 18 s Q [17:0] $end
      $var wire 18 s state [17:0] $end
     $upscope $end
    $upscope $end
    $scope module lp_inst $end
     $var wire 1 :! clk $end
     $var wire 1 # reset $end
     $var wire 16 $ audio_in [15:0] $end
     $var wire 16 p audio_out [15:0] $end
     $var wire 14 W s0 [13:0] $end
     $var wire 14 w s1 [13:0] $end
     $var wire 18 x s2 [17:0] $end
     $var wire 18 y s3 [17:0] $end
     $var wire 1 X unused_counter_ovf $end
     $var wire 16 >! unused_ram_1d [15:0] $end
     $var wire 1 z unused_add_co $end
     $scope module DIG_Add_i2 $end
      $var wire 32 O! Bits [31:0] $end
      $var wire 18 x a [17:0] $end
      $var wire 18 U! b [17:0] $end
      $var wire 1 Q! c_i $end
      $var wire 18 y s [17:0] $end
      $var wire 1 z c_o $end
      $var wire 19 { temp [18:0] $end
     $upscope $end
     $scope module DIG_Counter_Nbit_i0 $end
      $var wire 32 R! Bits [31:0] $end
      $var wire 14 W out [13:0] $end
      $var wire 1 X ovf $end
      $var wire 1 :! C $end
      $var wire 1 S! en $end
      $var wire 1 Q! clr $end
      $var wire 14 W count [13:0] $end
     $upscope $end
     $scope module DIG_RAMDualAccess_i1 $end
      $var wire 32 T! Bits [31:0] $end
      $var wire 32 R! AddrBits [31:0] $end
      $var wire 1 :! C $end
      $var wire 1 S! ld $end
      $var wire 14 W 1A [13:0] $end
      $var wire 14 w 2A [13:0] $end
      $var wire 16 $ 1Din [15:0] $end
      $var wire 1 S! str $end
      $var wire 16 >! 1D [15:0] $end
      $var wire 16 p 2D [15:0] $end
     $upscope $end
     $scope module DIG_Register_BUS_i3 $end
      $var wire 32 O! Bits [31:0] $end
      $var wire 1 :! C $end
      $var wire 1 S! en $end
      $var wire 18 y D [17:0] $end
      $var wire 18 x Q [17:0] $end
      $var wire 18 x state [17:0] $end
     $upscope $end
    $upscope $end
    $scope module muf_inst $end
     $var wire 16 $ audio_in [15:0] $end
     $var wire 1 :! clk $end
     $var wire 1 # reset $end
     $var wire 16 q audio_out [15:0] $end
     $var wire 16 ?! y_1 [15:0] $end
     $var wire 16 [ s0 [15:0] $end
     $var wire 16 | y_2 [15:0] $end
     $var wire 16 } s1 [15:0] $end
     $var wire 16 \ s2 [15:0] $end
     $var wire 16 ] s3 [15:0] $end
     $var wire 16 ~ s4 [15:0] $end
     $var wire 16 !! s5 [15:0] $end
     $var wire 16 "! s6 [15:0] $end
     $var wire 1 ^ s7 $end
     $var wire 1 #! s8 $end
     $var wire 1 $! s9 $end
     $var wire 1 _ unused_sub0_co $end
     $var wire 1 %! unused_sub1_co $end
     $var wire 1 ` unused_add0_co $end
     $var wire 1 &! unused_add1_co $end
     $var wire 1 '! unused_add2_co $end
     $scope module DIG_Add_i1 $end
      $var wire 32 T! Bits [31:0] $end
      $var wire 16 \ a [15:0] $end
      $var wire 16 ?! b [15:0] $end
      $var wire 1 Q! c_i $end
      $var wire 16 ] s [15:0] $end
      $var wire 1 ` c_o $end
      $var wire 17 a temp [16:0] $end
     $upscope $end
     $scope module DIG_Add_i4 $end
      $var wire 32 T! Bits [31:0] $end
      $var wire 16 ~ a [15:0] $end
      $var wire 16 | b [15:0] $end
      $var wire 1 Q! c_i $end
      $var wire 16 !! s [15:0] $end
      $var wire 1 &! c_o $end
      $var wire 17 (! temp [16:0] $end
     $upscope $end
     $scope module DIG_Add_i6 $end
      $var wire 32 T! Bits [31:0] $end
      $var wire 16 "! a [15:0] $end
      $var wire 16 | b [15:0] $end
      $var wire 1 Q! c_i $end
      $var wire 16 q s [15:0] $end
      $var wire 1 '! c_o $end
      $var wire 17 )! temp [16:0] $end
     $upscope $end
     $scope module DIG_Register_BUS_i2 $end
      $var wire 32 T! Bits [31:0] $end
      $var wire 1 :! C $end
      $var wire 1 S! en $end
      $var wire 16 ] D [15:0] $end
      $var wire 16 ?! Q [15:0] $end
      $var wire 16 ?! state [15:0] $end
     $upscope $end
     $scope module DIG_Register_BUS_i5 $end
      $var wire 32 T! Bits [31:0] $end
      $var wire 1 :! C $end
      $var wire 1 S! en $end
      $var wire 16 !! D [15:0] $end
      $var wire 16 | Q [15:0] $end
      $var wire 16 | state [15:0] $end
     $upscope $end
     $scope module DIG_Sub_i0 $end
      $var wire 32 T! Bits [31:0] $end
      $var wire 16 $ a [15:0] $end
      $var wire 16 ?! b [15:0] $end
      $var wire 1 Q! c_i $end
      $var wire 16 [ s [15:0] $end
      $var wire 1 _ c_o $end
      $var wire 17 b temp [16:0] $end
     $upscope $end
     $scope module DIG_Sub_i3 $end
      $var wire 32 T! Bits [31:0] $end
      $var wire 16 ?! a [15:0] $end
      $var wire 16 | b [15:0] $end
      $var wire 1 Q! c_i $end
      $var wire 16 } s [15:0] $end
      $var wire 1 %! c_o $end
      $var wire 17 *! temp [16:0] $end
     $upscope $end
    $upscope $end
    $scope module ng_inst $end
     $var wire 1 # reset $end
     $var wire 1 :! clk $end
     $var wire 16 $ audio_in [15:0] $end
     $var wire 16 ;! audio_out [15:0] $end
     $var wire 1 S s0 $end
     $var wire 16 T s1 [15:0] $end
     $var wire 16 c s2 [15:0] $end
     $var wire 1 d s3 $end
     $var wire 1 e s4 $end
     $var wire 11 .! s5 [10:0] $end
     $var wire 11 @! s6 [10:0] $end
     $var wire 1 m s7 $end
     $var wire 11 n s8 [10:0] $end
     $var wire 11 /! s9 [10:0] $end
     $var wire 16 0! s10 [15:0] $end
     $var wire 32 A! s11 [31:0] $end
     $var wire 1 1! s12 $end
     $var wire 11 2! s13 [10:0] $end
     $var wire 1 3! s14 $end
     $var wire 1 f unused_comp_eq0 $end
     $var wire 1 g unused_comp_lt0 $end
     $var wire 1 h unused_comp_gt1 $end
     $var wire 1 i unused_comp_eq1 $end
     $var wire 1 4! unused_comp_eq2 $end
     $var wire 1 5! unused_comp_lt2 $end
     $var wire 1 6! unused_comp_gt3 $end
     $var wire 1 7! unused_comp_eq3 $end
     $var wire 1 8! unused_add_co $end
     $scope module CompUnsigned_i10 $end
      $var wire 32 V! Bits [31:0] $end
      $var wire 11 W! a [10:0] $end
      $var wire 11 2! b [10:0] $end
      $var wire 1 6! > $end
      $var wire 1 7! = $end
      $var wire 1 3! < $end
     $upscope $end
     $scope module CompUnsigned_i2 $end
      $var wire 32 T! Bits [31:0] $end
      $var wire 16 c a [15:0] $end
      $var wire 16 X! b [15:0] $end
      $var wire 1 d > $end
      $var wire 1 f = $end
      $var wire 1 g < $end
     $upscope $end
     $scope module CompUnsigned_i3 $end
      $var wire 32 T! Bits [31:0] $end
      $var wire 16 c a [15:0] $end
      $var wire 16 Y! b [15:0] $end
      $var wire 1 h > $end
      $var wire 1 i = $end
      $var wire 1 e < $end
     $upscope $end
     $scope module CompUnsigned_i8 $end
      $var wire 32 V! Bits [31:0] $end
      $var wire 11 Z! a [10:0] $end
      $var wire 11 /! b [10:0] $end
      $var wire 1 1! > $end
      $var wire 1 4! = $end
      $var wire 1 5! < $end
     $upscope $end
     $scope module DIG_Add_i6 $end
      $var wire 32 V! Bits [31:0] $end
      $var wire 11 @! a [10:0] $end
      $var wire 11 n b [10:0] $end
      $var wire 1 Q! c_i $end
      $var wire 11 /! s [10:0] $end
      $var wire 1 8! c_o $end
      $var wire 12 9! temp [11:0] $end
     $upscope $end
     $scope module DIG_BitExtender_i7 $end
      $var wire 32 V! inputBits [31:0] $end
      $var wire 32 T! outputBits [31:0] $end
      $var wire 11 /! in [10:0] $end
      $var wire 16 0! out [15:0] $end
     $upscope $end
     $scope module DIG_Mul_unsigned_i4 $end
      $var wire 32 T! Bits [31:0] $end
      $var wire 16 0! a [15:0] $end
      $var wire 16 c b [15:0] $end
      $var wire 32 A! mul [31:0] $end
     $upscope $end
     $scope module DIG_Neg_i0 $end
      $var wire 32 T! Bits [31:0] $end
      $var wire 16 $ in [15:0] $end
      $var wire 16 T out [15:0] $end
     $upscope $end
     $scope module DIG_Register_BUS_i12 $end
      $var wire 32 V! Bits [31:0] $end
      $var wire 1 :! C $end
      $var wire 1 S! en $end
      $var wire 11 .! D [10:0] $end
      $var wire 11 @! Q [10:0] $end
      $var wire 11 @! state [10:0] $end
     $upscope $end
     $scope module Mux_2x1_NBits_i1 $end
      $var wire 32 T! Bits [31:0] $end
      $var wire 1 S sel [0:0] $end
      $var wire 16 $ in_0 [15:0] $end
      $var wire 16 T in_1 [15:0] $end
      $var wire 16 c out [15:0] $end
     $upscope $end
     $scope module Mux_2x1_NBits_i11 $end
      $var wire 32 V! Bits [31:0] $end
      $var wire 1 3! sel [0:0] $end
      $var wire 11 W! in_0 [10:0] $end
      $var wire 11 2! in_1 [10:0] $end
      $var wire 11 .! out [10:0] $end
     $upscope $end
     $scope module Mux_2x1_NBits_i5 $end
      $var wire 32 V! Bits [31:0] $end
      $var wire 1 m sel [0:0] $end
      $var wire 11 [! in_0 [10:0] $end
      $var wire 11 \! in_1 [10:0] $end
      $var wire 11 n out [10:0] $end
     $upscope $end
     $scope module Mux_2x1_NBits_i9 $end
      $var wire 32 V! Bits [31:0] $end
      $var wire 1 1! sel [0:0] $end
      $var wire 11 Z! in_0 [10:0] $end
      $var wire 11 /! in_1 [10:0] $end
      $var wire 11 2! out [10:0] $end
     $upscope $end
    $upscope $end
    $scope module rev_inst $end
     $var wire 1 :! clk $end
     $var wire 1 # reset $end
     $var wire 16 $ audio_in [15:0] $end
     $var wire 16 <! audio_out [15:0] $end
     $var wire 14 Y s0 [13:0] $end
     $var wire 16 B! s1 [15:0] $end
     $var wire 16 +! s2 [15:0] $end
     $var wire 16 ,! s3 [15:0] $end
     $var wire 1 -! s4 $end
     $var wire 1 Z unused_counter_ovf $end
     $var wire 1 C! unused_add0_co $end
     $var wire 1 D! unused_add1_co $end
     $scope module DIG_Add_i2 $end
      $var wire 32 T! Bits [31:0] $end
      $var wire 16 $ a [15:0] $end
      $var wire 16 ,! b [15:0] $end
      $var wire 1 Q! c_i $end
      $var wire 16 B! s [15:0] $end
      $var wire 1 C! c_o $end
      $var wire 17 E! temp [16:0] $end
     $upscope $end
     $scope module DIG_Add_i3 $end
      $var wire 32 T! Bits [31:0] $end
      $var wire 16 $ a [15:0] $end
      $var wire 16 +! b [15:0] $end
      $var wire 1 Q! c_i $end
      $var wire 16 <! s [15:0] $end
      $var wire 1 D! c_o $end
      $var wire 17 F! temp [16:0] $end
     $upscope $end
     $scope module DIG_Counter_Nbit_i0 $end
      $var wire 32 R! Bits [31:0] $end
      $var wire 14 Y out [13:0] $end
      $var wire 1 Z ovf $end
      $var wire 1 :! C $end
      $var wire 1 S! en $end
      $var wire 1 Q! clr $end
      $var wire 14 Y count [13:0] $end
     $upscope $end
     $scope module DIG_RAMDualPort_i1 $end
      $var wire 32 T! Bits [31:0] $end
      $var wire 32 R! AddrBits [31:0] $end
      $var wire 14 Y A [13:0] $end
      $var wire 16 B! Din [15:0] $end
      $var wire 1 S! str $end
      $var wire 1 :! C $end
      $var wire 1 S! ld $end
      $var wire 16 +! D [15:0] $end
     $upscope $end
    $upscope $end
   $upscope $end
  $upscope $end
 $upscope $end
$enddefinitions $end


#0
1#
b0000000000000000 $
b0000000000 %
r0 &
r0 (
r0 *
r0 ,
b00000000000000000000000000000000 .
b0000000000000000 /
b0000000000000000 0
b0000000000000000 1
b0000000000000000 2
r0 3
r0 5
r0 7
r0 9
r0 ;
b00000000000000000000000000000000 =
r0 >
r0 @
r0 B
b00000000000000000000000000000000 D
r0 E
r0 G
r0 I
b00000000000000000000000000000000 K
r0 L
r0 N
r0 P
b000 R
0S
b0000000000000000 T
b00000000000000 U
0V
b00000000000000 W
0X
b00000000000000 Y
0Z
b0000000000000000 [
b0000000000000000 \
b0000000000000000 ]
0^
0_
0`
b00000000000000000 a
b00000000000000000 b
b0000000000000000 c
0d
1e
0f
1g
0h
0i
b0000000000000000 j
b00000000000000000000000000000000 k
0l
0m
b00000001010 n
b0000000000000000 o
b0000000000000000 p
b0000000000000000 q
b00000000000000 r
b000000000000000000 s
b000000000000100000 t
0u
b0000000000000100000 v
b00000000000000 w
b000000000000000000 x
b000000000000001000 y
0z
b0000000000000001000 {
b0000000000000000 |
b0000000000000000 }
b0000000000000000 ~
b0000000000000000 !!
b0000000000000000 "!
0#!
0$!
0%!
0&!
0'!
b00000000000000000 (!
b00000000000000000 )!
b00000000000000000 *!
b0000000000000000 +!
b0000000000000000 ,!
0-!
b00001100110 .!
b00000001010 /!
b0000000000001010 0!
11!
b00000001010 2!
03!
04!
05!
16!
07!
08!
b000000001010 9!
0:!
b0000000000000000 ;!
b0000000000000000 <!
b0000000000000000 =!
b0000000000000000 >!
b0000000000000000 ?!
b00000000000 @!
b00000000000000000000000000000000 A!
b0000000000000000 B!
0C!
0D!
b00000000000000000 E!
b00000000000000000 F!
b00000000000000000000000000010100 G!
b00000010111110101111000010000000 H!
b00000000000000001011101110000000 I!
b00000000000000000000000001100100 J!
b00000000000000000010011100010000 K!
b00000000000000000000000000000001 L!
b00000000000000000000001111101000 M!
b00000000000000000000000111110100 N!
b00000000000000000000000000010010 O!
b000000000000100000 P!
0Q!
b00000000000000000000000000001110 R!
1S!
b00000000000000000000000000010000 T!
b000000000000001000 U!
b00000000000000000000000000001011 V!
b00001100110 W!
b0000001111101000 X!
b0000000111110100 Y!
b10000000000 Z!
b00000001010 [!
b11111110110 \!
#10000
b00000000000001 W
b00000000000001 Y
b00000000000010 r
b000000000000100000 s
b000000000001000000 t
b0000000000001000000 v
b000000000000001000 x
b000000000000010000 y
b0000000000000010000 {
b00001110000 .!
b00001110000 /!
b0000000001110000 0!
b00001110000 2!
13!
06!
b000001110000 9!
1:!
b00001100110 @!
#20000
0:!
#30000
b00000000000010 W
b00000000000010 Y
b00000000000100 r
b000000000001000000 s
b000000000001100000 t
b0000000000001100000 v
b00000000000001 w
b000000000000010000 x
b000000000000011000 y
b0000000000000011000 {
b00001111010 .!
b00001111010 /!
b0000000001111010 0!
b00001111010 2!
b000001111010 9!
1:!
b00001110000 @!
#40000
0:!
#50000
b00000000000011 W
b00000000000011 Y
b00000000000110 r
b000000000001100000 s
b000000000010000000 t
b0000000000010000000 v
b000000000000011000 x
b000000000000100000 y
b0000000000000100000 {
b00010000100 .!
b00010000100 /!
b0000000010000100 0!
b00010000100 2!
b000010000100 9!
1:!
b00001111010 @!
#60000
0:!
#70000
b00000000000100 W
b00000000000100 Y
b00000000001000 r
b000000000010000000 s
b000000000010100000 t
b0000000000010100000 v
b00000000000010 w
b000000000000100000 x
b000000000000101000 y
b0000000000000101000 {
b00010001110 .!
b00010001110 /!
b0000000010001110 0!
b00010001110 2!
b000010001110 9!
1:!
b00010000100 @!
#80000
0:!
#90000
b00000000000101 W
b00000000000101 Y
b00000000001010 r
b000000000010100000 s
b000000000011000000 t
b0000000000011000000 v
b000000000000101000 x
b000000000000110000 y
b0000000000000110000 {
b00010011000 .!
b00010011000 /!
b0000000010011000 0!
b00010011000 2!
b000010011000 9!
1:!
b00010001110 @!
#100000
0:!
#110000
b00000000000110 W
b00000000000110 Y
b00000000001100 r
b000000000011000000 s
b000000000011100000 t
b0000000000011100000 v
b00000000000011 w
b000000000000110000 x
b000000000000111000 y
b0000000000000111000 {
b00010100010 .!
b00010100010 /!
b0000000010100010 0!
b00010100010 2!
b000010100010 9!
1:!
b00010011000 @!
#120000
0:!
#130000
b00000000000111 W
b00000000000111 Y
b00000000001110 r
b000000000011100000 s
b000000000100000000 t
b0000000000100000000 v
b000000000000111000 x
b000000000001000000 y
b0000000000001000000 {
b00010101100 .!
b00010101100 /!
b0000000010101100 0!
b00010101100 2!
b000010101100 9!
1:!
b00010100010 @!
#140000
0:!
#150000
b00000000001000 W
b00000000001000 Y
b00000000010000 r
b000000000100000000 s
b000000000100100000 t
b0000000000100100000 v
b00000000000100 w
b000000000001000000 x
b000000000001001000 y
b0000000000001001000 {
b00010110110 .!
b00010110110 /!
b0000000010110110 0!
b00010110110 2!
b000010110110 9!
1:!
b00010101100 @!
#160000
0:!
#170000
b00000000001001 W
b00000000001001 Y
b00000000010010 r
b000000000100100000 s
b000000000101000000 t
b0000000000101000000 v
b000000000001001000 x
b000000000001010000 y
b0000000000001010000 {
b00011000000 .!
b00011000000 /!
b0000000011000000 0!
b00011000000 2!
b000011000000 9!
1:!
b00010110110 @!
#180000
0:!
#190000
0#
b00000000000001 U
b00000000001010 W
b00000000001010 Y
1l
b00000000010100 r
b000000000101000000 s
b000000000101100000 t
b0000000000101100000 v
b00000000000101 w
b000000000001010000 x
b000000000001011000 y
b0000000000001011000 {
b00011001010 .!
b00011001010 /!
b0000000011001010 0!
b00011001010 2!
b000011001010 9!
1:!
b00011000000 @!
#200000
0:!
#210000
b00000000000010 U
b00000000001011 W
b00000000001011 Y
b00000000010110 r
b000000000101100000 s
b000000000110000000 t
b0000000000110000000 v
b000000000001011000 x
b000000000001100000 y
b0000000000001100000 {
b00011010100 .!
b00011010100 /!
b0000000011010100 0!
b00011010100 2!
b000011010100 9!
1:!
b00011001010 @!
#220000
0:!
#230000
b00000000000011 U
b00000000001100 W
b00000000001100 Y
b00000000011000 r
b000000000110000000 s
b000000000110100000 t
b0000000000110100000 v
b00000000000110 w
b000000000001100000 x
b000000000001101000 y
b0000000000001101000 {
b00011011110 .!
b00011011110 /!
b0000000011011110 0!
b00011011110 2!
b000011011110 9!
1:!
b00011010100 @!
#240000
0:!
#250000
b00000000000100 U
b00000000001101 W
b00000000001101 Y
b00000000011010 r
b000000000110100000 s
b000000000111000000 t
b0000000000111000000 v
b000000000001101000 x
b000000000001110000 y
b0000000000001110000 {
b00011101000 .!
b00011101000 /!
b0000000011101000 0!
b00011101000 2!
b000011101000 9!
1:!
b00011011110 @!
#260000
0:!
#270000
b00000000000101 U
b00000000001110 W
b00000000001110 Y
b00000000011100 r
b000000000111000000 s
b000000000111100000 t
b0000000000111100000 v
b00000000000111 w
b000000000001110000 x
b000000000001111000 y
b0000000000001111000 {
b00011110010 .!
b00011110010 /!
b0000000011110010 0!
b00011110010 2!
b000011110010 9!
1:!
b00011101000 @!
#280000
0:!
#290000
b00000000000110 U
b00000000001111 W
b00000000001111 Y
b00000000011110 r
b000000000111100000 s
b000000001000000000 t
b0000000001000000000 v
b000000000001111000 x
b000000000010000000 y
b0000000000010000000 {
b00011111100 .!
b00011111100 /!
b0000000011111100 0!
b00011111100 2!
b000011111100 9!
1:!
b00011110010 @!
#300000
0:!
#310000
b00000000000111 U
b00000000010000 W
b00000000010000 Y
b00000000100000 r
b000000001000000000 s
b000000001000100000 t
b0000000001000100000 v
b00000000001000 w
b000000000010000000 x
b000000000010001000 y
b0000000000010001000 {
b00100000110 .!
b00100000110 /!
b0000000100000110 0!
b00100000110 2!
b000100000110 9!
1:!
b00011111100 @!
#320000
0:!
#330000
b00000000001000 U
b00000000010001 W
b00000000010001 Y
b00000000100010 r
b000000001000100000 s
b000000001001000000 t
b0000000001001000000 v
b000000000010001000 x
b000000000010010000 y
b0000000000010010000 {
b00100010000 .!
b00100010000 /!
b0000000100010000 0!
b00100010000 2!
b000100010000 9!
1:!
b00100000110 @!
#340000
0:!
#350000
b00000000001001 U
b00000000010010 W
b00000000010010 Y
b00000000100100 r
b000000001001000000 s
b000000001001100000 t
b0000000001001100000 v
b00000000001001 w
b000000000010010000 x
b000000000010011000 y
b0000000000010011000 {
b00100011010 .!
b00100011010 /!
b0000000100011010 0!
b00100011010 2!
b000100011010 9!
1:!
b00100010000 @!
#360000
0:!
#370000
b00000000001010 U
b00000000010011 W
b00000000010011 Y
b00000000100110 r
b000000001001100000 s
b000000001010000000 t
b0000000001010000000 v
b000000000010011000 x
b000000000010100000 y
b0000000000010100000 {
b00100100100 .!
b00100100100 /!
b0000000100100100 0!
b00100100100 2!
b000100100100 9!
1:!
b00100011010 @!
#380000
0:!
#390000
b00000000001011 U
b00000000010100 W
b00000000010100 Y
b00000000101000 r
b000000001010000000 s
b000000001010100000 t
b0000000001010100000 v
b00000000001010 w
b000000000010100000 x
b000000000010101000 y
b0000000000010101000 {
b00100101110 .!
b00100101110 /!
b0000000100101110 0!
b00100101110 2!
b000100101110 9!
1:!
b00100100100 @!
#400000
0:!
#410000
b00000000001100 U
b00000000010101 W
b00000000010101 Y
b00000000101010 r
b000000001010100000 s
b000000001011000000 t
b0000000001011000000 v
b000000000010101000 x
b000000000010110000 y
b0000000000010110000 {
b00100111000 .!
b00100111000 /!
b0000000100111000 0!
b00100111000 2!
b000100111000 9!
1:!
b00100101110 @!
#420000
0:!
#430000
b00000000001101 U
b00000000010110 W
b00000000010110 Y
b00000000101100 r
b000000001011000000 s
b000000001011100000 t
b0000000001011100000 v
b00000000001011 w
b000000000010110000 x
b000000000010111000 y
b0000000000010111000 {
b00101000010 .!
b00101000010 /!
b0000000101000010 0!
b00101000010 2!
b000101000010 9!
1:!
b00100111000 @!
#440000
0:!
#450000
b00000000001110 U
b00000000010111 W
b00000000010111 Y
b00000000101110 r
b000000001011100000 s
b000000001100000000 t
b0000000001100000000 v
b000000000010111000 x
b000000000011000000 y
b0000000000011000000 {
b00101001100 .!
b00101001100 /!
b0000000101001100 0!
b00101001100 2!
b000101001100 9!
1:!
b00101000010 @!
#460000
0:!
#470000
b00000000001111 U
b00000000011000 W
b00000000011000 Y
b00000000110000 r
b000000001100000000 s
b000000001100100000 t
b0000000001100100000 v
b00000000001100 w
b000000000011000000 x
b000000000011001000 y
b0000000000011001000 {
b00101010110 .!
b00101010110 /!
b0000000101010110 0!
b00101010110 2!
b000101010110 9!
1:!
b00101001100 @!
#480000
0:!
#490000
b0111111111111111 /
b1000000000000000 0
b0111111111111111 1
b1000000000000000 2
r0.1308996938995833 G
b00000000010000 U
b00000000011001 W
b00000000011001 Y
b00000000110010 r
b000000001100100000 s
b000000001101000000 t
b0000000001101000000 v
b000000000011001000 x
b000000000011010000 y
b0000000000011010000 {
b00101100000 .!
b00101100000 /!
b0000000101100000 0!
b00101100000 2!
b000101100000 9!
1:!
b00101010110 @!
#500000
0:!
#510000
b00000000010001 U
b00000000011010 W
b00000000011010 Y
b00000000110100 r
b000000001101000000 s
b000000001101100000 t
b0000000001101100000 v
b00000000001101 w
b000000000011010000 x
b000000000011011000 y
b0000000000011011000 {
b00101101010 .!
b00101101010 /!
b0000000101101010 0!
b00101101010 2!
b000101101010 9!
1:!
b00101100000 @!
#520000
0:!
#530000
b00000000000000000000000000000001 .
b0000000000000000 /
b0000000000000000 0
b0000000000000000 1
b0000000000000000 2
b00000000000000000000000000000001 D
r0.1308996938995833 E
b00000000010010 U
b00000000011011 W
b00000000011011 Y
b00000000110110 r
b000000001101100000 s
b000000001110000000 t
b0000000001110000000 v
b000000000011011000 x
b000000000011100000 y
b0000000000011100000 {
b00101110100 .!
b00101110100 /!
b0000000101110100 0!
b00101110100 2!
b000101110100 9!
1:!
b00101101010 @!
#540000
0:!
#550000
b0000010100011001 $
r0.1305261922200601 I
b1111101011100111 T
b00000000010011 U
b00000000011100 W
b00000000011100 Y
b0000010011001000 [
b0000000001001100 \
b0000000010011101 ]
b00000000010011101 a
b00000010011001000 b
b0000010100011001 c
1d
0e
0g
1h
b0000000111011010 j
1m
b11111110110 n
b00000000111000 r
b000000001110000000 s
b000000001110100000 t
b0000000001110100000 v
b00000000001110 w
b000000000011100000 x
b000000000011101000 y
b0000000000011101000 {
b0000000001010001 }
b0000000000000101 ~
b0000000000000101 !!
b00000000000000101 (!
b00000000001010001 *!
b00101101010 .!
b00101101010 /!
b0000000101101010 0!
b00101101010 2!
18!
b100101101010 9!
1:!
b0000000111001101 ;!
b0000010100011001 <!
b0000000001010001 ?!
b00101110100 @!
b00000000000001110011010101011010 A!
b0000010100011001 B!
b00000010100011001 E!
b00000010100011001 F!
#560000
0:!
#570000
r1305 &
r474 (
r1703025 *
r224676 ,
b00000000000000000000000000000010 .
b0000010100011001 0
b0000000111011010 2
b00000000000000000000000000000010 D
r0.2617993877991667 E
b00000000010100 U
b00000000011101 W
b00000000011101 Y
b0000010001111100 [
b0000000001000111 \
b0000000011100100 ]
b00000000011100100 a
b00000010001111100 b
b0000000111001101 j
b0000000000000101 q
b00000000111010 r
b000000001110100000 s
b000000001111000000 t
b0000000001111000000 v
b000000000011101000 x
b000000000011110000 y
b0000000000011110000 {
b0000000000000101 |
b0000000010011000 }
b0000000000001001 ~
b0000000000001110 !!
b00000000000001110 (!
b00000000000000101 )!
b00000000010011000 *!
b00101100000 .!
b00101100000 /!
b0000000101100000 0!
b00101100000 2!
b100101100000 9!
1:!
b0000000111000000 ;!
b0000000010011101 ?!
b00101101010 @!
b00000000000001110000001001100000 A!
#580000
0:!
