.github/outputs/wave.vcd
$version Generated by VerilatedVcd $end
$timescale 1ps $end
 $scope module TOP $end
  $scope module tb $end
   $var wire 32 R! CLK_PERIOD [31:0] $end
   $var wire 32 S! CLK_FREQ_HZ [31:0] $end
   $var wire 32 T! AUDIO_SAMPLE_RATE [31:0] $end
   $var wire 32 U! SAMPLES_PER_TONE [31:0] $end
   $var wire 32 V! SINE_AMPLITUDE [31:0] $end
   $var wire 32 V! SAW_AMPLITUDE [31:0] $end
   $var wire 32 R! SILENCE_SAMPLES [31:0] $end
   $var wire 32 W! SAMPLE_DIV [31:0] $end
   $var wire 32 X! SINE_FREQ_HZ [31:0] $end
   $var wire 32 Y! SAW_FREQ_HZ [31:0] $end
   $var wire 1 7! clk $end
   $var wire 1 # reset $end
   $var wire 16 $ audio_in [15:0] $end
   $var wire 10 % SW [9:0] $end
   $var wire 16 f audio_out [15:0] $end
   $var real 64 & sum_in $end
   $var real 64 ( sum_out $end
   $var real 64 * sum_sq_in $end
   $var real 64 , sum_sq_out $end
   $var wire 32 . count_samples [31:0] $end
   $var wire 16 / min_in [15:0] $end
   $var wire 16 0 max_in [15:0] $end
   $var wire 16 1 min_out [15:0] $end
   $var wire 16 2 max_out [15:0] $end
   $var wire 32 g sample_cnt [31:0] $end
   $var wire 1 h sample_tick $end
   $var real 64 3 print_stats__Vstatic__avg_in $end
   $var real 64 5 print_stats__Vstatic__avg_out $end
   $var real 64 7 print_stats__Vstatic__rms_in $end
   $var real 64 9 print_stats__Vstatic__rms_out $end
   $var real 64 ; print_stats__Vstatic__gain_db $end
   $var wire 32 = play_sine_tone_nowarmup__Vstatic__i [31:0] $end
   $var real 64 > play_sine_tone_nowarmup__Vstatic__phase $end
   $var real 64 @ play_sine_tone_nowarmup__Vstatic__phase_inc $end
   $var real 64 B play_sine_tone_nowarmup__Vstatic__s $end
   $var wire 32 D play_sine_tone__Vstatic__i [31:0] $end
   $var real 64 E play_sine_tone__Vstatic__phase $end
   $var real 64 G play_sine_tone__Vstatic__phase_inc $end
   $var real 64 I play_sine_tone__Vstatic__s $end
   $var wire 32 K play_saw_tone__Vstatic__i [31:0] $end
   $var real 64 L play_saw_tone__Vstatic__phase $end
   $var real 64 N play_saw_tone__Vstatic__phase_inc $end
   $var real 64 P play_saw_tone__Vstatic__v $end
   $scope module dut $end
    $var wire 1 7! clk $end
    $var wire 1 # reset $end
    $var wire 16 $ audio_in [15:0] $end
    $var wire 10 % SW [9:0] $end
    $var wire 16 f audio_out [15:0] $end
    $var wire 3 R effect_select [2:0] $end
    $var wire 16 8! noise_gate_out [15:0] $end
    $var wire 16 9! high_pitch_out [15:0] $end
    $var wire 16 :! low_pitch_out [15:0] $end
    $var wire 16 ;! reverb_out [15:0] $end
    $var wire 16 k muffled_out [15:0] $end
    $var wire 14 <! hp_ram_wr_addr [13:0] $end
    $var wire 16 $ hp_ram_wr_data [15:0] $end
    $var wire 1 Z! hp_ram_wr_en $end
    $var wire 14 l hp_ram_rd_addr [13:0] $end
    $var wire 16 9! hp_ram_rd_data [15:0] $end
    $var wire 14 =! lp_ram_wr_addr [13:0] $end
    $var wire 16 $ lp_ram_wr_data [15:0] $end
    $var wire 1 Z! lp_ram_wr_en $end
    $var wire 14 m lp_ram_rd_addr [13:0] $end
    $var wire 16 :! lp_ram_rd_data [15:0] $end
    $var wire 14 >! rev_ram_wr_addr [13:0] $end
    $var wire 16 ?! rev_ram_wr_data [15:0] $end
    $var wire 1 Z! rev_ram_wr_en $end
    $var wire 14 >! rev_ram_rd_addr [13:0] $end
    $var wire 16 @! rev_ram_rd_data [15:0] $end
    $var wire 1 U ram_we_a $end
    $var wire 14 V ram_addr_a [13:0] $end
    $var wire 16 A! ram_din_a [15:0] $end
    $var wire 14 B! ram_addr_rd [13:0] $end
    $var wire 8 C! ram_dout_byte [7:0] $end
    $var wire 8 '! ram_rd_lo [7:0] $end
    $var wire 8 (! ram_rd_hi [7:0] $end
    $var wire 16 )! ram_rd_data [15:0] $end
    $var wire 1 D! ram_phase $end
    $var wire 16 *! ram_din_latched [15:0] $end
    $var wire 1 D! clk_en $end
    $scope module hp_inst $end
     $var wire 1 7! clk $end
     $var wire 1 D! clk_en $end
     $var wire 1 # reset $end
     $var wire 16 $ audio_in [15:0] $end
     $var wire 16 9! audio_out [15:0] $end
     $var wire 14 <! ram_wr_addr [13:0] $end
     $var wire 16 $ ram_wr_data [15:0] $end
     $var wire 1 Z! ram_wr_en $end
     $var wire 14 l ram_rd_addr [13:0] $end
     $var wire 16 9! ram_rd_data [15:0] $end
     $var wire 14 <! s0 [13:0] $end
     $var wire 14 l s1 [13:0] $end
     $var wire 18 n s2 [17:0] $end
     $var wire 18 o s3 [17:0] $end
     $var wire 1 E! unused_counter_ovf $end
     $var wire 1 p unused_add_co $end
     $scope module DIG_Add_i2 $end
      $var wire 32 [! Bits [31:0] $end
      $var wire 18 n a [17:0] $end
      $var wire 18 \! b [17:0] $end
      $var wire 1 ]! c_i $end
      $var wire 18 o s [17:0] $end
      $var wire 1 p c_o $end
      $var wire 19 q temp [18:0] $end
     $upscope $end
     $scope module DIG_Counter_Nbit_i0 $end
      $var wire 32 ^! Bits [31:0] $end
      $var wire 14 <! out [13:0] $end
      $var wire 1 E! ovf $end
      $var wire 1 7! C $end
      $var wire 1 D! en $end
      $var wire 1 # clr $end
      $var wire 14 <! count [13:0] $end
     $upscope $end
     $scope module DIG_Register_BUS_i3 $end
      $var wire 32 [! Bits [31:0] $end
      $var wire 1 7! C $end
      $var wire 1 D! en $end
      $var wire 18 o D [17:0] $end
      $var wire 18 n Q [17:0] $end
      $var wire 18 n state [17:0] $end
     $upscope $end
    $upscope $end
    $scope module lp_inst $end
     $var wire 1 7! clk $end
     $var wire 1 D! clk_en $end
     $var wire 1 # reset $end
     $var wire 16 $ audio_in [15:0] $end
     $var wire 16 :! audio_out [15:0] $end
     $var wire 14 =! ram_wr_addr [13:0] $end
     $var wire 16 $ ram_wr_data [15:0] $end
     $var wire 1 Z! ram_wr_en $end
     $var wire 14 m ram_rd_addr [13:0] $end
     $var wire 16 :! ram_rd_data [15:0] $end
     $var wire 14 =! s0 [13:0] $end
     $var wire 14 m s1 [13:0] $end
     $var wire 18 r s2 [17:0] $end
     $var wire 18 s s3 [17:0] $end
     $var wire 1 F! unused_counter_ovf $end
     $var wire 1 t unused_add_co $end
     $scope module DIG_Add_i2 $end
      $var wire 32 [! Bits [31:0] $end
      $var wire 18 r a [17:0] $end
      $var wire 18 _! b [17:0] $end
      $var wire 1 ]! c_i $end
      $var wire 18 s s [17:0] $end
      $var wire 1 t c_o $end
      $var wire 19 u temp [18:0] $end
     $upscope $end
     $scope module DIG_Counter_Nbit_i0 $end
      $var wire 32 ^! Bits [31:0] $end
      $var wire 14 =! out [13:0] $end
      $var wire 1 F! ovf $end
      $var wire 1 7! C $end
      $var wire 1 D! en $end
      $var wire 1 ]! clr $end
      $var wire 14 =! count [13:0] $end
     $upscope $end
     $scope module DIG_Register_BUS_i3 $end
      $var wire 32 [! Bits [31:0] $end
      $var wire 1 7! C $end
      $var wire 1 D! en $end
      $var wire 18 s D [17:0] $end
      $var wire 18 r Q [17:0] $end
      $var wire 18 r state [17:0] $end
     $upscope $end
    $upscope $end
    $scope module muf_inst $end
     $var wire 16 $ audio_in [15:0] $end
     $var wire 1 7! clk $end
     $var wire 1 # reset $end
     $var wire 16 k audio_out [15:0] $end
     $var wire 16 v y_1 [15:0] $end
     $var wire 16 W s0 [15:0] $end
     $var wire 16 w y_2 [15:0] $end
     $var wire 16 x s1 [15:0] $end
     $var wire 16 X s2 [15:0] $end
     $var wire 16 Y s3 [15:0] $end
     $var wire 16 y s4 [15:0] $end
     $var wire 16 z s5 [15:0] $end
     $var wire 16 { s6 [15:0] $end
     $var wire 1 Z s7 $end
     $var wire 1 | s8 $end
     $var wire 1 } s9 $end
     $var wire 1 [ unused_sub0_co $end
     $var wire 1 ~ unused_sub1_co $end
     $var wire 1 \ unused_add0_co $end
     $var wire 1 !! unused_add1_co $end
     $var wire 1 "! unused_add2_co $end
     $scope module DIG_Add_i1 $end
      $var wire 32 `! Bits [31:0] $end
      $var wire 16 X a [15:0] $end
      $var wire 16 v b [15:0] $end
      $var wire 1 ]! c_i $end
      $var wire 16 Y s [15:0] $end
      $var wire 1 \ c_o $end
      $var wire 17 ] temp [16:0] $end
     $upscope $end
     $scope module DIG_Add_i4 $end
      $var wire 32 `! Bits [31:0] $end
      $var wire 16 y a [15:0] $end
      $var wire 16 w b [15:0] $end
      $var wire 1 ]! c_i $end
      $var wire 16 z s [15:0] $end
      $var wire 1 !! c_o $end
      $var wire 17 #! temp [16:0] $end
     $upscope $end
     $scope module DIG_Add_i6 $end
      $var wire 32 `! Bits [31:0] $end
      $var wire 16 { a [15:0] $end
      $var wire 16 w b [15:0] $end
      $var wire 1 ]! c_i $end
      $var wire 16 k s [15:0] $end
      $var wire 1 "! c_o $end
      $var wire 17 $! temp [16:0] $end
     $upscope $end
     $scope module DIG_Register_BUS_i2 $end
      $var wire 32 `! Bits [31:0] $end
      $var wire 1 7! C $end
      $var wire 1 Z! en $end
      $var wire 16 Y D [15:0] $end
      $var wire 16 v Q [15:0] $end
      $var wire 16 v state [15:0] $end
     $upscope $end
     $scope module DIG_Register_BUS_i5 $end
      $var wire 32 `! Bits [31:0] $end
      $var wire 1 7! C $end
      $var wire 1 Z! en $end
      $var wire 16 z D [15:0] $end
      $var wire 16 w Q [15:0] $end
      $var wire 16 w state [15:0] $end
     $upscope $end
     $scope module DIG_Sub_i0 $end
      $var wire 32 `! Bits [31:0] $end
      $var wire 16 $ a [15:0] $end
      $var wire 16 v b [15:0] $end
      $var wire 1 ]! c_i $end
      $var wire 16 W s [15:0] $end
      $var wire 1 [ c_o $end
      $var wire 17 ^ temp [16:0] $end
     $upscope $end
     $scope module DIG_Sub_i3 $end
      $var wire 32 `! Bits [31:0] $end
      $var wire 16 v a [15:0] $end
      $var wire 16 w b [15:0] $end
      $var wire 1 ]! c_i $end
      $var wire 16 x s [15:0] $end
      $var wire 1 ~ c_o $end
      $var wire 17 %! temp [16:0] $end
     $upscope $end
    $upscope $end
    $scope module ng_inst $end
     $var wire 1 # reset $end
     $var wire 1 7! clk $end
     $var wire 16 $ audio_in [15:0] $end
     $var wire 16 8! audio_out [15:0] $end
     $var wire 1 S s0 $end
     $var wire 16 T s1 [15:0] $end
     $var wire 16 _ s2 [15:0] $end
     $var wire 1 ` s3 $end
     $var wire 1 a s4 $end
     $var wire 11 +! s5 [10:0] $end
     $var wire 11 &! s6 [10:0] $end
     $var wire 1 i s7 $end
     $var wire 11 j s8 [10:0] $end
     $var wire 11 ,! s9 [10:0] $end
     $var wire 16 -! s10 [15:0] $end
     $var wire 32 G! s11 [31:0] $end
     $var wire 1 .! s12 $end
     $var wire 11 /! s13 [10:0] $end
     $var wire 1 0! s14 $end
     $var wire 1 b unused_comp_eq0 $end
     $var wire 1 c unused_comp_lt0 $end
     $var wire 1 d unused_comp_gt1 $end
     $var wire 1 e unused_comp_eq1 $end
     $var wire 1 1! unused_comp_eq2 $end
     $var wire 1 2! unused_comp_lt2 $end
     $var wire 1 3! unused_comp_gt3 $end
     $var wire 1 4! unused_comp_eq3 $end
     $var wire 1 5! unused_add_co $end
     $scope module CompUnsigned_i10 $end
      $var wire 32 a! Bits [31:0] $end
      $var wire 11 b! a [10:0] $end
      $var wire 11 /! b [10:0] $end
      $var wire 1 3! > $end
      $var wire 1 4! = $end
      $var wire 1 0! < $end
     $upscope $end
     $scope module CompUnsigned_i2 $end
      $var wire 32 `! Bits [31:0] $end
      $var wire 16 _ a [15:0] $end
      $var wire 16 c! b [15:0] $end
      $var wire 1 ` > $end
      $var wire 1 b = $end
      $var wire 1 c < $end
     $upscope $end
     $scope module CompUnsigned_i3 $end
      $var wire 32 `! Bits [31:0] $end
      $var wire 16 _ a [15:0] $end
      $var wire 16 d! b [15:0] $end
      $var wire 1 d > $end
      $var wire 1 e = $end
      $var wire 1 a < $end
     $upscope $end
     $scope module CompUnsigned_i8 $end
      $var wire 32 a! Bits [31:0] $end
      $var wire 11 e! a [10:0] $end
      $var wire 11 ,! b [10:0] $end
      $var wire 1 .! > $end
      $var wire 1 1! = $end
      $var wire 1 2! < $end
     $upscope $end
     $scope module DIG_Add_i6 $end
      $var wire 32 a! Bits [31:0] $end
      $var wire 11 &! a [10:0] $end
      $var wire 11 j b [10:0] $end
      $var wire 1 ]! c_i $end
      $var wire 11 ,! s [10:0] $end
      $var wire 1 5! c_o $end
      $var wire 12 6! temp [11:0] $end
     $upscope $end
     $scope module DIG_BitExtender_i7 $end
      $var wire 32 a! inputBits [31:0] $end
      $var wire 32 `! outputBits [31:0] $end
      $var wire 11 ,! in [10:0] $end
      $var wire 16 -! out [15:0] $end
     $upscope $end
     $scope module DIG_Mul_unsigned_i4 $end
      $var wire 32 `! Bits [31:0] $end
      $var wire 16 -! a [15:0] $end
      $var wire 16 _ b [15:0] $end
      $var wire 32 G! mul [31:0] $end
     $upscope $end
     $scope module DIG_Neg_i0 $end
      $var wire 32 `! Bits [31:0] $end
      $var wire 16 $ in [15:0] $end
      $var wire 16 T out [15:0] $end
     $upscope $end
     $scope module DIG_Register_BUS_i12 $end
      $var wire 32 a! Bits [31:0] $end
      $var wire 1 7! C $end
      $var wire 1 Z! en $end
      $var wire 11 +! D [10:0] $end
      $var wire 11 &! Q [10:0] $end
      $var wire 11 &! state [10:0] $end
     $upscope $end
     $scope module Mux_2x1_NBits_i1 $end
      $var wire 32 `! Bits [31:0] $end
      $var wire 1 S sel [0:0] $end
      $var wire 16 $ in_0 [15:0] $end
      $var wire 16 T in_1 [15:0] $end
      $var wire 16 _ out [15:0] $end
     $upscope $end
     $scope module Mux_2x1_NBits_i11 $end
      $var wire 32 a! Bits [31:0] $end
      $var wire 1 0! sel [0:0] $end
      $var wire 11 b! in_0 [10:0] $end
      $var wire 11 /! in_1 [10:0] $end
      $var wire 11 +! out [10:0] $end
     $upscope $end
     $scope module Mux_2x1_NBits_i5 $end
      $var wire 32 a! Bits [31:0] $end
      $var wire 1 i sel [0:0] $end
      $var wire 11 f! in_0 [10:0] $end
      $var wire 11 g! in_1 [10:0] $end
      $var wire 11 j out [10:0] $end
     $upscope $end
     $scope module Mux_2x1_NBits_i9 $end
      $var wire 32 a! Bits [31:0] $end
      $var wire 1 .! sel [0:0] $end
      $var wire 11 e! in_0 [10:0] $end
      $var wire 11 ,! in_1 [10:0] $end
      $var wire 11 /! out [10:0] $end
     $upscope $end
    $upscope $end
    $scope module rev_inst $end
     $var wire 1 7! clk $end
     $var wire 1 D! clk_en $end
     $var wire 1 # reset $end
     $var wire 16 $ audio_in [15:0] $end
     $var wire 16 ;! audio_out [15:0] $end
     $var wire 14 >! ram_wr_addr [13:0] $end
     $var wire 16 ?! ram_wr_data [15:0] $end
     $var wire 1 Z! ram_wr_en $end
     $var wire 14 >! ram_rd_addr [13:0] $end
     $var wire 16 @! ram_rd_data [15:0] $end
     $var wire 14 >! s0 [13:0] $end
     $var wire 16 ?! s1 [15:0] $end
     $var wire 16 @! s2 [15:0] $end
     $var wire 16 H! s3 [15:0] $end
     $var wire 1 I! s4 $end
     $var wire 1 J! unused_counter_ovf $end
     $var wire 1 K! unused_add0_co $end
     $var wire 1 L! unused_add1_co $end
     $scope module DIG_Add_i2 $end
      $var wire 32 `! Bits [31:0] $end
      $var wire 16 $ a [15:0] $end
      $var wire 16 H! b [15:0] $end
      $var wire 1 ]! c_i $end
      $var wire 16 ?! s [15:0] $end
      $var wire 1 K! c_o $end
      $var wire 17 M! temp [16:0] $end
     $upscope $end
     $scope module DIG_Add_i3 $end
      $var wire 32 `! Bits [31:0] $end
      $var wire 16 $ a [15:0] $end
      $var wire 16 @! b [15:0] $end
      $var wire 1 ]! c_i $end
      $var wire 16 ;! s [15:0] $end
      $var wire 1 L! c_o $end
      $var wire 17 N! temp [16:0] $end
     $upscope $end
     $scope module DIG_Counter_Nbit_i0 $end
      $var wire 32 ^! Bits [31:0] $end
      $var wire 14 >! out [13:0] $end
      $var wire 1 J! ovf $end
      $var wire 1 7! C $end
      $var wire 1 D! en $end
      $var wire 1 ]! clr $end
      $var wire 14 >! count [13:0] $end
     $upscope $end
    $upscope $end
    $scope module shared_ram $end
     $var wire 1 7! clk $end
     $var wire 1 U we $end
     $var wire 15 O! addr_wr [14:0] $end
     $var wire 8 P! din [7:0] $end
     $var wire 15 Q! addr_rd [14:0] $end
     $var wire 8 C! dout [7:0] $end
    $upscope $end
   $upscope $end
  $upscope $end
 $upscope $end
$enddefinitions $end


#0
1#
b0000000000000000 $
b0000000000 %
r0 &
r0 (
r0 *
r0 ,
b00000000000000000000000000000000 .
b0000000000000000 /
b0000000000000000 0
b0000000000000000 1
b0000000000000000 2
r0 3
r0 5
r0 7
r0 9
r0 ;
b00000000000000000000000000000000 =
r0 >
r0 @
r0 B
b00000000000000000000000000000000 D
r0 E
r0 G
r0 I
b00000000000000000000000000000000 K
r0 L
r0 N
r0 P
b000 R
0S
b0000000000000000 T
0U
b00000000000000 V
b0000000000000000 W
b0000000000000000 X
b0000000000000000 Y
0Z
0[
0\
b00000000000000000 ]
b00000000000000000 ^
b0000000000000000 _
0`
1a
0b
1c
0d
0e
b0000000000000000 f
b00000000000000000000000000000000 g
0h
0i
b00000001010 j
b0000000000000000 k
b00000000000000 l
b00000000000000 m
b000000000000000000 n
b000000000000100000 o
0p
b0000000000000100000 q
b000000000000000000 r
b000000000000001000 s
0t
b0000000000000001000 u
b0000000000000000 v
b0000000000000000 w
b0000000000000000 x
b0000000000000000 y
b0000000000000000 z
b0000000000000000 {
0|
0}
0~
0!!
0"!
b00000000000000000 #!
b00000000000000000 $!
b00000000000000000 %!
b00000000000 &!
b00000000 '!
b00000000 (!
b0000000000000000 )!
b0000000000000000 *!
b00001100110 +!
b00000001010 ,!
b0000000000001010 -!
1.!
b00000001010 /!
00!
01!
02!
13!
04!
05!
b000000001010 6!
07!
b0000000000000000 8!
b0000000000000000 9!
b0000000000000000 :!
b0000000000000000 ;!
b00000000000000 <!
b00000000000000 =!
b00000000000000 >!
b0000000000000000 ?!
b0000000000000000 @!
b0000000000000000 A!
b00000000000000 B!
b00000000 C!
0D!
0E!
0F!
b00000000000000000000000000000000 G!
b0000000000000000 H!
0I!
0J!
0K!
0L!
b00000000000000000 M!
b00000000000000000 N!
b000000000000000 O!
b00000000 P!
b000000000000000 Q!
b00000000000000000000000000010100 R!
b00000010111110101111000010000000 S!
b00000000000000001011101110000000 T!
b00000000000000000000000001100100 U!
b00000000000000000010011100010000 V!
b00000000000000000000000000000001 W!
b00000000000000000000001111101000 X!
b00000000000000000000000111110100 Y!
1Z!
b00000000000000000000000000010010 [!
b000000000000100000 \!
0]!
b00000000000000000000000000001110 ^!
b000000000000001000 _!
b00000000000000000000000000010000 `!
b00000000000000000000000000001011 a!
b00001100110 b!
b0000001111101000 c!
b0000000111110100 d!
b10000000000 e!
b00000001010 f!
b11111110110 g!
#10000
b00001100110 &!
b00001110000 +!
b00001110000 ,!
b0000000001110000 -!
b00001110000 /!
10!
03!
b000001110000 6!
17!
#20000
07!
#30000
b00001110000 &!
b00001111010 +!
b00001111010 ,!
b0000000001111010 -!
b00001111010 /!
b000001111010 6!
17!
#40000
07!
#50000
b00001111010 &!
b00010000100 +!
b00010000100 ,!
b0000000010000100 -!
b00010000100 /!
b000010000100 6!
17!
#60000
07!
#70000
b00010000100 &!
b00010001110 +!
b00010001110 ,!
b0000000010001110 -!
b00010001110 /!
b000010001110 6!
17!
#80000
07!
#90000
b00010001110 &!
b00010011000 +!
b00010011000 ,!
b0000000010011000 -!
b00010011000 /!
b000010011000 6!
17!
#100000
07!
#110000
b00010011000 &!
b00010100010 +!
b00010100010 ,!
b0000000010100010 -!
b00010100010 /!
b000010100010 6!
17!
#120000
07!
#130000
b00010100010 &!
b00010101100 +!
b00010101100 ,!
b0000000010101100 -!
b00010101100 /!
b000010101100 6!
17!
#140000
07!
#150000
b00010101100 &!
b00010110110 +!
b00010110110 ,!
b0000000010110110 -!
b00010110110 /!
b000010110110 6!
17!
#160000
07!
#170000
b00010110110 &!
b00011000000 +!
b00011000000 ,!
b0000000011000000 -!
b00011000000 /!
b000011000000 6!
17!
#180000
07!
#190000
0#
1h
b00011000000 &!
b00011001010 +!
b00011001010 ,!
b0000000011001010 -!
b00011001010 /!
b000011001010 6!
17!
1D!
b000000000000001 O!
b000000000000001 Q!
#200000
07!
#210000
b00000000000010 l
b000000000000100000 n
b000000000001000000 o
b0000000000001000000 q
b000000000000001000 r
b000000000000010000 s
b0000000000000010000 u
b00011001010 &!
b00011010100 +!
b00011010100 ,!
b0000000011010100 -!
b00011010100 /!
b000011010100 6!
17!
b00000000000001 <!
b00000000000001 =!
b00000000000001 >!
0D!
b000000000000000 O!
b000000000000000 Q!
#220000
07!
#230000
b00011010100 &!
b00011011110 +!
b00011011110 ,!
b0000000011011110 -!
b00011011110 /!
b000011011110 6!
17!
1D!
b000000000000001 O!
b000000000000001 Q!
#240000
07!
#250000
b00000000000100 l
b00000000000001 m
b000000000001000000 n
b000000000001100000 o
b0000000000001100000 q
b000000000000010000 r
b000000000000011000 s
b0000000000000011000 u
b00011011110 &!
b00011101000 +!
b00011101000 ,!
b0000000011101000 -!
b00011101000 /!
b000011101000 6!
17!
b00000000000010 <!
b00000000000010 =!
b00000000000010 >!
0D!
b000000000000000 O!
b000000000000000 Q!
#260000
07!
#270000
b00011101000 &!
b00011110010 +!
b00011110010 ,!
b0000000011110010 -!
b00011110010 /!
b000011110010 6!
17!
1D!
b000000000000001 O!
b000000000000001 Q!
#280000
07!
#290000
b00000000000110 l
b000000000001100000 n
b000000000010000000 o
b0000000000010000000 q
b000000000000011000 r
b000000000000100000 s
b0000000000000100000 u
b00011110010 &!
b00011111100 +!
b00011111100 ,!
b0000000011111100 -!
b00011111100 /!
b000011111100 6!
17!
b00000000000011 <!
b00000000000011 =!
b00000000000011 >!
0D!
b000000000000000 O!
b000000000000000 Q!
#300000
07!
#310000
b00011111100 &!
b00100000110 +!
b00100000110 ,!
b0000000100000110 -!
b00100000110 /!
b000100000110 6!
17!
1D!
b000000000000001 O!
b000000000000001 Q!
#320000
07!
#330000
b00000000001000 l
b00000000000010 m
b000000000010000000 n
b000000000010100000 o
b0000000000010100000 q
b000000000000100000 r
b000000000000101000 s
b0000000000000101000 u
b00100000110 &!
b00100010000 +!
b00100010000 ,!
b0000000100010000 -!
b00100010000 /!
b000100010000 6!
17!
b00000000000100 <!
b00000000000100 =!
b00000000000100 >!
0D!
b000000000000000 O!
b000000000000000 Q!
#340000
07!
#350000
b00100010000 &!
b00100011010 +!
b00100011010 ,!
b0000000100011010 -!
b00100011010 /!
b000100011010 6!
17!
1D!
b000000000000001 O!
b000000000000001 Q!
#360000
07!
#370000
b00000000001010 l
b000000000010100000 n
b000000000011000000 o
b0000000000011000000 q
b000000000000101000 r
b000000000000110000 s
b0000000000000110000 u
b00100011010 &!
b00100100100 +!
b00100100100 ,!
b0000000100100100 -!
b00100100100 /!
b000100100100 6!
17!
b00000000000101 <!
b00000000000101 =!
b00000000000101 >!
0D!
b000000000000000 O!
b000000000000000 Q!
#380000
07!
#390000
b00100100100 &!
b00100101110 +!
b00100101110 ,!
b0000000100101110 -!
b00100101110 /!
b000100101110 6!
17!
1D!
b000000000000001 O!
b000000000000001 Q!
#400000
07!
#410000
b00000000001100 l
b00000000000011 m
b000000000011000000 n
b000000000011100000 o
b0000000000011100000 q
b000000000000110000 r
b000000000000111000 s
b0000000000000111000 u
b00100101110 &!
b00100111000 +!
b00100111000 ,!
b0000000100111000 -!
b00100111000 /!
b000100111000 6!
17!
b00000000000110 <!
b00000000000110 =!
b00000000000110 >!
0D!
b000000000000000 O!
b000000000000000 Q!
#420000
07!
#430000
b00100111000 &!
b00101000010 +!
b00101000010 ,!
b0000000101000010 -!
b00101000010 /!
b000101000010 6!
17!
1D!
b000000000000001 O!
b000000000000001 Q!
#440000
07!
#450000
b00000000001110 l
b000000000011100000 n
b000000000100000000 o
b0000000000100000000 q
b000000000000111000 r
b000000000001000000 s
b0000000000001000000 u
b00101000010 &!
b00101001100 +!
b00101001100 ,!
b0000000101001100 -!
b00101001100 /!
b000101001100 6!
17!
b00000000000111 <!
b00000000000111 =!
b00000000000111 >!
0D!
b000000000000000 O!
b000000000000000 Q!
#460000
07!
#470000
b00101001100 &!
b00101010110 +!
b00101010110 ,!
b0000000101010110 -!
b00101010110 /!
b000101010110 6!
17!
1D!
b000000000000001 O!
b000000000000001 Q!
#480000
07!
#490000
b0111111111111111 /
b1000000000000000 0
b0111111111111111 1
b1000000000000000 2
r0.1308996938995833 G
b00000000010000 l
b00000000000100 m
b000000000100000000 n
b000000000100100000 o
b0000000000100100000 q
b000000000001000000 r
b000000000001001000 s
b0000000000001001000 u
b00101010110 &!
b00101100000 +!
b00101100000 ,!
b0000000101100000 -!
b00101100000 /!
b000101100000 6!
17!
b00000000001000 <!
b00000000001000 =!
b00000000001000 >!
0D!
b000000000000000 O!
b000000000000000 Q!
#500000
07!
#510000
b00101100000 &!
b00101101010 +!
b00101101010 ,!
b0000000101101010 -!
b00101101010 /!
b000101101010 6!
17!
1D!
b000000000000001 O!
b000000000000001 Q!
#520000
07!
#530000
b00000000000000000000000000000001 .
b0000000000000000 /
b0000000000000000 0
b0000000000000000 1
b0000000000000000 2
b00000000000000000000000000000001 D
r0.1308996938995833 E
b00000000010010 l
b000000000100100000 n
b000000000101000000 o
b0000000000101000000 q
b000000000001001000 r
b000000000001010000 s
b0000000000001010000 u
b00101101010 &!
b00101110100 +!
b00101110100 ,!
b0000000101110100 -!
b00101110100 /!
b000101110100 6!
17!
b00000000001001 <!
b00000000001001 =!
b00000000001001 >!
0D!
b000000000000000 O!
b000000000000000 Q!
#540000
07!
#550000
b0000010100011001 $
r0.1305261922200601 I
b1111101011100111 T
b0000010011001000 W
b0000000001001100 X
b0000000010011101 Y
b00000000010011101 ]
b00000010011001000 ^
b0000010100011001 _
1`
0a
0c
1d
1i
b11111110110 j
b0000000001010001 v
b0000000001010001 x
b0000000000000101 y
b0000000000000101 z
b00000000000000101 #!
b00000000001010001 %!
b00101110100 &!
b00101101010 +!
b00101101010 ,!
b0000000101101010 -!
b00101101010 /!
15!
b100101101010 6!
17!
b0000000111001101 8!
b0000010100011001 ;!
b0000010100011001 ?!
1D!
b00000000000001110011010101011010 G!
b00000010100011001 M!
b00000010100011001 N!
b000000000000001 O!
b000000000000001 Q!
#560000
07!
#570000
r1305 &
r1703025 *
b00000000000000000000000000000010 .
b0000010100011001 0
b00000000000000000000000000000010 D
r0.2617993877991667 E
b0000010001111100 W
b0000000001000111 X
b0000000011100100 Y
b00000000011100100 ]
b00000010001111100 ^
b0000000111001101 f
b0000000000000101 k
b00000000010100 l
b00000000000101 m
b000000000101000000 n
b000000000101100000 o
b0000000000101100000 q
b000000000001010000 r
b000000000001011000 s
b0000000000001011000 u
b0000000010011101 v
b0000000000000101 w
b0000000010011000 x
b0000000000001001 y
b0000000000001110 z
b00000000000001110 #!
b00000000000000101 $!
b00000000010011000 %!
b00101101010 &!
b00101100000 +!
b00101100000 ,!
b0000000101100000 -!
b00101100000 /!
b100101100000 6!
17!
b0000000111000000 8!
b00000000001010 <!
b00000000001010 =!
b00000000001010 >!
0D!
b00000000000001110000001001100000 G!
b000000000000000 O!
b000000000000000 Q!
#580000
07!
#590000
b0000101000011100 $
r0.2588190451025374 I
b1111010111100100 T
b0000100011101000 W
b0000000010001110 X
b0000000111000010 Y
b00000000111000010 ]
b00000100011101000 ^
b0000101000011100 _
b0000000000001110 k
b0000000100110100 v
b0000000000001110 w
b0000000100100110 x
b0000000000010010 y
b0000000000100000 z
b00000000000100000 #!
b00000000000001110 $!
b00000000100100110 %!
b00101100000 &!
b00101010110 +!
b00101010110 ,!
b0000000101010110 -!
b00101010110 /!
b100101010110 6!
17!
b0000001101100000 8!
b0000101000011100 ;!
b0000101000011100 ?!
1D!
b00000000000011011000000101101000 G!
b00000101000011100 M!
b00000101000011100 N!
b000000000000001 O!
b000000000000001 Q!
#600000
07!
#610000
r3893 &
r461 (
r8400769 *
r212521 ,
b00000000000000000000000000000011 .
b0000101000011100 0
b0000000111001101 2
b00000000000000000000000000000011 D
r0.39269908169875 E
b0000100001011010 W
b0000000010000101 X
b0000001001000111 Y
b00000001001000111 ]
b00000100001011010 ^
b0000001101100000 f
b0000000000100010 k
b00000000010110 l
b000000000101100000 n
b000000000110000000 o
b0000000000110000000 q
b000000000001011000 r
b000000000001100000 s
b0000000000001100000 u
b0000000111000010 v
b0000000000100000 w
b0000000110100010 x
b0000000000011010 y
b0000000000111010 z
b0000000000000010 {
b00000000000111010 #!
b00000000000100010 $!
b00000000110100010 %!
b00101010110 &!
b00101001100 +!
b00101001100 ,!
b0000000101001100 -!
b00101001100 /!
b100101001100 6!
17!
b0000001101000111 8!
b00000000001011 <!
b00000000001011 =!
b00000000001011 >!
0D!
b00000000000011010001110001010000 G!
b000000000000000 O!
b000000000000000 Q!
#620000
07!
