.github/outputs/wave.vcd
$version Generated by VerilatedVcd $end
$timescale 1ps $end
 $scope module TOP $end
  $scope module tb $end
   $var wire 32 K! CLK_PERIOD [31:0] $end
   $var wire 32 L! CLK_FREQ_HZ [31:0] $end
   $var wire 32 M! AUDIO_SAMPLE_RATE [31:0] $end
   $var wire 32 N! SAMPLES_PER_TONE [31:0] $end
   $var wire 32 O! SINE_AMPLITUDE [31:0] $end
   $var wire 32 O! SAW_AMPLITUDE [31:0] $end
   $var wire 32 K! SILENCE_SAMPLES [31:0] $end
   $var wire 32 P! SAMPLE_DIV [31:0] $end
   $var wire 32 Q! SINE_FREQ_HZ [31:0] $end
   $var wire 32 R! SAW_FREQ_HZ [31:0] $end
   $var wire 1 H! clk $end
   $var wire 1 # reset $end
   $var wire 16 $ audio_in [15:0] $end
   $var wire 10 % SW [9:0] $end
   $var wire 16 { audio_out [15:0] $end
   $var real 64 & sum_in $end
   $var real 64 ( sum_out $end
   $var real 64 * sum_sq_in $end
   $var real 64 , sum_sq_out $end
   $var wire 32 . count_samples [31:0] $end
   $var wire 16 / min_in [15:0] $end
   $var wire 16 0 max_in [15:0] $end
   $var wire 16 1 min_out [15:0] $end
   $var wire 16 2 max_out [15:0] $end
   $var wire 32 | sample_cnt [31:0] $end
   $var wire 1 } sample_tick $end
   $var real 64 3 print_stats__Vstatic__avg_in $end
   $var real 64 5 print_stats__Vstatic__avg_out $end
   $var real 64 7 print_stats__Vstatic__rms_in $end
   $var real 64 9 print_stats__Vstatic__rms_out $end
   $var real 64 ; print_stats__Vstatic__gain_db $end
   $var wire 32 = play_sine_tone_nowarmup__Vstatic__i [31:0] $end
   $var real 64 > play_sine_tone_nowarmup__Vstatic__phase $end
   $var real 64 @ play_sine_tone_nowarmup__Vstatic__phase_inc $end
   $var real 64 B play_sine_tone_nowarmup__Vstatic__s $end
   $var wire 32 D play_sine_tone__Vstatic__i [31:0] $end
   $var real 64 E play_sine_tone__Vstatic__phase $end
   $var real 64 G play_sine_tone__Vstatic__phase_inc $end
   $var real 64 I play_sine_tone__Vstatic__s $end
   $var wire 32 K play_saw_tone__Vstatic__i [31:0] $end
   $var real 64 L play_saw_tone__Vstatic__phase $end
   $var real 64 N play_saw_tone__Vstatic__phase_inc $end
   $var real 64 P play_saw_tone__Vstatic__v $end
   $scope module dut $end
    $var wire 1 H! clk $end
    $var wire 1 # reset $end
    $var wire 16 $ audio_in [15:0] $end
    $var wire 10 % SW [9:0] $end
    $var wire 16 { audio_out [15:0] $end
    $var wire 3 R effect_select [2:0] $end
    $var wire 16 I! noise_gate_out [15:0] $end
    $var wire 16 U high_pitch_out [15:0] $end
    $var wire 16 V low_pitch_out [15:0] $end
    $var wire 16 W reverb_out [15:0] $end
    $var wire 16 "! muffled_out [15:0] $end
    $var wire 14 _ hp_ram_wr_addr [13:0] $end
    $var wire 16 $ hp_ram_wr_data [15:0] $end
    $var wire 1 S! hp_ram_wr_en $end
    $var wire 14 #! hp_ram_rd_addr [13:0] $end
    $var wire 16 U hp_ram_rd_data [15:0] $end
    $var wire 14 ` lp_ram_wr_addr [13:0] $end
    $var wire 16 $ lp_ram_wr_data [15:0] $end
    $var wire 1 S! lp_ram_wr_en $end
    $var wire 14 $! lp_ram_rd_addr [13:0] $end
    $var wire 16 V lp_ram_rd_data [15:0] $end
    $var wire 14 a rev_ram_wr_addr [13:0] $end
    $var wire 16 X rev_ram_wr_data [15:0] $end
    $var wire 1 S! rev_ram_wr_en $end
    $var wire 14 a rev_ram_rd_addr [13:0] $end
    $var wire 16 Y rev_ram_rd_data [15:0] $end
    $var wire 1 e ram_we_a $end
    $var wire 14 f ram_addr_a [13:0] $end
    $var wire 16 g ram_din_a [15:0] $end
    $var wire 14 h ram_addr_b [13:0] $end
    $var wire 16 i ram_dout_a [15:0] $end
    $var wire 16 j ram_dout_b [15:0] $end
    $scope module hp_inst $end
     $var wire 1 H! clk $end
     $var wire 1 # reset $end
     $var wire 16 $ audio_in [15:0] $end
     $var wire 16 U audio_out [15:0] $end
     $var wire 14 _ ram_wr_addr [13:0] $end
     $var wire 16 $ ram_wr_data [15:0] $end
     $var wire 1 S! ram_wr_en $end
     $var wire 14 #! ram_rd_addr [13:0] $end
     $var wire 16 U ram_rd_data [15:0] $end
     $var wire 14 _ s0 [13:0] $end
     $var wire 14 #! s1 [13:0] $end
     $var wire 18 %! s2 [17:0] $end
     $var wire 18 &! s3 [17:0] $end
     $var wire 1 b unused_counter_ovf $end
     $var wire 1 '! unused_add_co $end
     $scope module DIG_Add_i2 $end
      $var wire 32 T! Bits [31:0] $end
      $var wire 18 %! a [17:0] $end
      $var wire 18 U! b [17:0] $end
      $var wire 1 V! c_i $end
      $var wire 18 &! s [17:0] $end
      $var wire 1 '! c_o $end
      $var wire 19 (! temp [18:0] $end
     $upscope $end
     $scope module DIG_Counter_Nbit_i0 $end
      $var wire 32 W! Bits [31:0] $end
      $var wire 14 _ out [13:0] $end
      $var wire 1 b ovf $end
      $var wire 1 H! C $end
      $var wire 1 S! en $end
      $var wire 1 # clr $end
      $var wire 14 _ count [13:0] $end
     $upscope $end
     $scope module DIG_Register_BUS_i3 $end
      $var wire 32 T! Bits [31:0] $end
      $var wire 1 H! C $end
      $var wire 1 S! en $end
      $var wire 18 &! D [17:0] $end
      $var wire 18 %! Q [17:0] $end
      $var wire 18 %! state [17:0] $end
     $upscope $end
    $upscope $end
    $scope module lp_inst $end
     $var wire 1 H! clk $end
     $var wire 1 # reset $end
     $var wire 16 $ audio_in [15:0] $end
     $var wire 16 V audio_out [15:0] $end
     $var wire 14 ` ram_wr_addr [13:0] $end
     $var wire 16 $ ram_wr_data [15:0] $end
     $var wire 1 S! ram_wr_en $end
     $var wire 14 $! ram_rd_addr [13:0] $end
     $var wire 16 V ram_rd_data [15:0] $end
     $var wire 14 ` s0 [13:0] $end
     $var wire 14 $! s1 [13:0] $end
     $var wire 18 )! s2 [17:0] $end
     $var wire 18 *! s3 [17:0] $end
     $var wire 1 c unused_counter_ovf $end
     $var wire 1 +! unused_add_co $end
     $scope module DIG_Add_i2 $end
      $var wire 32 T! Bits [31:0] $end
      $var wire 18 )! a [17:0] $end
      $var wire 18 X! b [17:0] $end
      $var wire 1 V! c_i $end
      $var wire 18 *! s [17:0] $end
      $var wire 1 +! c_o $end
      $var wire 19 ,! temp [18:0] $end
     $upscope $end
     $scope module DIG_Counter_Nbit_i0 $end
      $var wire 32 W! Bits [31:0] $end
      $var wire 14 ` out [13:0] $end
      $var wire 1 c ovf $end
      $var wire 1 H! C $end
      $var wire 1 S! en $end
      $var wire 1 V! clr $end
      $var wire 14 ` count [13:0] $end
     $upscope $end
     $scope module DIG_Register_BUS_i3 $end
      $var wire 32 T! Bits [31:0] $end
      $var wire 1 H! C $end
      $var wire 1 S! en $end
      $var wire 18 *! D [17:0] $end
      $var wire 18 )! Q [17:0] $end
      $var wire 18 )! state [17:0] $end
     $upscope $end
    $upscope $end
    $scope module muf_inst $end
     $var wire 16 $ audio_in [15:0] $end
     $var wire 1 H! clk $end
     $var wire 1 # reset $end
     $var wire 16 "! audio_out [15:0] $end
     $var wire 16 -! y_1 [15:0] $end
     $var wire 16 k s0 [15:0] $end
     $var wire 16 .! y_2 [15:0] $end
     $var wire 16 /! s1 [15:0] $end
     $var wire 16 l s2 [15:0] $end
     $var wire 16 m s3 [15:0] $end
     $var wire 16 0! s4 [15:0] $end
     $var wire 16 1! s5 [15:0] $end
     $var wire 16 2! s6 [15:0] $end
     $var wire 1 n s7 $end
     $var wire 1 3! s8 $end
     $var wire 1 4! s9 $end
     $var wire 1 o unused_sub0_co $end
     $var wire 1 5! unused_sub1_co $end
     $var wire 1 p unused_add0_co $end
     $var wire 1 6! unused_add1_co $end
     $var wire 1 7! unused_add2_co $end
     $scope module DIG_Add_i1 $end
      $var wire 32 Y! Bits [31:0] $end
      $var wire 16 l a [15:0] $end
      $var wire 16 -! b [15:0] $end
      $var wire 1 V! c_i $end
      $var wire 16 m s [15:0] $end
      $var wire 1 p c_o $end
      $var wire 17 q temp [16:0] $end
     $upscope $end
     $scope module DIG_Add_i4 $end
      $var wire 32 Y! Bits [31:0] $end
      $var wire 16 0! a [15:0] $end
      $var wire 16 .! b [15:0] $end
      $var wire 1 V! c_i $end
      $var wire 16 1! s [15:0] $end
      $var wire 1 6! c_o $end
      $var wire 17 8! temp [16:0] $end
     $upscope $end
     $scope module DIG_Add_i6 $end
      $var wire 32 Y! Bits [31:0] $end
      $var wire 16 2! a [15:0] $end
      $var wire 16 .! b [15:0] $end
      $var wire 1 V! c_i $end
      $var wire 16 "! s [15:0] $end
      $var wire 1 7! c_o $end
      $var wire 17 9! temp [16:0] $end
     $upscope $end
     $scope module DIG_Register_BUS_i2 $end
      $var wire 32 Y! Bits [31:0] $end
      $var wire 1 H! C $end
      $var wire 1 S! en $end
      $var wire 16 m D [15:0] $end
      $var wire 16 -! Q [15:0] $end
      $var wire 16 -! state [15:0] $end
     $upscope $end
     $scope module DIG_Register_BUS_i5 $end
      $var wire 32 Y! Bits [31:0] $end
      $var wire 1 H! C $end
      $var wire 1 S! en $end
      $var wire 16 1! D [15:0] $end
      $var wire 16 .! Q [15:0] $end
      $var wire 16 .! state [15:0] $end
     $upscope $end
     $scope module DIG_Sub_i0 $end
      $var wire 32 Y! Bits [31:0] $end
      $var wire 16 $ a [15:0] $end
      $var wire 16 -! b [15:0] $end
      $var wire 1 V! c_i $end
      $var wire 16 k s [15:0] $end
      $var wire 1 o c_o $end
      $var wire 17 r temp [16:0] $end
     $upscope $end
     $scope module DIG_Sub_i3 $end
      $var wire 32 Y! Bits [31:0] $end
      $var wire 16 -! a [15:0] $end
      $var wire 16 .! b [15:0] $end
      $var wire 1 V! c_i $end
      $var wire 16 /! s [15:0] $end
      $var wire 1 5! c_o $end
      $var wire 17 :! temp [16:0] $end
     $upscope $end
    $upscope $end
    $scope module ng_inst $end
     $var wire 1 # reset $end
     $var wire 1 H! clk $end
     $var wire 16 $ audio_in [15:0] $end
     $var wire 16 I! audio_out [15:0] $end
     $var wire 1 S s0 $end
     $var wire 16 T s1 [15:0] $end
     $var wire 16 s s2 [15:0] $end
     $var wire 1 t s3 $end
     $var wire 1 u s4 $end
     $var wire 11 <! s5 [10:0] $end
     $var wire 11 ;! s6 [10:0] $end
     $var wire 1 ~ s7 $end
     $var wire 11 !! s8 [10:0] $end
     $var wire 11 =! s9 [10:0] $end
     $var wire 16 >! s10 [15:0] $end
     $var wire 32 J! s11 [31:0] $end
     $var wire 1 ?! s12 $end
     $var wire 11 @! s13 [10:0] $end
     $var wire 1 A! s14 $end
     $var wire 1 v unused_comp_eq0 $end
     $var wire 1 w unused_comp_lt0 $end
     $var wire 1 x unused_comp_gt1 $end
     $var wire 1 y unused_comp_eq1 $end
     $var wire 1 B! unused_comp_eq2 $end
     $var wire 1 C! unused_comp_lt2 $end
     $var wire 1 D! unused_comp_gt3 $end
     $var wire 1 E! unused_comp_eq3 $end
     $var wire 1 F! unused_add_co $end
     $scope module CompUnsigned_i10 $end
      $var wire 32 Z! Bits [31:0] $end
      $var wire 11 [! a [10:0] $end
      $var wire 11 @! b [10:0] $end
      $var wire 1 D! > $end
      $var wire 1 E! = $end
      $var wire 1 A! < $end
     $upscope $end
     $scope module CompUnsigned_i2 $end
      $var wire 32 Y! Bits [31:0] $end
      $var wire 16 s a [15:0] $end
      $var wire 16 \! b [15:0] $end
      $var wire 1 t > $end
      $var wire 1 v = $end
      $var wire 1 w < $end
     $upscope $end
     $scope module CompUnsigned_i3 $end
      $var wire 32 Y! Bits [31:0] $end
      $var wire 16 s a [15:0] $end
      $var wire 16 ]! b [15:0] $end
      $var wire 1 x > $end
      $var wire 1 y = $end
      $var wire 1 u < $end
     $upscope $end
     $scope module CompUnsigned_i8 $end
      $var wire 32 Z! Bits [31:0] $end
      $var wire 11 ^! a [10:0] $end
      $var wire 11 =! b [10:0] $end
      $var wire 1 ?! > $end
      $var wire 1 B! = $end
      $var wire 1 C! < $end
     $upscope $end
     $scope module DIG_Add_i6 $end
      $var wire 32 Z! Bits [31:0] $end
      $var wire 11 ;! a [10:0] $end
      $var wire 11 !! b [10:0] $end
      $var wire 1 V! c_i $end
      $var wire 11 =! s [10:0] $end
      $var wire 1 F! c_o $end
      $var wire 12 G! temp [11:0] $end
     $upscope $end
     $scope module DIG_BitExtender_i7 $end
      $var wire 32 Z! inputBits [31:0] $end
      $var wire 32 Y! outputBits [31:0] $end
      $var wire 11 =! in [10:0] $end
      $var wire 16 >! out [15:0] $end
     $upscope $end
     $scope module DIG_Mul_unsigned_i4 $end
      $var wire 32 Y! Bits [31:0] $end
      $var wire 16 >! a [15:0] $end
      $var wire 16 s b [15:0] $end
      $var wire 32 J! mul [31:0] $end
     $upscope $end
     $scope module DIG_Neg_i0 $end
      $var wire 32 Y! Bits [31:0] $end
      $var wire 16 $ in [15:0] $end
      $var wire 16 T out [15:0] $end
     $upscope $end
     $scope module DIG_Register_BUS_i12 $end
      $var wire 32 Z! Bits [31:0] $end
      $var wire 1 H! C $end
      $var wire 1 S! en $end
      $var wire 11 <! D [10:0] $end
      $var wire 11 ;! Q [10:0] $end
      $var wire 11 ;! state [10:0] $end
     $upscope $end
     $scope module Mux_2x1_NBits_i1 $end
      $var wire 32 Y! Bits [31:0] $end
      $var wire 1 S sel [0:0] $end
      $var wire 16 $ in_0 [15:0] $end
      $var wire 16 T in_1 [15:0] $end
      $var wire 16 s out [15:0] $end
     $upscope $end
     $scope module Mux_2x1_NBits_i11 $end
      $var wire 32 Z! Bits [31:0] $end
      $var wire 1 A! sel [0:0] $end
      $var wire 11 [! in_0 [10:0] $end
      $var wire 11 @! in_1 [10:0] $end
      $var wire 11 <! out [10:0] $end
     $upscope $end
     $scope module Mux_2x1_NBits_i5 $end
      $var wire 32 Z! Bits [31:0] $end
      $var wire 1 ~ sel [0:0] $end
      $var wire 11 _! in_0 [10:0] $end
      $var wire 11 `! in_1 [10:0] $end
      $var wire 11 !! out [10:0] $end
     $upscope $end
     $scope module Mux_2x1_NBits_i9 $end
      $var wire 32 Z! Bits [31:0] $end
      $var wire 1 ?! sel [0:0] $end
      $var wire 11 ^! in_0 [10:0] $end
      $var wire 11 =! in_1 [10:0] $end
      $var wire 11 @! out [10:0] $end
     $upscope $end
    $upscope $end
    $scope module rev_inst $end
     $var wire 1 H! clk $end
     $var wire 1 # reset $end
     $var wire 16 $ audio_in [15:0] $end
     $var wire 16 W audio_out [15:0] $end
     $var wire 14 a ram_wr_addr [13:0] $end
     $var wire 16 X ram_wr_data [15:0] $end
     $var wire 1 S! ram_wr_en $end
     $var wire 14 a ram_rd_addr [13:0] $end
     $var wire 16 Y ram_rd_data [15:0] $end
     $var wire 14 a s0 [13:0] $end
     $var wire 16 X s1 [15:0] $end
     $var wire 16 Y s2 [15:0] $end
     $var wire 16 Z s3 [15:0] $end
     $var wire 1 z s4 $end
     $var wire 1 d unused_counter_ovf $end
     $var wire 1 [ unused_add0_co $end
     $var wire 1 \ unused_add1_co $end
     $scope module DIG_Add_i2 $end
      $var wire 32 Y! Bits [31:0] $end
      $var wire 16 $ a [15:0] $end
      $var wire 16 Z b [15:0] $end
      $var wire 1 V! c_i $end
      $var wire 16 X s [15:0] $end
      $var wire 1 [ c_o $end
      $var wire 17 ] temp [16:0] $end
     $upscope $end
     $scope module DIG_Add_i3 $end
      $var wire 32 Y! Bits [31:0] $end
      $var wire 16 $ a [15:0] $end
      $var wire 16 Y b [15:0] $end
      $var wire 1 V! c_i $end
      $var wire 16 W s [15:0] $end
      $var wire 1 \ c_o $end
      $var wire 17 ^ temp [16:0] $end
     $upscope $end
     $scope module DIG_Counter_Nbit_i0 $end
      $var wire 32 W! Bits [31:0] $end
      $var wire 14 a out [13:0] $end
      $var wire 1 d ovf $end
      $var wire 1 H! C $end
      $var wire 1 S! en $end
      $var wire 1 V! clr $end
      $var wire 14 a count [13:0] $end
     $upscope $end
    $upscope $end
    $scope module shared_ram $end
     $var wire 1 H! clk $end
     $var wire 1 e we_a $end
     $var wire 14 f addr_a [13:0] $end
     $var wire 16 g din_a [15:0] $end
     $var wire 16 i dout_a [15:0] $end
     $var wire 14 h addr_b [13:0] $end
     $var wire 16 j dout_b [15:0] $end
    $upscope $end
   $upscope $end
  $upscope $end
 $upscope $end
$enddefinitions $end


#0
1#
b0000000000000000 $
b0000000000 %
r0 &
r0 (
r0 *
r0 ,
b00000000000000000000000000000000 .
b0000000000000000 /
b0000000000000000 0
b0000000000000000 1
b0000000000000000 2
r0 3
r0 5
r0 7
r0 9
r0 ;
b00000000000000000000000000000000 =
r0 >
r0 @
r0 B
b00000000000000000000000000000000 D
r0 E
r0 G
r0 I
b00000000000000000000000000000000 K
r0 L
r0 N
r0 P
b000 R
0S
b0000000000000000 T
b0000000000000000 U
b0000000000000000 V
b0000000000000000 W
b0000000000000000 X
b0000000000000000 Y
b0000000000000000 Z
0[
0\
b00000000000000000 ]
b00000000000000000 ^
b00000000000000 _
b00000000000000 `
b00000000000000 a
0b
0c
0d
0e
b00000000000000 f
b0000000000000000 g
b00000000000000 h
b0000000000000000 i
b0000000000000000 j
b0000000000000000 k
b0000000000000000 l
b0000000000000000 m
0n
0o
0p
b00000000000000000 q
b00000000000000000 r
b0000000000000000 s
0t
1u
0v
1w
0x
0y
0z
b0000000000000000 {
b00000000000000000000000000000000 |
0}
0~
b00000001010 !!
b0000000000000000 "!
b00000000000000 #!
b00000000000000 $!
b000000000000000000 %!
b000000000000100000 &!
0'!
b0000000000000100000 (!
b000000000000000000 )!
b000000000000001000 *!
0+!
b0000000000000001000 ,!
b0000000000000000 -!
b0000000000000000 .!
b0000000000000000 /!
b0000000000000000 0!
b0000000000000000 1!
b0000000000000000 2!
03!
04!
05!
06!
07!
b00000000000000000 8!
b00000000000000000 9!
b00000000000000000 :!
b00000000000 ;!
b00001100110 <!
b00000001010 =!
b0000000000001010 >!
1?!
b00000001010 @!
0A!
0B!
0C!
1D!
0E!
0F!
b000000001010 G!
0H!
b0000000000000000 I!
b00000000000000000000000000000000 J!
b00000000000000000000000000010100 K!
b00000010111110101111000010000000 L!
b00000000000000001011101110000000 M!
b00000000000000000000000001100100 N!
b00000000000000000010011100010000 O!
b00000000000000000000000000000001 P!
b00000000000000000000001111101000 Q!
b00000000000000000000000111110100 R!
1S!
b00000000000000000000000000010010 T!
b000000000000100000 U!
0V!
b00000000000000000000000000001110 W!
b000000000000001000 X!
b00000000000000000000000000010000 Y!
b00000000000000000000000000001011 Z!
b00001100110 [!
b0000001111101000 \!
b0000000111110100 ]!
b10000000000 ^!
b00000001010 _!
b11111110110 `!
#10000
b00000000000001 `
b00000000000001 a
b00000000000010 #!
b000000000000100000 %!
b000000000001000000 &!
b0000000000001000000 (!
b000000000000001000 )!
b000000000000010000 *!
b0000000000000010000 ,!
b00001100110 ;!
b00001110000 <!
b00001110000 =!
b0000000001110000 >!
b00001110000 @!
1A!
0D!
b000001110000 G!
1H!
#20000
0H!
#30000
b00000000000010 `
b00000000000010 a
b00000000000100 #!
b00000000000001 $!
b000000000001000000 %!
b000000000001100000 &!
b0000000000001100000 (!
b000000000000010000 )!
b000000000000011000 *!
b0000000000000011000 ,!
b00001110000 ;!
b00001111010 <!
b00001111010 =!
b0000000001111010 >!
b00001111010 @!
b000001111010 G!
1H!
#40000
0H!
#50000
b00000000000011 `
b00000000000011 a
b00000000000110 #!
b000000000001100000 %!
b000000000010000000 &!
b0000000000010000000 (!
b000000000000011000 )!
b000000000000100000 *!
b0000000000000100000 ,!
b00001111010 ;!
b00010000100 <!
b00010000100 =!
b0000000010000100 >!
b00010000100 @!
b000010000100 G!
1H!
#60000
0H!
#70000
b00000000000100 `
b00000000000100 a
b00000000001000 #!
b00000000000010 $!
b000000000010000000 %!
b000000000010100000 &!
b0000000000010100000 (!
b000000000000100000 )!
b000000000000101000 *!
b0000000000000101000 ,!
b00010000100 ;!
b00010001110 <!
b00010001110 =!
b0000000010001110 >!
b00010001110 @!
b000010001110 G!
1H!
#80000
0H!
#90000
b00000000000101 `
b00000000000101 a
b00000000001010 #!
b000000000010100000 %!
b000000000011000000 &!
b0000000000011000000 (!
b000000000000101000 )!
b000000000000110000 *!
b0000000000000110000 ,!
b00010001110 ;!
b00010011000 <!
b00010011000 =!
b0000000010011000 >!
b00010011000 @!
b000010011000 G!
1H!
#100000
0H!
#110000
b00000000000110 `
b00000000000110 a
b00000000001100 #!
b00000000000011 $!
b000000000011000000 %!
b000000000011100000 &!
b0000000000011100000 (!
b000000000000110000 )!
b000000000000111000 *!
b0000000000000111000 ,!
b00010011000 ;!
b00010100010 <!
b00010100010 =!
b0000000010100010 >!
b00010100010 @!
b000010100010 G!
1H!
#120000
0H!
#130000
b00000000000111 `
b00000000000111 a
b00000000001110 #!
b000000000011100000 %!
b000000000100000000 &!
b0000000000100000000 (!
b000000000000111000 )!
b000000000001000000 *!
b0000000000001000000 ,!
b00010100010 ;!
b00010101100 <!
b00010101100 =!
b0000000010101100 >!
b00010101100 @!
b000010101100 G!
1H!
#140000
0H!
#150000
b00000000001000 `
b00000000001000 a
b00000000010000 #!
b00000000000100 $!
b000000000100000000 %!
b000000000100100000 &!
b0000000000100100000 (!
b000000000001000000 )!
b000000000001001000 *!
b0000000000001001000 ,!
b00010101100 ;!
b00010110110 <!
b00010110110 =!
b0000000010110110 >!
b00010110110 @!
b000010110110 G!
1H!
#160000
0H!
#170000
b00000000001001 `
b00000000001001 a
b00000000010010 #!
b000000000100100000 %!
b000000000101000000 &!
b0000000000101000000 (!
b000000000001001000 )!
b000000000001010000 *!
b0000000000001010000 ,!
b00010110110 ;!
b00011000000 <!
b00011000000 =!
b0000000011000000 >!
b00011000000 @!
b000011000000 G!
1H!
#180000
0H!
#190000
0#
b00000000000001 _
b00000000001010 `
b00000000001010 a
1}
b00000000010100 #!
b00000000000101 $!
b000000000101000000 %!
b000000000101100000 &!
b0000000000101100000 (!
b000000000001010000 )!
b000000000001011000 *!
b0000000000001011000 ,!
b00011000000 ;!
b00011001010 <!
b00011001010 =!
b0000000011001010 >!
b00011001010 @!
b000011001010 G!
1H!
#200000
0H!
#210000
b00000000000010 _
b00000000001011 `
b00000000001011 a
b00000000010110 #!
b000000000101100000 %!
b000000000110000000 &!
b0000000000110000000 (!
b000000000001011000 )!
b000000000001100000 *!
b0000000000001100000 ,!
b00011001010 ;!
b00011010100 <!
b00011010100 =!
b0000000011010100 >!
b00011010100 @!
b000011010100 G!
1H!
#220000
0H!
#230000
b00000000000011 _
b00000000001100 `
b00000000001100 a
b00000000011000 #!
b00000000000110 $!
b000000000110000000 %!
b000000000110100000 &!
b0000000000110100000 (!
b000000000001100000 )!
b000000000001101000 *!
b0000000000001101000 ,!
b00011010100 ;!
b00011011110 <!
b00011011110 =!
b0000000011011110 >!
b00011011110 @!
b000011011110 G!
1H!
#240000
0H!
#250000
b00000000000100 _
b00000000001101 `
b00000000001101 a
b00000000011010 #!
b000000000110100000 %!
b000000000111000000 &!
b0000000000111000000 (!
b000000000001101000 )!
b000000000001110000 *!
b0000000000001110000 ,!
b00011011110 ;!
b00011101000 <!
b00011101000 =!
b0000000011101000 >!
b00011101000 @!
b000011101000 G!
1H!
#260000
0H!
#270000
b00000000000101 _
b00000000001110 `
b00000000001110 a
b00000000011100 #!
b00000000000111 $!
b000000000111000000 %!
b000000000111100000 &!
b0000000000111100000 (!
b000000000001110000 )!
b000000000001111000 *!
b0000000000001111000 ,!
b00011101000 ;!
b00011110010 <!
b00011110010 =!
b0000000011110010 >!
b00011110010 @!
b000011110010 G!
1H!
#280000
0H!
#290000
b00000000000110 _
b00000000001111 `
b00000000001111 a
b00000000011110 #!
b000000000111100000 %!
b000000001000000000 &!
b0000000001000000000 (!
b000000000001111000 )!
b000000000010000000 *!
b0000000000010000000 ,!
b00011110010 ;!
b00011111100 <!
b00011111100 =!
b0000000011111100 >!
b00011111100 @!
b000011111100 G!
1H!
#300000
0H!
#310000
b00000000000111 _
b00000000010000 `
b00000000010000 a
b00000000100000 #!
b00000000001000 $!
b000000001000000000 %!
b000000001000100000 &!
b0000000001000100000 (!
b000000000010000000 )!
b000000000010001000 *!
b0000000000010001000 ,!
b00011111100 ;!
b00100000110 <!
b00100000110 =!
b0000000100000110 >!
b00100000110 @!
b000100000110 G!
1H!
#320000
0H!
#330000
b00000000001000 _
b00000000010001 `
b00000000010001 a
b00000000100010 #!
b000000001000100000 %!
b000000001001000000 &!
b0000000001001000000 (!
b000000000010001000 )!
b000000000010010000 *!
b0000000000010010000 ,!
b00100000110 ;!
b00100010000 <!
b00100010000 =!
b0000000100010000 >!
b00100010000 @!
b000100010000 G!
1H!
#340000
0H!
#350000
b00000000001001 _
b00000000010010 `
b00000000010010 a
b00000000100100 #!
b00000000001001 $!
b000000001001000000 %!
b000000001001100000 &!
b0000000001001100000 (!
b000000000010010000 )!
b000000000010011000 *!
b0000000000010011000 ,!
b00100010000 ;!
b00100011010 <!
b00100011010 =!
b0000000100011010 >!
b00100011010 @!
b000100011010 G!
1H!
#360000
0H!
#370000
b00000000001010 _
b00000000010011 `
b00000000010011 a
b00000000100110 #!
b000000001001100000 %!
b000000001010000000 &!
b0000000001010000000 (!
b000000000010011000 )!
b000000000010100000 *!
b0000000000010100000 ,!
b00100011010 ;!
b00100100100 <!
b00100100100 =!
b0000000100100100 >!
b00100100100 @!
b000100100100 G!
1H!
#380000
0H!
#390000
b00000000001011 _
b00000000010100 `
b00000000010100 a
b00000000101000 #!
b00000000001010 $!
b000000001010000000 %!
b000000001010100000 &!
b0000000001010100000 (!
b000000000010100000 )!
b000000000010101000 *!
b0000000000010101000 ,!
b00100100100 ;!
b00100101110 <!
b00100101110 =!
b0000000100101110 >!
b00100101110 @!
b000100101110 G!
1H!
#400000
0H!
#410000
b00000000001100 _
b00000000010101 `
b00000000010101 a
b00000000101010 #!
b000000001010100000 %!
b000000001011000000 &!
b0000000001011000000 (!
b000000000010101000 )!
b000000000010110000 *!
b0000000000010110000 ,!
b00100101110 ;!
b00100111000 <!
b00100111000 =!
b0000000100111000 >!
b00100111000 @!
b000100111000 G!
1H!
#420000
0H!
#430000
b00000000001101 _
b00000000010110 `
b00000000010110 a
b00000000101100 #!
b00000000001011 $!
b000000001011000000 %!
b000000001011100000 &!
b0000000001011100000 (!
b000000000010110000 )!
b000000000010111000 *!
b0000000000010111000 ,!
b00100111000 ;!
b00101000010 <!
b00101000010 =!
b0000000101000010 >!
b00101000010 @!
b000101000010 G!
1H!
#440000
0H!
#450000
b00000000001110 _
b00000000010111 `
b00000000010111 a
b00000000101110 #!
b000000001011100000 %!
b000000001100000000 &!
b0000000001100000000 (!
b000000000010111000 )!
b000000000011000000 *!
b0000000000011000000 ,!
b00101000010 ;!
b00101001100 <!
b00101001100 =!
b0000000101001100 >!
b00101001100 @!
b000101001100 G!
1H!
#460000
0H!
#470000
b00000000001111 _
b00000000011000 `
b00000000011000 a
b00000000110000 #!
b00000000001100 $!
b000000001100000000 %!
b000000001100100000 &!
b0000000001100100000 (!
b000000000011000000 )!
b000000000011001000 *!
b0000000000011001000 ,!
b00101001100 ;!
b00101010110 <!
b00101010110 =!
b0000000101010110 >!
b00101010110 @!
b000101010110 G!
1H!
#480000
0H!
#490000
b0111111111111111 /
b1000000000000000 0
b0111111111111111 1
b1000000000000000 2
r0.1308996938995833 G
b00000000010000 _
b00000000011001 `
b00000000011001 a
b00000000110010 #!
b000000001100100000 %!
b000000001101000000 &!
b0000000001101000000 (!
b000000000011001000 )!
b000000000011010000 *!
b0000000000011010000 ,!
b00101010110 ;!
b00101100000 <!
b00101100000 =!
b0000000101100000 >!
b00101100000 @!
b000101100000 G!
1H!
#500000
0H!
#510000
b00000000010001 _
b00000000011010 `
b00000000011010 a
b00000000110100 #!
b00000000001101 $!
b000000001101000000 %!
b000000001101100000 &!
b0000000001101100000 (!
b000000000011010000 )!
b000000000011011000 *!
b0000000000011011000 ,!
b00101100000 ;!
b00101101010 <!
b00101101010 =!
b0000000101101010 >!
b00101101010 @!
b000101101010 G!
1H!
#520000
0H!
#530000
b00000000000000000000000000000001 .
b0000000000000000 /
b0000000000000000 0
b0000000000000000 1
b0000000000000000 2
b00000000000000000000000000000001 D
r0.1308996938995833 E
b00000000010010 _
b00000000011011 `
b00000000011011 a
b00000000110110 #!
b000000001101100000 %!
b000000001110000000 &!
b0000000001110000000 (!
b000000000011011000 )!
b000000000011100000 *!
b0000000000011100000 ,!
b00101101010 ;!
b00101110100 <!
b00101110100 =!
b0000000101110100 >!
b00101110100 @!
b000101110100 G!
1H!
#540000
0H!
#550000
b0000010100011001 $
r0.1305261922200601 I
b1111101011100111 T
b0000010100011001 W
b0000010100011001 X
b00000010100011001 ]
b00000010100011001 ^
b00000000010011 _
b00000000011100 `
b00000000011100 a
b0000010011001000 k
b0000000001001100 l
b0000000010011101 m
b00000000010011101 q
b00000010011001000 r
b0000010100011001 s
1t
0u
0w
1x
b0000000111011010 {
1~
b11111110110 !!
b00000000111000 #!
b00000000001110 $!
b000000001110000000 %!
b000000001110100000 &!
b0000000001110100000 (!
b000000000011100000 )!
b000000000011101000 *!
b0000000000011101000 ,!
b0000000001010001 -!
b0000000001010001 /!
b0000000000000101 0!
b0000000000000101 1!
b00000000000000101 8!
b00000000001010001 :!
b00101110100 ;!
b00101101010 <!
b00101101010 =!
b0000000101101010 >!
b00101101010 @!
1F!
b100101101010 G!
1H!
b0000000111001101 I!
b00000000000001110011010101011010 J!
#560000
0H!
